1.9401780065419183 4.297245512142144 -0.107812338502292
1.7019669576940422 4.055766218123514 -0.141339059861247
1.8130068570276858 4.238677878889686 -0.2266581641623289
1.7571017571898513 4.1814772961824325 -0.0633642486881632
1.7793353910060545 3.792056027431682 0.061588375122749
2.0794953781490717 4.292598787152101 -0.1912609847809149
2.0610672251842757 3.7030078125636345 0.0716422624695655
1.7292249410204545 4.136434720011322 0.0734627063216602
1.9618582248283214 3.6992031077675547 0.0771981065554882
2.180915951032255 3.7566833666761785 0.0742060609986172
2.2999050161094776 4.044615543281664 0.0783012037778581
1.9050236667707652 4.287946282344943 0.0729038092992097
2.130066136100408 4.273891156538239 0.0811401619376569
2.3012174636592895 3.965335825747485 0.0836517553999687
2.27392476003633 4.12999535079757 0.0797353483726597
2.154772842979172 4.26072769792657 0.079713513487133
2.0592252360784897 4.297364989199117 0.041336299529898
1.828652806657738 3.7498526339861367 -0.0688924222189216
2.1570487276173176 3.7406368134377477 -0.0641583641765953
2.216533537986135 3.7877577037507573 -0.0581409384703349
1.9658935931310135 3.698718871483076 -0.0551330810357836
2.0174335563804484 3.697296124071934 -0.0574094015065607
2.068521722364986 3.704638629888606 -0.054992373274691
2.1724922549954244 4.249359153344202 -0.055731569618588
1.8104692404737666 4.236667819070006 -0.0667970781127916
2.2582354811246224 4.158896197809384 -0.2262830540057577
1.7015866503631463 3.94630606972425 -0.1872147495618444
1.921897502077842 3.7070263404190342 -0.2085704347503233
2.212735124911583 3.7839506259699016 -0.2267639481812653
1.9728529663349734 3.6980122453589646 -0.234657360820001
2.1625053179905747 3.744020338669795 -0.2426567215820266
2.1828661817036665 4.241854346620163 -0.2429228909126209
1.69734944185112 4.018335894909045 -0.2158695956493065
2.2576492656475216 3.8401550085200133 -0.2335332103092806
2.2971772447130645 3.9398397920989656 -0.2032634940531833
2.28600048607889 4.100684096820614 -0.2272265385645738
1.8190794824036656 3.7566867621714373 -0.2302940659714312
2.089534691048176 3.710315508718793 -0.1654309083476156
1.9919847156541701 3.696900477389357 -0.1473061186435969
2.2172502988540734 4.211508564927664 -0.1732297475863626
1.750615833125489 4.172456089200266 -0.180782060764071
2.3030399846185854 3.9899833582318345 -0.1756545610148212
1.9270762091048665 4.294305429972719 -0.1742926163761658
2.300554750467384 4.040005091693844 -0.1718307309632103
1.7656434499957354 3.807618678505311 -0.160563579834631
2.202268457131293 3.774121633086144 -0.1531030824677957
2.0033161587024746 4.303187348814894 -0.1544921048891674
1.7190928947961135 4.114126086570586 -0.1670026924635789
2.2407322042816724 4.184340910303794 -0.0938613143974005
1.8640906752100954 3.7289608500140683 -0.0766545813586474
2.291547018089509 3.9167299475618047 -0.0875908696992274
2.033832623804976 4.301311996038019 -0.086759525960632
1.7047673505858514 4.069074221746224 -0.0894482479712482
1.7533357761919997 4.176324490877305 -0.1407608395800076
2.145798743749099 3.7341498698305213 -0.1099213422186487
1.8188339083258223 3.7568695563746743 -0.1068986026559408
2.1629802816084105 4.255677517972909 -0.1425615678454509
1.7611594343040495 3.813214696595309 -0.0971781445038453
1.6969691940371354 3.9897094204516517 -0.1419810348974425
1.7053107202103597 3.928643193968569 -0.1140117571139044
1.7243765771752084 4.126353845134568 -0.0796722352956841
1.7289063993193505 3.8641993186322514 -0.1457681204858328
2.301868151397284 4.028446169547599 -0.0874013608793249
2.3023450612699974 3.977173933418444 -0.0965892086103943
1.8279194086494088 4.249643416637361 -0.0893293734217471
2.2484160422896213 3.826152263968997 -0.1124132173193013
2.281943568783582 4.111540976378737 -0.1344925688918157
2.2850623021370136 3.8966895489783817 -0.1166471661326008
1.9256861954198832 3.7060424795335685 -0.1065314351127532
2.2335253365316294 3.806610541684058 0.0173645346596426
1.809993763426273 3.7637137425641662 -0.0295563532583348
2.183003291557862 4.241750616687802 0.0289429210775495
1.8867289456710112 3.7187470290981026 0.0346467560778154
1.744811606928919 4.163745074526666 -0.0370305388814214
1.9457026272649474 3.7016958587213127 0.0125078972762942
2.0091047956812096 4.303068751417146 0.0295397267042092
2.2961718986390256 4.06492897540004 0.0275470548789402
2.1162602379203257 4.280030574167632 -8.5604663663e-05
2.303156476928742 4.005451227943992 -0.0305838678851869
2.0536921681049614 3.7015863332986694 0.0192804052309073
1.9504907629484247 4.2991360908291 -0.0164084486202077
1.7135240319842056 4.099323134965413 0.0308644060051458
1.7003312325025806 4.046175698982492 -0.0098033510591578
1.7058351262781155 3.926511276660075 -0.0418386770756413
1.8805046002263701 4.278665417342886 -0.0190834698205619
2.182795589862193 3.7580922950444173 -0.0377467091206802
1.836398302042884 4.255280335739933 0.0380500066679735
1.7751041270436707 4.203360300248487 0.0431643892690138
2.241969911383198 4.182713238094976 -0.0228421258793296
2.2728712065128613 4.132192549132543 0.0447383628171769
2.835742438285962 0.7924514181752222 -0.1412198272279161
2.96027278907079 0.715697175558998 -0.0871415671574414
2.941918393537277 0.7089034026264547 -0.0434660555865541
3.286693803852365 0.9947042855723742 -0.0881964752207402
2.887407107186678 0.7378236979424091 -0.0926629760332281
3.145702847376588 0.7546970572061069 -0.0927207987617166
3.2856397818017427 1.0468957522709192 -0.07880801654145
3.243692829609228 0.8442275352929202 -0.0796790062446151
3.158334287034853 0.7712782264372362 -0.1123236566688802
2.7339223758021083 1.0142643694812465 -0.1378376786822383
3.2533281557848746 0.9052004412487825 -0.1297608922102839
2.781877377509191 0.8532223551867585 -0.1444951367375734
3.054279360642138 0.7229107670916977 -0.1013671939760064
3.25937430164844 1.0755457128657964 -0.1304523549499303
3.271270686497779 1.0016149037490627 -0.1280999872478716
3.2252848840116553 2.223612047523376 -0.1751146997729706
2.6893671197937925 1.9347095681088138 -0.0949238596994573
3.2170265534212565 1.1548652541811228 -0.1375362794229462
2.682580082172312 2.0004717287412532 0.0688980547726367
2.8584478172914674 1.715889798964923 -0.2461276363907798
2.9777621108070282 1.6833596629518235 -0.0433800496012111
2.954131078225078 1.2907564387853445 -0.0579373396012477
3.1172067058257054 1.705011500442427 -0.2425685020134463
2.757010858632883 1.7957650765921433 -0.2470541310598764
3.2169610932764665 2.2316970236451517 -0.2384160966294822
3.2567639131297006 1.813377601354861 -0.2470493161918744
3.169335088734471 1.7315204766001129 -0.2296714586977501
2.6997773501487683 2.103063025756313 -0.2459240594604144
3.030279271664953 1.6840272282787936 -0.2359459882857143
2.9115484620885455 1.69515257553517 -0.241985486151008
3.3172388689762715 1.9892702855397852 -0.2174578471000406
2.8006002283505476 2.246972382723024 -0.2268590887597284
2.965900958272225 1.6844166003811525 -0.2324935594295411
3.3135932532307977 2.0491416146444794 -0.2311192639787301
2.685905903536566 2.04583148839565 -0.2441386677165837
2.6977098467109433 1.9031687551137533 -0.2415676629255247
2.6841057815101426 1.968911907642573 -0.2290978206887023
3.2902995670822914 1.8716185834570447 -0.2318479394359655
3.297202610163635 2.111473024869984 -0.2354400770450247
2.7811477127458875 2.2299115115112444 -0.2458163084173368
2.790536104304551 1.7615036621626492 0.0809466130810117
3.316940571863647 2.0174442159034482 0.0641332852573223
3.131716510198498 1.7111983592448432 0.0843199156298859
3.246001822034426 1.799404062061356 0.0414160473240896
2.914247011089109 1.694382507610264 0.0842478237376716
2.9707538529906747 1.6839299292137095 0.0510406765146776
3.0451809757672037 1.6858116708239068 0.0679108228856175
3.214305909051398 2.234155085589435 0.0586226571232444
3.3019608901701734 1.9021468060338447 0.0806734038208645
3.283607627488074 2.142556446337329 0.0567065831614895
3.2793140238057656 1.8492044335294506 0.0880254991143012
2.7024306401552014 2.110490283931658 0.0659133343456566
3.140658656426446 1.7154463686156005 -0.1252576453594677
2.7341559050320963 1.8265567991172964 -0.1286952580009229
2.835605383461855 1.7284672454103964 -0.1349216558038566
2.817726427642358 1.7401308568111153 -0.0925140416218443
3.027751108033129 1.2720146683290185 -0.1234418738386111
2.7220843902925775 1.8466424418468612 -0.1011811541654
3.240388863991572 2.207289220246937 -0.1221655046850132
3.202195057472466 1.1845848214164256 -0.1226605170230928
2.7616185849363215 2.2095946748225725 -0.1218842032953319
3.312195556361579 1.9426453022863348 -0.121781031154129
2.868493225798505 1.2554453525961378 -0.0863344669072087
3.11888930719399 1.2462048309579525 -0.1234848729517066
2.9194664013769343 1.6929658549044413 -0.0563560073597228
3.073026187878481 1.2638274910688774 -0.1227282805234321
2.9728572675992977 1.6837423537057712 -0.1170778814008152
2.86800227038997 1.7113267831274626 -0.1234251354139978
3.3014492466246512 2.099418199899072 -0.1229315765044308
3.317369072517503 1.994299248196806 -0.1243683425792408
3.296041486658838 1.8854789759975625 -0.122956311210982
2.7584350542522946 1.7940825317083327 -0.0631483328452934
2.762393927926458 1.134590680429774 -0.1242123313332184
3.2294065745345537 1.7806184822687563 -0.1222110875919135
3.2767795856115525 2.1553984805280892 -0.122717955875793
3.2791348013374675 1.8488729360966927 -0.124246611894649
2.756554363440089 2.2036905712144805 -0.125540798575336
2.7398986073569698 1.1273101507605237 -0.0783542663706896
3.027239335954719 1.6837506595445808 -0.1252685356037198
2.794902037401254 1.2008599210217863 -0.0871212825029864
2.803866050138726 2.2495738377185335 -0.0909965450490145
2.6896293186270417 2.066525686060553 -0.1246765755415548
2.7113145469773574 2.1319709664087263 -0.1222252563775545
2.6825918654808913 2.002775410391481 -0.122048927642702
2.7025759818056625 2.110880927859015 -0.1807132903418608
2.8392409746593827 1.7262991367692155 -0.1990551585906
3.280343358340779 2.148873195021653 -0.1868511653816632
3.1214155326595616 1.7067187438810032 -0.1765219535907067
3.172900399166989 1.1954691491281444 -0.1479772405034473
3.0480035482941883 1.6862305207434778 -0.1471960272557095
2.9072675133941734 1.696427417757068 -0.1757644120438106
2.777236334965848 1.1337047592405065 -0.1499979563093788
2.9905269492126574 1.6827211194067244 -0.139281460599076
2.7838655714975133 1.76753164607275 -0.1781656318169502
3.173967570858453 1.7344987550851207 -0.1370237444265258
3.2780707606408863 1.8469239442684107 -0.1944692446324715
3.313489266107687 1.950199329351852 -0.1419753283521479
3.31272866338901 2.0543728779509136 -0.1780867029448689
3.2985124032073343 1.8920834957333978 -0.1407753290201115
2.684567080607032 2.035464068082654 -0.1962920237451515
2.726635496857913 2.1613303293978587 -0.2105504308971455
2.685335681405575 1.9582628059729956 -0.2027445513353788
2.7121070812917125 1.8663089602128657 -0.1853861241747
3.2056014251283207 1.758166005807816 -0.2020350526861995
3.2494615920442644 1.803723305365913 -0.1446232766521521
2.7647252431689475 2.213076079276466 0.0174689202896015
3.0989316057994447 1.6983907094672233 -0.0278522951677759
3.2296896237165544 1.7809148487033195 -0.0209483919610526
3.033479816985074 1.6843503071181796 0.0050203171420661
2.7138763952342226 2.1374369293806397 -0.0345193260847976
3.169932771666592 1.7318983777082813 -0.0297304658722459
3.3166831587091417 2.021619522467952 0.0022396734107208
2.916182962567313 1.693845903183137 0.0032282573388646
2.832051799082976 1.7306507312605497 0.0101598393394694
3.3068900991602828 2.0810807856346587 0.0379496966434445
3.3149947673614832 1.9608346671579737 0.0220653631654554
3.285519598753842 1.8613126339957857 0.0412854820225211
3.2864838041461324 2.1366845153033154 0.0403472654843785
2.7295947548855732 1.8337573154200506 0.0037501216269605
2.68988662844419 1.9322849828765443 -0.0063060609743005
2.684917470098177 2.0384529077237143 -0.0360053104552049
2.6829190909289955 1.9853260821711778 -0.0333024525817382
3.2531228682591253 2.191531825882842 0.0217345009651199
3.205398058716281 2.242006744198018 -0.0209415959122388
2.76516798498871 1.7864360716612495 0.0181279874408314
2.8078582470577103 2.252660193813758 -0.2156077659617466
3.109660452212806 2.2978761688726115 -0.0915542548564102
2.8530657270557422 2.2813644366228325 -0.1392790572115085
3.18917141826258 2.254891744225398 0.0578704245061388
2.9188640875942617 2.306875529294582 0.0560931171752504
3.0616811259841588 2.3113696604665717 0.0776668713029895
3.0483189418338226 2.3137210649953257 -0.1414448429326541
3.1723622272737404 2.2665462237042147 -0.1316378049982816
2.9529174900399244 2.3139090059517264 -0.1592272549635932
2.9043619042882765 2.302669756352327 -0.0726074870649222
2.8050428953796254 2.2504942197332745 -0.0734566421380063
3.013924260849103 2.3171147138206423 -0.065963486532655
2.959204405562068 2.3147877796805294 -0.0704956771842398
2.86213977283269 2.2859198918003423 -0.1894990023290395
3.1609612560134583 2.2735819819072733 -0.2128571920287653
2.992838523112936 2.3173394712457585 -0.2411280356921893
2.9204327680943116 2.3072859944231237 -0.2198415753908027
3.083897155314701 2.306132151352717 -0.1850737671274463
3.167341385417663 2.269726690351991 -0.0182630100276011
2.9999632076238147 2.317420266221397 -0.0147451983625349
2.94125473811085 2.31193688619225 0.0293242536547592
2.863509209258441 2.2865761518418544 -0.0421754019245205
3.101217782484917 2.3008497752543247 0.0395783136305088
2.797655637945563 3.7514594026326686 -0.0935444659215709
2.96066114035548 4.3180693690325995 -0.2280682159343199
2.882663083508432 3.7017589608669224 0.0402412793572422
3.171830471326634 3.761125851497618 -0.0584245693260008
2.886366684266669 3.700328281363796 -0.1577607963373293
3.177384200420155 3.733072079324344 -0.1433942634229423
3.3152995607723885 3.9425382181648887 -0.1314425960252685
2.9912635140780046 3.6796262445070416 -0.1362263774757957
3.2799084284521878 4.156099138615028 -0.179522413332901
2.7387667539530933 3.814331315094 -0.1472650201979953
2.6815555496548615 4.036177360867117 -0.1878293274130257
2.7833315067227824 4.2361576452624545 -0.1708625151355967
2.680028062706378 3.981734493177206 -0.1823442177662363
2.6950157085518036 4.098489854120965 -0.1716194035529923
3.3203454798751775 4.009718174646989 -0.1599064470823943
2.9176366761460697 4.30972883669213 -0.1377799709059305
2.9849791720070558 4.320140663023824 -0.0371258711023728
2.8391705385958628 3.7535784452828915 -0.0583977886161647
3.3190847674995227 4.030009674185214 -0.0373845062362591
3.244126422706863 4.2076486434612015 -0.052088130641342
2.7522108706614996 4.20326390918359 -0.0504056329557336
2.8888912486654053 3.6993831096365435 -0.0533669468448315
3.2348453159456603 3.7819097733200544 -0.0520864232088085
3.296901768029195 4.120685581309721 -0.0404875446252271
3.167255860790094 4.243807768513239 -0.0508256730792564
2.7730187708083927 4.226263543218067 0.0580671065242436
3.3200193663302224 3.98258521982539 0.0535465816807595
2.730477643969658 4.173416749464349 0.0580584616060881
3.135204836151155 4.290577565679573 0.0566102270558454
3.080277407959934 4.310276017710299 0.0573846881927812
3.2309425297967582 4.18403615592942 0.0528794973670845
2.6811327993655976 4.032239382042882 0.0529322261292028
2.9565508855472635 4.317534004239231 0.0546063167500143
2.836055626705047 3.752703883705346 0.0443494456617685
3.1845970999405746 3.771002492192142 0.0590258596830197
3.027545386171967 3.6806930613100235 0.0507411278043674
2.967130425418121 3.681197144834408 0.0520671293197932
3.197248350466174 3.7473960458874394 0.0532672246948635
3.1999679055443995 4.250456595335625 0.0570419719155698
3.2681630825575727 3.8244886597733707 0.0570941455384744
3.0790153161957172 3.6894001783622246 0.0529792982536851
3.113782687490363 3.7003849646256093 0.0765208447821876
3.170030895835623 4.240458158119789 0.0571783932528185
2.7038170277806675 3.877560968795693 0.0589253005081608
3.312325765205376 3.9281092093255077 0.0529662961935429
3.2960740432938427 3.8772977983793164 0.0502180210007815
3.314521880367842 4.061576425398071 0.0500265662503418
3.292834718248418 4.1302439909680935 0.0532441635374918
2.7674758048105716 3.779436702857353 0.0538016396316321
2.7353385354257744 4.180748384679789 0.0496982332728547
2.8798527397528195 4.297120018258655 0.0592495084585398
3.14595408096539 4.285329766488664 -0.2350265920592995
2.853290638449918 3.7150578433637897 -0.1999978519567537
3.1955744679439047 3.7460978596321297 -0.2225627790337272
3.32049148366904 4.000937171566269 -0.2103992044677109
2.7225202434974363 4.160376600931074 -0.233405846674443
3.2679918137593686 3.8242272570820743 -0.2206725961211993
3.0623877396662347 4.314361955927025 -0.2066963544138049
2.7817259283622136 4.234674453329691 -0.2126606835760437
2.9042066906733064 3.6941580289051754 -0.218560170517386
3.0822883954038574 3.6902512479818754 -0.1960329853419702
2.694263156987857 4.09612831122981 -0.2040366711001815
2.6900532954146574 3.918460379497979 -0.238936090857841
2.7322226224802937 3.8239007510419314 -0.1936329931311092
3.304714132291207 3.900677459874689 -0.2419457735209787
3.316678687594065 3.950702147930891 -0.2231905837681673
3.3126944343706235 4.070269908983596 -0.2390112839486524
3.196262688337832 4.253370532148737 -0.2246069148780282
3.115367153252207 3.700991489510066 -0.2390098849705142
2.975475527324474 3.68044684380386 -0.2435528995041342
3.212746538357363 3.760303150183641 -0.0800339270359
3.1324602079190047 3.708161067174064 -0.0680246655895223
2.717671204431791 4.151677686519579 -0.1234198242978243
3.0715129154692695 4.312412503456588 -0.0986520914677633
3.3088456126626684 3.914384248330414 -0.0684269932682329
3.260976055365231 3.8139699811295737 -0.0904459550667336
2.918385032954885 3.6900731270942257 -0.113405942141278
2.7537108512463053 4.20507882533579 -0.1197890891535049
2.9958179054051075 4.320465566761433 -0.0651227612469032
2.850940491121664 4.283719812857467 -0.0548109978459153
2.9451723966778776 4.315768274702952 -0.0612687567758246
3.3192245039193535 3.9715151708383276 -0.0621950881127193
3.292449270549221 3.868892816557766 -0.0932871966315618
3.3187595072185254 4.033287324205016 -0.0625036870432222
3.2954240028521826 4.124259116099064 -0.0665094221831934
3.3105668492319644 4.079144813810239 -0.0849218743242945
3.086418915279509 3.6913781594299584 -0.0707289013629559
3.082039569701693 3.7378113223985103 -0.1205263719720426
2.715929699652435 3.8516095223561453 -0.0587232315845948
2.687326153108451 4.070361458661452 -0.0635270138599614
2.6801149192097595 3.9802717339142895 -0.1005536467922288
2.687827097361758 3.9274483063371917 -0.1156987875914876
3.134363092008496 4.290967745464757 -0.1231325440928521
3.2192960155328576 3.8183250869754857 -0.0943582722867888
3.204044054277908 4.186331268431568 -0.1168190152266191
3.185471810437345 4.2613730608307225 -0.0647296077068494
2.8161002022298915 4.2624814922523875 -0.0586197163737396
2.8214206665708916 4.204539120509674 -0.1275663351090114
2.7815540758567625 3.839716500099663 -0.1288044171793252
2.7698878989648623 4.158884794557747 -0.108646412805656
2.9913339719616614 3.6796243308973575 -0.0106884934362296
3.201467891851934 3.7507484043227315 0.0337234912106697
3.0738529621094948 3.688132384844818 -0.0276579522390295
3.1403579778489035 3.7118762289412865 -0.0119807115034539
2.757155527197645 3.790853564638855 -0.0291565886605994
2.9364996112923696 3.6858609065574504 -0.0075117183934794
2.680552282523431 3.9741383451044348 -0.0180535380835433
2.7221340318762994 3.840293478049249 0.0115391940268225
3.260022924803056 4.187359942281672 -0.0294256967412671
2.8179095669565304 3.7362600834364113 0.0237731886667527
3.3133576500542827 3.932749330506048 0.0402408117277004
3.2980990081002526 3.8823027155599044 0.0261721039331261
2.69546719475089 3.9001228758822384 -0.0322348966732381
2.6804580796585813 4.024670438574246 -0.0255875706440402
2.691640563988927 4.0873506017029095 -0.004935197535533
3.1302668770204933 4.292824538155966 -0.0028252178046058
3.0448426879254393 4.31734020031277 0.0226365510147392
3.229067180381098 4.224151502933129 -0.0190442348169946
3.162694437385943 4.276127125503089 -0.0332656378761284
2.9906005275694834 4.320354989524051 0.012917009032226
4.83488888507583 5.777974893109428 -0.1159446921541795
4.984918844585654 6.675121972909429 -0.1930333650770589
4.8844159962801745 6.696004092430525 -0.0802937488782289
4.894890419068846 6.692225488821165 0.0595532651839
4.92372035298553 6.6838440429372845 -0.2478838653221896
4.822203893963358 6.72767350769141 0.0652473275387198
4.709307446834976 5.9703611435010435 -0.0679660041479102
4.829821755433121 6.722849248943776 -0.0657244033297166
4.881772323509655 6.266285373905032 -0.071514447183429
4.881296838437457 5.728726323267057 -0.0481679535256301
4.849794670586905 6.711535907345824 -0.2265148232761657
4.793430197798266 6.748798705112354 -0.164195453423091
4.934046780846821 6.681529677021192 -0.1743831630820187
4.798531825563823 6.1852177840622655 -0.1229021853199448
4.731363087634459 5.948347394220061 -0.1231511982517854
4.936904530323152 5.739486849056902 -0.1347288383827185
4.999363865655076 6.674772742427717 -0.1071985816952509
4.884850988942027 5.7412359893392315 -0.0989034480648901
4.8903120895322045 6.23540254861671 -0.1501805659929619
4.988743187785971 6.284128053999972 -0.0956270521817262
4.935341389895701 6.681264313459767 -0.1154182587840418
4.969160370403125 6.274952208473138 -0.1159749986077663
4.748807408623026 6.113420640304111 -0.1184822366024815
4.738835374714959 6.0448323916019175 -0.1406523912451424
4.750335775286404 5.900016152443134 -0.1329323328836301
4.79241282737467 5.82444929149659 -0.1268444500377228
4.794056894910564 6.748284662364378 -0.1219494178863458
4.850341293764398 6.711251934408594 -0.1220378618840894
4.8476208883657215 6.227368676516847 -0.1228173085380294
4.900250665142262 6.690446702601422 -0.0319613193657732
4.710768083077076 6.072835600370658 -0.0322470704365001
4.796007701980228 6.746701132881518 -0.0052233488797484
4.992182806974717 6.674866081086425 0.0120493117258112
4.704167359263868 5.966892781359249 -0.0372419219289269
4.754565544585399 7.2133895541731885 -0.169176944475754
4.7378611681888625 7.192500406730962 0.0564643091737074
4.742926626318685 6.800785406460771 -0.1035199834432339
4.684356729665221 7.078374100487719 -0.2282417050033522
4.674994203457621 7.012016902627025 -0.0512990507278519
4.938281278580277 7.319317981268215 -0.0498744199694299
4.8162467601126755 7.268342915997059 -0.2387014186131052
4.754197733879438 6.787034228795119 -0.2425900307048623
4.943765840298368 7.320329350852439 -0.2344730215912546
4.874695218644683 7.300119785259802 -0.234596388774802
4.735768214577084 7.189617344425851 -0.2464578836492844
4.7918405132613815 6.750114422553825 -0.2415443388027623
4.7107100651852205 7.1486085709161955 -0.2326639604193321
4.720512104780029 6.833687973494386 -0.2378970250865938
4.676496244319209 6.966556109746079 -0.2254109268978236
4.69269046878956 6.893538618447285 -0.2399766764974682
4.680590268981314 6.938757878339625 -0.0717177371903738
4.840324704715815 7.283331914564529 -0.0936949707056888
4.955911894649759 7.32222571700831 -0.0721327033476975
4.897078019715735 7.30851294901391 -0.0698654451156644
4.791394066825295 6.750486997574868 -0.0591591414001487
4.694573145898301 6.8882520222624475 -0.0898014175926678
4.68327757219607 7.073892336956399 -0.0757493671304212
4.707351461566279 6.858119745251497 -0.1216850363295638
4.771219973391211 7.23115551726008 -0.0881187045323887
4.723031566198069 7.17047480873196 -0.0678188856646776
4.676027199624005 6.971455327091923 0.051739971159058
4.86210423382009 7.294546993541861 0.0542683604864348
4.788260187860533 7.246859121140047 0.0568195287727224
4.998966823250153 7.325226238610443 0.0509021670426356
4.689152071680553 7.09563858632582 0.0563641949678901
4.6761194597097235 7.029573118810364 0.0572428225173758
4.685111502844428 6.9186464008540565 0.0530525652646024
4.703729962061117 6.865846213789598 0.0557705227925425
4.70924440751222 7.145720139898278 0.0510157583528696
4.726353863322017 6.824241740973267 0.0512441600650295
4.778290853796798 6.7620541485448 0.0501708794962411
4.699413197006923 7.124180302791121 -0.1385203635955137
4.8054034953067895 7.260586596155824 -0.1712151088780665
4.919017392223423 7.314984112254251 -0.1743150848229536
4.857038539268519 7.292121882919467 -0.1382049436456263
4.96926627856677 7.323772469647681 -0.2103985005573925
4.697076736304699 6.881633323747431 -0.1584011834691331
4.681625516468508 7.066414320526145 -0.1651753061945966
4.67483889889141 7.006590300504708 -0.1437743229756701
4.678073717246482 6.95377617273099 -0.1253052650829105
4.750314185669747 6.791600940843939 -0.143471507409816
4.712313414880238 7.151689164006607 -0.196349515843882
4.738422746553681 7.193262811255487 0.0135566276751317
4.861248501979108 7.294144854675127 -0.0329662510265134
4.991866158373015 7.325126151447835 0.0215075552675925
4.687663265044815 6.909341642787727 0.0320835388182638
4.675726164470433 6.975107163162136 -0.0180771400793686
4.711856890733411 6.849179834514493 0.0342360220030484
4.771663342561713 6.7684065100120385 0.0119703018542194
6.23015378081467 1.7519674063468913 -0.2139436092213148
5.763767570718683 1.7577497787546459 -0.0787680314335285
5.862157131996887 1.6909849937652675 -0.120098579489311
6.249533589894954 1.7714744700220284 0.0647598425484611
6.183787339069137 1.7158994115890258 0.0657807784074057
5.766753347856137 2.24512635435884 0.0658670524505632
5.666354167420167 2.056315084477299 0.0521673052482062
6.002061107909526 1.6616411931517656 0.05130221286048
6.12953302606547 1.6874106119909096 -0.1275509900773636
6.186549357156007 1.7177053530754507 -0.1152699545252633
6.244549368258785 2.2338515273026984 -0.1334040014473839
5.916696543740451 1.672049600529609 -0.1376102114466064
5.711088611950849 1.823871807500649 -0.1597962404793459
5.67165191245428 1.9182781317966637 -0.0500575081687306
6.241581744248225 1.7630839997307888 -0.0950091443582544
5.85867391709507 1.6925624150688072 -0.0504088388973538
6.044912768797197 1.6646289017572546 -0.0726304906838255
6.118595014957548 1.6830991436351197 -0.0668873961358003
5.720410573568969 1.8094201401890988 -0.0582551090171857
5.9336432846293645 1.6682053094716613 -0.0505300184770364
5.997927888273073 1.6616412603602995 -0.0616983904530308
5.7155233508053644 2.183204711731352 -0.0659899123649506
6.248033012144136 2.2301533298135885 -0.0546768269254287
5.662910779116242 2.0293562174258906 -0.0583149626177666
5.705356452452764 2.1663613844206506 -0.0636982621196309
5.663015846154264 1.969461329523891 -0.0694835545348927
5.6888634275045895 1.8670151753267172 -0.0691045377813089
5.674875582195171 2.0937285617335877 -0.0814429079839423
5.713793254585008 1.81951003014978 -0.0651173351935783
5.733377236098373 2.2083344237206917 -0.0580046323715319
5.939487386192209 1.6670898711247664 -0.1958045154420048
6.149381555896182 1.696394859899225 -0.2247757227293605
5.764329769084942 1.757202815918267 -0.2251338595029798
5.828287208802498 1.7084427197329164 -0.2337285983767698
5.708583008526081 2.171950770332283 -0.2024013434808727
6.003499762385597 1.6616530153809261 -0.2253815178702833
5.885614763207363 1.6815554240664978 -0.1718618619072178
5.662177857522981 2.0191606469048526 -0.1860991576124756
6.064565994481295 1.667852197517104 -0.1895572428322314
5.712388620642893 1.8217568379940536 -0.1965535715089066
5.664926507165095 1.9529183184561922 -0.2305401597089389
5.686725359677471 1.8721331549291784 -0.2027950275044339
5.674040636569279 2.0907822875312934 -0.1711643521415539
5.728202152145325 2.2015362504343643 -0.232574916226502
6.238368989875208 2.240148193837573 -0.18436106579061
6.236381452849834 2.242104810126063 0.0162085384975688
5.762001578129124 1.7594845503412555 -0.0142263115244597
5.939257151712301 1.6671318027815318 -0.021016464007136
6.190037723841055 1.7200417998077455 -0.0309893989208822
6.135844820261535 1.6901014437825068 0.0318595814469266
5.672009380572367 1.9168550428164588 -0.0108194574225465
6.07399876726801 1.6698256327629437 -0.0074868828269156
5.8293503080080145 1.707819211855714 0.0411277876323689
6.00912977191772 1.6617581078542962 0.0297582356097874
5.6953990846777485 1.8526595346742047 0.0032673326729385
5.670337079542102 2.0762449290952856 0.0263414278410176
5.66169752241811 1.993491236712704 -0.0219852195664133
5.7534407819055255 2.231731487524283 0.0251351967242656
6.116326544524234 2.317740563001684 -0.226416399441069
6.135308711289942 2.3101330085409013 -0.1252406259153618
5.816647201128353 2.2843812256171434 -0.0618008965881422
5.916541379862516 2.3279109468473456 -0.1778305273304121
6.1391867158498306 2.308412043325993 -0.1761284224688673
5.861156399513098 2.308566662070628 -0.1838113827713945
6.210374736617488 2.265015849583941 -0.0721131670902659
6.143195360621111 2.306571393046001 -0.0807113185260831
6.058948074705943 2.333190718397194 -0.0803949771320293
5.945893905411136 2.334011168774214 -0.0548962107779975
5.890005542260605 2.319987733521446 -0.0715234989211372
5.885568996935545 2.3184281329833127 -0.1327100351344903
6.212150641813166 2.2635963495874654 -0.1169633814141688
5.8053456088382935 2.2767681310032657 -0.1631098701964617
5.960468183566637 2.3360478624051257 -0.1035300291280271
5.808749216638909 2.2791309158823947 -0.2479967602749568
6.19567590663163 2.2760468617852143 -0.2185412619317082
6.025911171854559 2.337371518523273 -0.2280024535659484
5.9127097680366045 2.3269118317549125 -0.2035394539039114
5.8568351231492 2.306585629757611 -0.2400419749517452
5.967781625647854 2.3368277106944744 -0.2095117340563548
6.18769163824587 2.281536461706396 -0.0085514905677142
5.915374241514513 2.327611677658675 -0.0123404780749592
5.857528066185637 2.306908257322561 -0.0125404476345172
5.789779477422446 2.2651381945793467 -0.0396047330222157
6.121776786077991 2.3156918508769126 0.0081113213079654
6.055391724039515 2.3338003703495636 0.0350431821856566
5.094424753512888 6.260161653288572 -0.1157578510606826
5.116443864937383 6.696332418501187 -0.0508460620670737
5.120030254670292 6.697732053140466 -0.1941083090801636
5.197212618922653 6.741387632406024 -0.2299182365443979
5.026276539217411 6.67583535476297 -0.1679246466056482
5.231607877220822 5.8260195142956075 -0.0780293650065701
5.285468747926655 5.940342768408769 -0.0703463479937549
5.174369629507991 6.725466930880559 -0.055425033901636
5.269079985094404 5.877867301992695 -0.0517645216248734
5.210325576992937 6.177023705858148 -0.1201072821557293
5.2786798278143605 5.929693749909488 -0.0859917715108185
5.1629794309649775 5.762163154077126 -0.0828935450067806
5.0421073584918785 6.67750946665719 -0.1132467797845033
5.033253468696995 6.280716511143651 -0.1004611725541483
5.047438053361313 5.725130870395204 -0.1104381848981188
5.15042549214659 6.243749228063948 -0.0892103420612502
5.264103666476833 6.07621403975932 -0.1201693534020163
5.275040965894272 6.011685110568483 -0.1192305551062668
5.1823590563209425 5.789308551710243 -0.1111498456827532
5.174594328175791 6.218179127930618 -0.1091544259491063
5.207284315336944 6.749387976445287 -0.1593614650813989
5.122335969457708 5.758901528529826 -0.1300209122856326
5.093973322875693 6.688644594839604 -0.1111723409221073
5.011059173168117 6.674960204861418 -0.0008169111274204
5.100475395854646 6.690681606491393 0.009461821689311
5.159473872555243 5.748230952819946 -0.0343573988288037
5.18421499977933 7.268026132291601 -0.2268804532065942
5.002208977436275 7.325220377826451 -0.08459965899565
5.006475699675696 7.325163403612097 -0.1861081321934654
5.1211439244040795 7.301823331296426 -0.1275465634854828
5.318424137434198 6.933824155206141 0.0687197897148886
5.323606811245902 7.032431550227401 0.0622456807010498
5.289959628091801 7.147297616449683 0.0513796532570919
5.235421935506007 6.775612642919663 -0.1456111043908643
5.24907318900477 7.209130868725512 -0.1756007090892574
5.207234528360396 7.250653194653764 -0.1612765834060033
5.320039881299709 7.057858863733758 -0.1604565833641514
5.15893147595632 7.283749818828557 -0.1564882091622332
5.056841004736504 7.320222225829873 -0.1466064428061787
5.313180890339766 6.9123022026451935 -0.1694499039545578
5.325077687387463 6.990117141217613 -0.155344365509668
5.215577190271596 6.75648480792875 -0.1814386315266587
5.2829673054977935 6.839679453112797 -0.1656283624411825
5.311234500860689 6.905627020769229 -0.0514379221443943
5.247022880334734 7.211548742199109 -0.0538530051113649
5.173608045861797 7.275015308931961 -0.1116526900271601
5.069944862501843 7.3176175214696 -0.1126060462521973
5.2375932846899325 6.777913069260836 -0.1197258272015734
5.317707959619206 7.069532914001172 -0.0843112140421965
5.325041598067548 7.0110060556326 -0.0965318314571225
5.296604602471511 7.13341245641847 -0.0798416262640084
5.289060570607486 6.850945780821312 -0.0549588958280209
5.3225265900218615 6.958169718339899 -0.0816916684398057
5.313862647106289 7.085225656268089 -0.2484258432655103
5.226115383764723 7.233762715076261 -0.2040877824921379
5.012729242291801 7.32497867641673 -0.2454831738611039
5.067068230856688 7.318237373896667 -0.2169938555677917
5.291866274292592 7.143482583143235 -0.1873300427541923
5.271238148117675 6.8205479430583535 -0.2159182729308829
5.218799791760989 6.7593761756179545 -0.243047843523735
5.211150534492296 7.247363347160632 -0.0003569581536109
5.26623675043771 7.186791772975315 -0.0133163153615201
5.306875413863683 7.1077063326870205 -0.0383629446317521
5.130293593971902 7.297987840531755 0.0242482040932747
5.052508411679414 7.320961119822633 -0.0376076599834449
5.001102734055666 7.325226010202899 0.0361672571026334
5.3202478777860325 7.056696300659176 -0.0060940142403332
5.320926354553747 6.947279523069911 -0.0437219798937183
5.325226478566492 7.0009546591709855 0.0361537516065554
5.2739926044130705 6.82478234546189 0.0052125147973722
5.3040752442168 6.8846248744772645 -0.0446437341373241
5.2223229771483926 6.762627576229317 -0.0372397650795054
6.259591760628146 2.2170323665989824 -0.2119419270320713
6.271715837956905 2.2016468044402204 -0.0838808123744217
6.301094817219222 2.154378889040241 -0.1366770101603726
6.255712092954396 1.7784097117325364 -0.1401274471904892
6.291537133322293 1.8282530051739039 -0.1445986865591662
6.326259174076966 1.9103011612773522 -0.1430832042907999
6.332879422201137 1.9393186963504188 -0.054050707304071
6.338363673842478 1.9990229834204847 -0.0706556902768236
6.313027390267948 2.1284709433281064 -0.0546015225123403
6.330616154144186 2.0719992288603355 -0.0511257998187539
6.295060786722851 2.1656202357082845 -0.0701844238681906
6.2545025756860575 1.7770215945282184 -0.078273739254131
6.2846930643008125 1.8171317701824923 -0.0550550504656658
6.3125491571630326 1.870369931365237 -0.0545401750151822
6.307533251300294 1.8588822134447747 -0.2228374442573763
6.336245057054729 2.037817878626882 -0.2212569412911979
6.310300229819165 2.134924785387076 -0.2214742260882629
6.326298078359936 1.910442787023107 -0.2185393667279195
6.33664662890361 1.9659415563272424 -0.2176800481856853
6.254512434352236 1.7770328474916675 -0.214359140387309
6.290704367357925 1.8268471740438414 -0.2284644508914781
6.3017538306195835 2.1530867598585304 -0.0198535834091055
6.266263855396014 1.791207065140541 0.0118432776904451
6.256409053369839 2.2207834407005165 -0.0413905122794921
6.331301522491564 1.9312233213047663 -0.0093038232797977
6.3030885854050664 1.8495731415779377 0.0419367964533145
6.338292960992563 1.9930140941560934 0.0146771495070176
6.322913253433443 2.1010839309415927 -0.0026274485763019
6.720770922224938 9.095632082489628 -0.0537180316428804
7.14285713406243 9.22484993839636 -0.137965011689999
7.011942317111623 8.715041937215183 -0.0930391504471629
6.889292224757106 8.750806972830448 -0.1250864649386322
6.737075629098883 9.03240835887179 -0.1407852032760878
7.02867708544995 8.724374003999957 -0.1149257808286729
7.259665467240356 8.904259807423509 -0.1157914532608708
7.184364064758871 9.207027043951483 -0.1146721182253906
6.94634914312017 8.72216593374678 -0.0996484680527578
6.842841519077723 8.785136514311976 -0.1383289354842098
7.229754593910127 8.845022059385032 -0.1148680308002889
7.264212478994988 9.082470309895086 -0.1157169561003532
7.063217511881121 9.2576908628155 -0.1399963049975388
6.744300149824912 9.087545785071944 -0.1302049236264683
6.742146255295957 8.899160751452452 -0.115511437937843
6.729573707882793 8.980283950324552 -0.1283779494965325
6.89971584839362 9.25816906048852 -0.1152901779990993
7.172637511958082 8.783345786268146 -0.1151400935259096
7.283048743342046 8.9539050763924 -0.08808329529541
7.174780723025146 9.236272315317104 -0.0602253424523459
7.08690822523119 9.282737768788476 -0.0500631050543119
6.952650571216802 9.282385217342874 -0.0895355829830969
6.792207064237967 9.206532170932725 -0.0645488823854525
6.868635429961371 8.741136021781067 -0.0757151934504125
7.002340718720081 9.295119248805456 -0.0538437556303093
7.073066828995993 8.725785572944451 -0.0973020374661659
7.142685333708733 8.747685117701767 -0.0773181460929894
7.288457681409169 9.008214448901741 -0.0820042002905157
7.239608163549524 8.832040234298717 -0.066162263156533
7.252519003446589 9.150877456513426 -0.0589079452568228
6.725504834300948 8.910826610493329 -0.0818566467169381
6.710347765286449 8.965019425697495 -0.069842267624361
6.717113840984494 9.038970125106582 -0.0919605914869571
7.218430052915753 9.202752312828691 -0.0343483860732636
8.250754903835979 0.7993172937785082 -0.1883370007105153
7.8341729177303865 0.7249491880395204 -0.1179138143367229
8.000286931073495 0.6788279463515989 -0.0522951238710117
7.8788454698074055 0.7025556351382931 0.0630654811908142
8.265240761855281 0.8188953103185845 -0.2471542050520557
7.822930241073251 0.7320487528526965 -0.2455671515968056
8.006297597587599 0.6788895662878626 -0.2499423218395919
7.757313758468257 0.7896313746173899 -0.2484683709613679
7.900932347628658 0.6944886734868847 -0.2438274592280901
8.151401796176803 0.7167526408091149 -0.2269858508533794
8.212228283833625 0.7589383358656814 -0.2434922324224873
8.312225661344716 0.9247224683452773 -0.237410875130677
7.679321141674478 0.9822056133229485 -0.2287234090201062
7.95473225853587 0.6820339610006927 -0.2400112600985393
7.680447412692464 1.0322135735247109 -0.2432892290579657
7.701796081415796 0.8807272314599948 -0.2462434900825499
8.320764607506588 0.9838248046281758 -0.2453020833290884
8.313746693641363 1.0686628182008626 -0.244771096405916
8.298435039432201 1.1186932921999952 -0.2489938884533364
8.306998649846799 0.9056421737935078 -0.2455550329074738
7.716242182815783 0.8495570820509614 0.0610303911095439
8.21541604365917 0.7617826653906082 0.0530326625887247
7.777459962654579 0.768423873958323 0.079046528561773
8.28539564012404 0.85268775009402 0.0664508879775455
7.828737734602051 0.7283001530642044 0.0538198814713022
7.99261494828926 0.6789127355602498 0.0714028053276171
8.320130309587642 1.0258486993385225 0.0615432567939363
8.320235208638563 0.9754850755173772 0.0520280030730861
8.311771998537575 1.0771348903030167 0.0517469369731867
7.691221902046879 0.9116390550150968 0.0394434766612954
7.7433628500522405 0.8068965467919759 0.0472867577020513
7.681159838700241 1.0386331711941459 0.0593585804010158
7.6932916383468894 1.095297173443063 0.0530627367527891
7.679161171376387 0.9853706998936894 0.0503324186995349
8.18394852582082 0.7367235099320122 -0.0525915511798223
7.823313823488884 0.7317956648298635 -0.053820059166432
7.91848757418991 0.6893437674651821 -0.0636213675036027
8.287130093773147 0.856097673319727 -0.0581555865861299
7.780049807405356 0.7659626458196226 -0.0735239833376573
8.110504442929336 0.6984368416615696 -0.0538018265545829
7.71546374666033 0.8510345982800187 -0.0525810955694894
8.050868156609566 0.6828817239304599 -0.0601073471581394
7.702859095210725 1.121896895264742 -0.0590891747930258
7.685405334257983 1.0646665807109152 -0.0542795985674043
7.694035069297403 0.902342273453008 -0.050963749724368
8.316721238407679 0.946715597820016 -0.0586472611707
8.320894288234456 1.0133576252632797 -0.0575051518101711
8.29629835714247 1.123930843331453 -0.0577010751400696
8.31257807832724 1.0738005103195218 -0.0555114521523737
8.2486499416075 0.7967150352024064 -0.0548935629352611
7.681293675520022 0.9602778511327016 -0.1191293566378393
8.088357256305136 0.6912208465061138 -0.1430092700943684
8.245884214337297 0.7933783082203061 -0.1004196543203804
8.293181066617715 0.8688648309907996 -0.1067008926555787
7.981612940118097 0.6793545783843598 -0.083003391272888
7.735898464585133 0.8172379980256238 -0.116922249705736
8.31496708769295 1.062827573917781 -0.1011997106515319
8.299579960147504 1.1157731309596155 -0.0876160641731026
8.320024364513058 0.972871113325728 -0.0955305640746473
7.700737619264518 1.1165915856771138 -0.1155160809554552
7.6857219796817295 1.0661883397510545 -0.1182618017363946
7.679164275806574 1.0146972261142175 -0.0950517686761325
7.694609948359697 0.9005591294622497 -0.1149540077280153
8.021563501801543 0.6795525226121647 -0.2004026438828671
8.13955575802843 0.7107323717121417 -0.1800311916310689
8.299784608921529 0.8847578261748821 -0.1908734754102023
7.72803711962324 0.8291557373765559 -0.1942100412825036
8.19674141015873 0.7461410078352021 -0.2136979447504809
7.834397059678085 0.7248141781797095 -0.1665706184064352
8.082821518622719 0.6896902089408087 -0.2247595937788765
7.892251049472548 0.6974413543882692 -0.2092351590324992
7.777896190186941 0.7680054568730184 -0.230804150857639
7.9438580618613255 0.6837727823918289 -0.1616000237818841
7.691615215523884 1.089723993880074 -0.2252661232813684
8.320771000726992 1.0160479116017092 -0.2270887261505715
8.309344982103465 1.0863553844388378 -0.2220323944814341
8.316127140283943 0.943297252711451 -0.2048205982796745
8.286392899176109 0.8546360509766074 -0.2218001941763252
8.171135113499247 0.7282200461737989 0.0128720142486262
8.055933326452864 0.6837358171305363 0.0179124872525698
7.685983406728271 1.067417724110132 -0.0065669398554352
8.268411419043261 0.8236285723214918 -0.0112453440913989
8.119849960064117 0.7020275894536515 0.0067454848593898
7.747749761743408 0.8012001316055146 -0.0162959071904314
8.320767660689697 0.9838854652616993 0.0022979038498376
7.894279680173307 0.6967265518547427 0.0377676430280352
7.7973930596706795 0.7507972750859985 -0.0424571611148657
7.968134512112184 0.6804125142377384 0.00360828839329
8.317739382191528 1.0468322045041472 0.0101314894526935
8.301173961633289 1.1115608139459492 0.0204817761664216
8.311694834574322 0.9225538866445931 0.0051263793156492
7.679348535185127 0.9817186300773457 0.0024226658593337
7.784748231940498 1.2383657834535629 -0.2225649396660808
8.221051055273445 1.2329978569357845 -0.0608335375081863
8.044418682636513 1.3180857604593597 -0.1575578802836454
7.838543824378463 1.277639106985741 0.0636032119983402
7.7862670240518606 1.2397285660210824 0.0576663970948992
8.289759943178403 1.138530667014279 0.0551654009284517
8.09022380707891 1.3082389252030961 0.0786902630400365
7.712267631002959 1.142694268299477 0.0541893195761878
8.142146867152823 1.2880031918795525 0.0773889555696994
8.24583926443488 1.2066751713106587 -0.1818598306587557
7.992334914681017 1.3210807014462642 -0.1716680223340357
7.705773834782954 1.128773188497621 -0.1551572054620913
8.061771924082226 1.315175823580033 -0.0808607372603118
7.817639686598938 1.2643790583053787 -0.0891233409350182
7.767379613379448 1.2214482470074606 -0.0922085950010621
8.152599066727905 1.2826041316186736 -0.09543022427592
8.279557417020728 1.1581114194575166 -0.0871231542329537
7.70702477277303 1.1315944018774262 -0.078733075949721
7.882656103572223 1.2989681928655947 -0.1038547796680941
7.990341540528037 1.3210269218224553 -0.2321736028375503
7.936745284460089 1.3148815830373972 -0.234990147142175
7.705061371952054 1.1271329070672396 -0.2363159862892399
8.290342228583176 1.1373060838984446 -0.2371280595856508
8.232219392583879 1.2218687091100202 -0.247199719157456
7.865956072139283 1.291862631691423 -0.2354608475411569
8.110582569433486 1.3015345182755373 -0.2497298667566799
8.172802642169856 1.2707227682210889 -0.2418820939131408
8.048694925628213 1.3174592487111298 -0.2452505569461912
7.732838450243244 1.1782590157768766 -0.2468858025752013
7.931785560834132 1.3138444848383646 -0.0241264532475088
8.210458562646526 1.2426082516793917 -0.0045077325712543
7.71983246328862 1.157027773808489 -0.0139643643074304
7.982600133229843 1.3207005067201378 -0.010872089566517
8.258232793585227 1.1909643806874506 -0.0398598604736509
7.814464458021956 1.2621605100641324 -0.0415591528502433
8.033570963761884 1.3194128375101268 -0.0409860329379139
8.294814533203269 1.127420411968849 -0.019152970779421
7.760418805607476 1.2138981572328855 -0.0138121566664726
7.728570114998214 9.23765750327567 -0.078978518970384
7.957695610031263 9.358281467459149 -0.2267421177100046
7.676948226552517 8.839398558512869 0.0418276267536462
7.877343626430434 9.339279656563832 -0.176003610671303
7.664900119525653 9.133653811922393 -0.174600848619351
8.339030919310856 9.123342235615153 -0.1807594177849973
8.240151200231102 8.730773938180441 -0.1808063263556809
7.731652295940402 9.241132289545076 -0.1804994254399924
7.699028961438975 8.80107361843434 -0.1759596069157797
8.17647463754221 8.685338318761795 0.0459122758958699
7.743619942972539 8.746180107765557 -0.1471818372455957
8.126416614458794 9.337896597976489 -0.1487565618110323
8.240949176349565 9.268512133341819 -0.1500485921783802
7.802351052847859 8.698188527347023 -0.1388120623698886
8.351476422480895 8.9186391016806 -0.1397677121320874
7.6947123887788225 9.192236171856848 -0.158593209396248
8.076258304696864 9.352618692499517 -0.1564154522415781
7.639238209655396 9.002490374000859 -0.1455552649168939
8.179356123205842 8.686971802541882 -0.1650963609364202
7.650079016101081 8.912190112387492 -0.1380746150108398
8.335184831244502 8.866559375605094 -0.1297250680123357
7.702213203960019 8.796337790840935 -0.1375002645101049
7.793941483099838 9.296133684251242 -0.2343877058381274
7.845876110298188 8.673808188394478 -0.2185622721532523
7.6662320045400145 9.136945962123502 -0.2043990599383293
8.15379417778024 9.326347394989156 -0.2147768934720912
7.746926105014411 8.742883538037466 -0.2330392758367779
8.266677946141744 9.242977662300323 -0.2184171881959621
8.313942142550106 8.822248481113784 -0.2112693007550356
8.022267499453996 9.36008253193313 -0.2014450467865987
8.36041744393762 9.015954229557698 -0.1980422629646053
8.206382941377095 8.704092323783504 -0.1961853880062035
7.89686207197048 8.654286478226428 -0.2245508694812789
8.103054488168555 8.65426159628467 -0.2269817784813391
8.212988287520401 9.291189389769675 -0.2283174012958776
8.050880783760704 8.64283558802814 -0.2455826301004991
8.328777100705116 9.14852908599748 -0.1892693901506579
8.232578442725382 8.724205621314095 -0.197382328664064
7.742039218572202 9.252213216506329 -0.2451129052011513
8.187247505646189 8.691627428319917 -0.1906774245387615
7.646879420862896 9.07389944468793 -0.2086575867198984
7.663439790159091 8.87006733864362 -0.2323448172804254
7.646705497534385 8.926936562749333 -0.2337025143436516
7.700133948272059 8.79941180903053 -0.2348419451727923
7.639445859302368 8.987510686123697 -0.2124886787944724
7.792549235269942 8.704839956043806 -0.2453014998761053
8.000834193709371 8.639230578546126 -0.217255119740036
8.24776342421731 8.7377624036195 -0.0806811302562643
8.292933500535904 9.210583084788617 -0.1118292329852681
7.856944534117882 8.668804581830367 -0.0854551402991794
8.131823964320281 9.335823932688237 -0.0702666315979001
8.025740312453403 8.64014904800722 -0.0473794582475828
7.915204845394845 9.350663732214777 -0.0631257539831626
8.343843253585312 9.109211209585713 -0.1129768502829501
7.672084822064783 8.849577570106637 -0.0693697854058634
7.802017325439317 8.698407341088835 -0.0559981680372877
8.19400063967103 8.695830601239145 -0.0679126660540205
7.968942602369072 9.35943109129248 -0.0643836299157369
7.648568648611798 9.08155535909289 -0.1043859786443655
7.640549053858509 8.969173247766022 -0.0658246199789124
7.652355724990967 8.903570080427537 -0.0814617708353491
8.359717806476667 9.027538537341767 -0.0465835458629665
8.351032904065413 8.916746341829858 -0.0798130578007328
8.360046509957414 8.977157451919856 -0.1222796772971776
8.025992020706635 9.359832858692608 -0.1193416205707782
8.107603522513038 8.655650245712161 -0.0709184490037066
7.832987241761598 9.319784317815788 -0.0593115912953938
8.297842835288497 8.796419753407612 -0.0804470808486622
8.32232010438903 9.162064868623501 -0.0503988267781194
8.326191830764568 8.845876150846898 -0.0508129509958901
8.257947769520511 9.252226524248941 -0.0667719661021424
7.7271335301770705 8.763993303099932 -0.0461200194024047
7.695454024605553 9.193408945517918 -0.0485807288991574
7.783710764176372 8.711254025478901 0.0073555495131642
8.253355374305416 8.743160895411407 -0.0117103227291041
8.204885896728575 9.296946191517986 0.0255673265354387
7.6721234647377425 9.150506640915694 0.0227230435035778
7.9695830219495924 8.640514146618273 0.0149989454482406
7.9172419737081 8.648849917528734 0.0379872656883587
8.150677077711482 9.327798245247951 0.0038946980006294
8.350959236408489 9.083563662646384 -0.0323041226364963
8.028041919113518 9.359678915294932 -0.0329715790980801
8.302254504665584 8.803029226166236 0.0204123876870725
8.093195226677299 8.651474647895055 0.0280673042705754
8.320980934770338 8.835298722381191 -0.0409537593500132
8.343126096205523 8.888556052483475 0.0106482353334402
8.327578608949368 9.151153982064997 -0.0066005405594597
8.147500438669987 8.67076013010653 -0.0186748803417707
7.639248893179001 8.996270353537872 0.0174497033957953
7.643806711814126 8.94271463723914 0.0307536911036954
7.655620540808601 8.892491584411507 -0.0443243347362734
8.260158989424182 9.249945137094317 -0.0259162454067594
7.791203628123972 9.294209698050075 -0.0203971589149671
10.351886734845289 1.8513116513061785 -0.0310571530064059
10.247937909435638 1.7093811907978786 -0.1369275353812065
10.266381011738092 1.7261868232119497 0.0540356052571332
10.299809919763577 2.2367414437920234 -0.1933733626954556
9.704936622663944 2.2426316190285474 -0.2008054446232157
9.795462994972276 1.6773591582399043 -0.1792011303165143
10.21339939899161 1.6831511469053524 -0.1932281355508412
10.375386473456611 1.929165723387731 -0.1800575661924083
9.642706630164794 2.135181163884532 -0.2045173867869826
9.581919868681322 1.972819489330543 -0.1983834706598362
9.854778177407786 1.646668538847204 -0.1909023819321334
9.61816765739901 2.011685946312282 -0.193307726563497
10.363218077370565 2.118343261187973 -0.2163169357558776
9.717618469470517 1.7427196657083934 -0.1883405132970291
10.309053909510462 1.7754600698902911 -0.1991715444614982
9.925677040446182 1.6252886485832923 0.0440824181886806
10.309274912140049 2.224235429667435 0.0713012031089886
9.644195952055284 2.1390538696460073 0.0578922967185419
10.370165569394526 1.9056074662263978 0.0754462411048006
10.165469235295044 1.6556855632299925 0.0537182364868828
9.635492398124942 1.8856903006185892 0.0618402024022515
9.679870088428824 1.7915549498913301 0.0722611879296528
10.28948103433918 2.2492653805791973 0.0747154740896886
10.29091972057144 2.247584764030441 -0.1198826104491241
10.125905866946338 1.6393336557621918 -0.1543554864695211
10.195762594772344 1.6719611216862045 -0.096997220423349
9.685334916390442 2.2166065196487943 -0.1287355028703087
9.744613730808393 1.7159043247323784 -0.1738744557010588
10.369417503855372 2.097279016455968 -0.1718692717172234
9.854672208550957 1.6467121114021634 -0.0949775747915071
9.652000446984257 1.842428396282144 -0.1337208373853536
9.683300785285137 1.7863785905009428 -0.1258409488329538
10.329273173017333 2.19367931414705 -0.1472043545423259
10.328446593637064 1.8049222351840606 -0.1211426370470546
10.267503829097116 1.7272836627267176 -0.0415033548468931
10.313272038151926 2.218616397622669 -0.053961798895441
9.691961181468628 1.7740695118511665 -0.053234423201706
10.173171676804998 1.6594943913091598 -0.0578885129358276
9.631211171293506 1.9003641679983234 -0.065269717382694
10.106579393845626 1.6331576196717819 -0.0648726016716544
9.701730218441755 2.238678940433737 -0.0557687559709122
9.656067441506119 1.8337384758724145 -0.050157773626814
10.289304943365494 2.249469735522493 -0.062566953556314
10.367746599561086 1.8965836680759147 -0.0556193740918091
10.381976772922531 2.005122903967722 -0.0604919973085342
10.296415296810263 2.2409781546411565 0.0088413616618355
9.7072431688047 2.2454097328670177 -0.0372724293226672
9.623715834176135 1.9341006392473215 0.0397140631191408
10.369436214372346 1.9027920645852177 0.0416316553397341
9.806174385164178 1.6708129251764434 -0.011286152459108
9.873980382476319 1.6393733853463401 0.0434364731232955
10.177407206708281 1.6616818328771878 -0.0324348464087008
9.623710782409999 2.065870508749207 0.000852194229835
9.654709134290641 1.8365781004422752 0.0149486306638324
9.684741191950028 1.7842585270647175 -0.0389529943197572
10.13569319342674 3.3263042334868675 -0.08956428868894
9.99355682757736 2.6466650582479416 -0.0524529951541301
9.65260662188384 2.935154519241182 -0.2072309692262369
9.65733760305507 2.9135732839120063 0.0605026531764833
9.719409271195286 3.2148393316937973 -0.2498060449996375
10.321208700458753 3.1473501485693087 -0.1560859725963839
9.970826756088474 2.6478125252461737 -0.1529158868679275
9.65013910946176 3.04984428558609 -0.1402862944489259
9.795843703705671 2.7115432402990343 -0.1417930500805925
9.69647815058332 3.1810016089996904 -0.1408234830480198
9.652902920766328 2.933586800097778 -0.1518195076512331
9.963863375105689 3.351541234956934 -0.1430984659931677
10.325171442656861 2.861614204434652 -0.1468689130222051
10.319941648003361 3.1500814359162765 0.0517683828155791
10.22039611278645 2.723752558378505 0.0473182051434267
9.961870238783817 2.6486693625039295 0.0667981804820201
9.72927121694264 3.227140972873851 0.0610813972601854
10.11601401541626 3.3338080942110215 0.0558737787840549
9.916652321448183 2.6565756851738342 0.0760041503569511
10.037256423697348 2.648575677524901 0.0487661973940259
9.920086366887737 3.3442396066355484 0.0759219405919715
9.970167342113156 2.380844471826467 0.0629832136169761
10.25585447895269 2.2836740819976713 0.058474133692097
10.335008350505994 2.8874988861163966 0.0697397604300032
10.341362145685073 3.091427463199418 0.0562244329712106
10.303604229896296 2.8191366064598036 0.0591103951210034
9.667001306468338 3.118317224612499 0.0455859137017219
9.675255232199257 2.8606158856976864 0.056772383590409
9.952154617410098 3.35013985048638 -0.2199545565975313
10.289961673981367 2.7979868243016752 -0.204559637737345
10.090707401794958 2.658445812800653 -0.209619852012708
10.246716003000422 2.74698160265053 -0.2253713428151845
10.201508633535028 3.290312531842228 -0.2233148412875591
10.34313954871009 2.915487600644437 -0.1770362216003844
10.01520387327904 3.353066477835426 -0.183845332368577
9.818273622216164 3.303088467532773 -0.2172710927601079
9.727914590280646 2.2681455370041146 -0.2041901518324326
10.142658267258536 2.676680167146229 -0.2036483542918054
9.706014978481582 2.803888035406776 -0.1934092448194578
9.741714544685665 2.7588035673836253 -0.2462535397610074
9.770692673557745 3.2688963472673134 -0.2340525070364687
9.825981848919765 2.692421101782949 -0.1734703815038902
9.811799004235748 2.3324347821614317 -0.2410606043294921
10.031969141909805 2.380671082646062 -0.2313938453263578
10.044713171242492 2.649446398034141 -0.2490058103647145
10.335752356433366 3.11026083023105 -0.2078149443830491
10.349859237649094 3.0498558859653833 -0.2096759350035544
10.193383848739762 2.3294467881828123 -0.2328364775781763
10.19815129584028 2.7073856471554816 -0.1878126951182262
10.242639672997731 3.2569301162210316 -0.1975142115818155
10.133465142416508 3.327221868605293 -0.2081700849373789
10.293181819596475 3.19731070977496 -0.1651261918356591
10.325175606788221 2.8616239894934417 -0.2243856900064107
9.915173837303307 2.6569378807621677 -0.1687758556485455
9.670089399444196 2.873326833249076 -0.221146198199857
9.685832557857271 3.161820622391874 -0.2254932807084738
9.646902226194573 2.985541173372281 -0.2264516369003054
10.33355519562906 2.8832608591660116 -0.0524105618252353
9.741124522269262 3.2405630531970373 -0.0492899984904349
9.853069739343411 3.3214009863662293 -0.0490828478336896
9.95957810896155 3.3510743030452015 -0.0532923642609115
10.17815307862287 3.3052025165541594 -0.1185282628348832
10.338714679072968 2.8992058448406146 -0.0910529680786384
9.747984854080611 3.2477407147826685 -0.1177358560490905
10.23544620261154 3.2635378174183063 -0.1094215122083079
9.90847146525512 3.3413350595254667 -0.0777561524478866
10.292559834768866 3.198231780029873 -0.0801512670841381
9.665743085766161 3.1147144752011275 -0.0772163409111828
10.058739182185441 2.3774681545157943 -0.0907947410332702
10.055478478200042 3.3490117963484987 -0.0767473198553747
10.067297817870127 2.653073351782084 -0.0802289783255883
9.651232155505982 2.943008016521666 -0.0779457585097106
9.678886320906145 2.852442890267507 -0.1325713189863796
9.695333428171178 3.1790680751666014 -0.0657002246127952
10.288662804249395 2.25021247898586 -0.0786694846938947
9.885302356709465 2.6657373096539256 -0.057442781924919
9.890085953202025 2.3658570779879304 -0.1259105073522578
9.997310641179537 2.3820016577797913 -0.0666049860153553
10.261592055376626 2.7623938298409936 -0.106321121526071
10.256912244499038 2.2827164618904257 -0.1052613847330228
9.728229745060675 2.7741061663878077 -0.0516653348452626
9.781794628126768 2.722018865353306 -0.052292966266566
10.302054231987388 2.816559719602514 -0.0974890278482383
10.35207970621105 2.969553719305331 -0.1094968319174508
10.321325096415725 3.1470961520476415 -0.0850063431662296
10.342985928181223 3.0851337101474114 -0.0737649619097281
10.194458241182852 2.3288137643612954 -0.0997755485378786
10.140187794418711 2.355358806691759 -0.0683622569563634
10.123880465852142 3.3309693727734553 -0.0044966693605154
10.01572476304182 3.353043662117134 -0.0231144057387169
10.07022667930444 3.3463456496733714 0.0014262092449279
9.960462149975356 2.648825037980742 0.0067652093313011
10.317951637027061 2.845747440716174 0.0160265624943336
9.646950355152917 2.9844101376802996 0.0023876724899777
9.80036760879252 3.2916059051435376 0.0216577905896002
9.756319453394697 2.7440568681524367 0.033733102424855
10.273965017866349 2.77677306497806 0.0192070684236449
10.207547363239428 3.2860265504217385 0.0196719850513475
9.725819477098486 2.266002894831666 0.005282617810853
9.734174221672655 3.2328599388268837 -0.0381428895791069
9.650353029839115 3.0513234039314634 0.0251360732426846
9.653781047323717 2.929151341991993 -0.0367113448846345
9.674219365817814 2.863054485558483 -0.0050412181086762
9.690770659174508 3.171068145212457 -0.0409773793014362
10.284937239206641 2.790959656412701 -0.0368037630766243
10.34620854495304 3.070899498836713 -0.015348810982271
10.288957990560382 3.203446246524984 0.0276051617488006
10.337152306116483 2.894097129339493 -0.0050857039818926
9.951138483250825 3.3499994967350215 -0.019633348444754
10.087758488356902 2.6576762595800436 0.0094103667663961
