0.591497 -0.602332 -0.164096 
0.591497 -0.602332 -0.164096 
3.807214 1.406821 -1.087558 
3.807214 1.406821 -1.087558 
3.813736 1.349017 -1.083934 
3.804630 1.345796 -1.081346 
3.812069 1.288831 -1.078240 
3.802918 1.285738 -1.075652 
3.816607 1.231995 -1.074617 
3.820284 1.233182 -1.075652 
3.827897 1.176884 -1.073064 
3.814971 1.172909 -1.069440 
3.823363 1.118030 -1.067370 
3.828926 1.119656 -1.068923 
3.838601 1.064538 -1.067370 
3.838601 1.064538 -1.067370 
3.838141 1.006917 -1.063229 
3.841878 1.007898 -1.064264 
3.855576 0.954159 -1.064264 
3.855576 0.954159 -1.064264 
3.874010 0.902223 -1.065817 
3.874010 0.902223 -1.065817 
3.878532 0.847075 -1.063746 
3.886081 0.848724 -1.065817 
3.907017 0.796312 -1.068405 
3.908910 0.796698 -1.068923 
3.847809 1.421821 -0.947044 
3.833185 1.416417 -0.943445 
3.834216 1.356261 -0.938946 
3.837890 1.357561 -0.939846 
3.871239 1.308836 -0.943445 
3.874932 1.310085 -0.944345 
3.892626 1.256534 -0.944345 
3.862954 1.246956 -0.937146 
3.876262 1.191754 -0.936246 
3.878125 1.192326 -0.936696 
3.897937 1.139836 -0.937596 
3.882973 1.135461 -0.933997 
3.896571 1.080615 -0.933547 
3.894693 1.080094 -0.933097 
3.909394 1.025610 -0.933097 
3.911278 1.026105 -0.933547 
3.919549 0.969990 -0.932197 
3.915766 0.969054 -0.931297 
3.934448 0.916299 -0.932647 
3.940142 0.917625 -0.933997 
3.950516 0.862796 -0.933547 
3.950516 0.862796 -0.933547 
3.979362 0.811057 -0.937596 
3.960268 0.807165 -0.933097 
3.929872 1.452145 -0.814373 
3.929872 1.452145 -0.814373 
3.938659 1.393205 -0.812083 
3.927554 1.389277 -0.809793 
3.937269 1.331160 -0.807885 
3.931690 1.329274 -0.806740 
3.944039 1.273130 -0.805596 
3.938434 1.271320 -0.804451 
3.935158 1.209861 -0.800253 
3.918269 1.204668 -0.796818 
3.919431 1.146122 -0.793765 
3.930737 1.149428 -0.796055 
3.933160 1.090762 -0.793384 
3.914241 1.085515 -0.789568 
3.929016 1.030758 -0.789568 
3.930915 1.031256 -0.789949 
3.943024 0.975800 -0.789568 
3.948742 0.977215 -0.790712 
3.958016 0.921787 -0.789949 
3.954191 0.920897 -0.789186 
3.972267 0.867547 -0.790331 
3.985693 0.870479 -0.793002 
4.005153 0.816314 -0.794529 
4.003230 0.815922 -0.794147 
3.959697 1.463165 -0.668601 
3.950432 1.459742 -0.667037 
3.946218 1.395879 -0.662969 
3.970937 1.342543 -0.663908 
3.961580 1.339380 -0.662344 
3.968391 1.280991 -0.660466 
3.960872 1.278563 -0.659215 
3.963232 1.218492 -0.656712 
3.942463 1.212107 -0.653270 
3.930360 1.149318 -0.648577 
3.922776 1.147100 -0.647326 
3.942217 1.093274 -0.647952 
3.947928 1.094857 -0.648890 
3.964740 1.040130 -0.649203 
3.951365 1.036621 -0.647013 
3.952031 0.978029 -0.644823 
3.959701 0.979927 -0.646074 
3.974759 0.925687 -0.646387 
3.978607 0.926583 -0.647013 
3.992934 0.872061 -0.647326 
3.994864 0.872482 -0.647639 
4.010528 0.817409 -0.648264 
4.029883 0.821354 -0.651393 
3.945655 1.457977 -0.516482 
3.945655 1.457977 -0.516482 
3.950655 1.397449 -0.514532 
3.939427 1.393477 -0.513070 
3.954737 1.337066 -0.512582 
3.947215 1.334523 -0.511608 
3.982242 1.285462 -0.513801 
3.963351 1.279364 -0.511364 
3.980827 1.223902 -0.511364 
4.066805 1.066906 -0.516239 
4.001521 1.049779 -0.507951 
4.011934 0.992853 -0.507464 
4.000373 0.989992 -0.506002 
4.073099 1.007990 -0.367100 
4.095827 0.834794 -0.365705 
4.113266 0.898341 -0.220648 
4.152806 0.846408 -0.222114 
4.150849 0.846009 -0.222009 
4.059089 1.499892 -0.075534 
4.049710 1.496426 -0.075359 
4.057012 1.435070 -0.075115 
4.026849 1.424400 -0.074557 
4.042555 1.366757 -0.074487 
4.019823 1.359071 -0.074068 
4.057209 1.309661 -0.074417 
4.110493 1.326861 -0.075394 
4.123802 1.081859 -0.074417 
4.138505 1.024176 -0.074417 
4.165680 1.030902 -0.074906 
4.360535 0.952345 -0.077908 
4.548678 2.611382 -1.405387 
4.723165 2.624563 -1.447834 
4.919049 2.733411 -1.507880 
4.956733 2.664464 -1.507880 
4.136567 2.223588 -1.258378 
4.015996 2.087923 -1.212826 
3.995428 2.077230 -1.206614 
3.985712 2.002861 -1.195226 
3.951189 1.985513 -1.184874 
3.978863 1.929458 -1.184874 
3.937145 1.909228 -1.172450 
3.907423 1.827876 -1.155886 
3.868926 1.809868 -1.144498 
3.858293 1.740465 -1.134145 
3.842444 1.733315 -1.129486 
3.848551 1.671800 -1.124310 
3.837920 1.667182 -1.121204 
3.835869 1.603006 -1.113957 
3.810914 1.592577 -1.106710 
3.825608 1.536333 -1.104640 
3.820230 1.534174 -1.103087 
3.823252 1.473737 -1.097910 
3.803424 1.466094 -1.092216 
4.564783 2.620627 -1.215186 
4.612103 2.647794 -1.227783 
4.679285 2.600179 -1.235881 
4.740607 2.634255 -1.252078 
3.963320 2.130460 -1.038824 
3.961195 2.059432 -1.030726 
3.961195 2.059432 -1.030726 
3.943941 1.981871 -1.019028 
3.926528 1.973121 -1.014529 
3.927727 1.904661 -1.007781 
3.892658 1.887655 -0.998783 
3.881567 1.815781 -0.989335 
3.858620 1.805046 -0.983486 
3.868929 1.745263 -0.979887 
3.854718 1.738853 -0.976288 
3.835724 1.666228 -0.965490 
3.837511 1.667005 -0.965940 
3.840633 1.604997 -0.960991 
3.831643 1.601240 -0.958741 
3.833735 1.539597 -0.953792 
3.817459 1.533061 -0.949743 
3.838492 1.479612 -0.949743 
3.816672 1.471201 -0.944345 
4.706046 2.701727 -1.054792 
4.620915 2.652853 -1.035711 
4.698691 2.610963 -1.044870 
4.767335 2.649107 -1.060135 
4.938739 2.654791 -1.089901 
4.076051 2.119146 -0.892986 
4.048181 2.104656 -0.886880 
4.041730 2.031011 -0.879248 
4.018925 2.019551 -0.874287 
4.034708 1.956539 -0.871615 
4.009976 1.944546 -0.866273 
3.995835 1.869235 -0.857496 
3.956712 1.850934 -0.849100 
3.937116 1.776022 -0.839560 
3.917431 1.767142 -0.835362 
3.934519 1.709145 -0.833835 
3.909310 1.698194 -0.828493 
3.909090 1.633605 -0.823532 
3.905468 1.632091 -0.822768 
3.924231 1.575940 -0.822005 
3.920587 1.574476 -0.821242 
3.931197 1.515346 -0.818952 
3.920205 1.511109 -0.816662 
4.849884 2.784303 -0.885732 
4.883106 2.713439 -0.884793 
4.089632 2.055082 -0.724917 
4.052511 1.965172 -0.713341 
4.034737 1.956553 -0.710212 
4.038401 1.889147 -0.706145 
4.000825 1.871570 -0.699575 
4.001041 1.804858 -0.695195 
3.957825 1.785364 -0.687686 
3.967873 1.723633 -0.685183 
3.937072 1.710254 -0.679864 
3.987906 1.666542 -0.684557 
3.955793 1.588615 -0.675171 
3.970216 1.530387 -0.673920 
3.964686 1.528255 -0.672981 
4.164732 2.092821 -0.572298 
4.211763 2.042398 -0.574736 
4.131386 2.003421 -0.563768 
4.040282 1.890027 -0.547681 
4.040624 1.822714 -0.544268 
4.015291 1.811286 -0.540856 
4.001954 1.738438 -0.535738 
3.976464 1.727365 -0.532325 
3.980046 1.663257 -0.529644 
3.969057 1.658665 -0.528182 
3.978934 1.597908 -0.526476 
3.956829 1.589031 -0.523551 
3.960107 1.526490 -0.521113 
3.954550 1.524348 -0.520382 
4.244626 1.985619 -0.409981 
4.231482 1.979470 -0.244828 
4.278399 1.929973 -0.245979 
4.603653 2.642943 1.225533 
4.573233 2.625479 1.217435 
4.589003 2.550012 1.212036 
4.583893 2.547172 1.210687 
4.605278 2.475541 1.207087 
4.591547 2.468160 1.203488 
4.597476 2.390236 1.196290 
4.583644 2.383044 1.192690 
4.610841 2.316995 1.191341 
4.600394 2.311745 1.188641 
4.620340 2.240528 1.185492 
4.611573 2.236276 1.183243 
4.640582 2.170845 1.182793 
4.679415 2.189011 1.192690 
4.757113 2.145920 1.204838 
4.163450 1.808592 -0.079234 
4.115763 1.787877 -0.078326 
4.099733 1.713274 -0.077558 
4.090508 1.709419 -0.077384 
4.075007 1.636490 -0.076651 
4.041606 1.623077 -0.076023 
4.041483 1.557858 -0.075604 
4.041483 1.557858 -0.075604 
4.300776 2.798296 -1.374847 
4.257056 2.769850 -1.360870 
4.277343 2.698802 -1.355177 
4.257737 2.686432 -1.348965 
4.293182 2.625715 -1.348447 
4.279998 2.617651 -1.344306 
4.385931 2.599001 -1.366047 
4.488973 2.660062 -1.398140 
4.204313 2.652724 -1.147700 
4.237616 2.591730 -1.146801 
4.274190 2.614099 -1.156698 
4.451097 2.637617 -1.194490 
4.459480 2.642585 -1.196740 
4.311049 2.636642 -0.982285 
4.448781 2.636244 -1.005182 
3.796681 2.782823 -0.745567 
3.867833 2.751775 -0.751824 
3.852179 2.823501 -0.586435 
3.871392 2.837583 -0.589360 
3.891709 2.768761 -0.586435 
4.018149 2.693980 -0.593991 
4.018149 2.693980 -0.593991 
3.902732 2.945194 -0.427760 
3.927404 2.878638 -0.426017 
3.956342 2.814744 -0.424797 
4.097832 2.915408 -0.263564 
4.076675 2.900356 -0.262203 
4.138138 2.857909 -0.263564 
4.444547 2.891840 1.224184 
4.434747 2.885463 1.221484 
4.505916 2.843021 1.230032 
4.583408 2.803217 1.240380 
4.593600 2.722061 1.232732 
4.578511 2.713120 1.228683 
4.311298 4.195484 -1.388848 
4.305712 4.190047 -1.387048 
4.512546 5.191090 -1.089410 
4.555313 5.240287 -1.099734 
3.708698 3.923209 -0.855071 
3.721805 3.828553 -0.845685 
3.721805 3.828553 -0.845685 
4.516507 5.195647 -0.845286 
4.670183 5.372431 -0.874047 
4.716953 5.275625 -0.868928 
3.721239 3.723838 -0.646395 
3.718809 3.618910 -0.637133 
3.744765 3.447109 -0.624946 
3.727239 3.430976 -0.622021 
3.754072 3.360066 -0.618609 
3.725968 3.334912 -0.613978 
3.746141 3.261065 -0.609834 
3.728174 3.245425 -0.606909 
4.509582 5.187680 -0.601375 
4.530496 5.211739 -0.604164 
4.632037 5.180651 -0.607998 
4.674532 5.228180 -0.613576 
3.861043 4.198853 -0.499054 
3.741149 3.348500 -0.439265 
3.786961 3.296600 -0.439265 
3.786961 3.296600 -0.439265 
4.538979 3.839810 -0.520145 
4.492581 5.168124 1.331084 
4.462957 5.134045 1.322306 
4.566919 5.107821 1.331847 
4.704319 5.261495 1.371917 
4.770678 5.188074 1.370009 
4.764034 5.180848 1.368101 
4.816131 5.094697 1.362758 
4.878584 5.018510 1.360468 
4.873110 5.012879 1.358942 
4.930661 4.934104 1.355889 
5.072908 4.669683 1.340242 
5.121521 4.583995 1.336045 
4.651636 5.351094 -0.371585 
4.651636 5.351094 -0.371585 
4.725895 5.285626 -0.371585 
4.725895 5.285626 -0.371585 
4.850605 5.274993 -0.375563 
4.896570 5.324980 -0.379122 
5.007940 5.297600 -0.382052 
3.967683 4.081483 -0.298315 
4.070753 3.643511 -0.095360 
4.070753 3.643511 -0.095360 
4.143868 5.340318 -1.313911 
4.074061 5.250356 -1.291777 
4.147289 5.195220 -1.292158 
4.149739 5.198288 -1.292922 
4.272667 5.199779 -1.308187 
4.322523 5.260453 -1.323451 
4.418363 5.226576 -1.330320 
4.446247 5.259561 -1.338716 
3.398724 5.392907 -1.009628 
3.455390 5.316770 -1.004309 
3.457543 5.320083 -1.004935 
3.529287 5.268007 -1.004309 
3.535884 5.277853 -1.006186 
3.637286 5.268611 -1.014008 
3.647387 5.283241 -1.016824 
3.720797 5.231801 -1.016824 
3.725376 5.238240 -1.018075 
3.811249 5.205504 -1.021830 
3.829920 5.231006 -1.026836 
3.910906 5.188064 -1.029026 
3.934688 5.219612 -1.035283 
4.024136 5.186015 -1.039663 
4.028979 5.192257 -1.040915 
4.134693 5.179440 -1.049675 
4.235749 5.306031 -1.075330 
4.280237 5.208992 -1.067822 
4.312844 5.248674 -1.075956 
4.403561 5.209065 -1.080336 
4.413763 5.221134 -1.082839 
3.310375 5.416885 -0.779476 
3.302094 5.403335 -0.777526 
3.368871 5.345537 -0.775820 
3.360404 5.332102 -0.773870 
3.435606 5.286328 -0.774114 
3.432360 5.281335 -0.773383 
3.505765 5.232897 -0.773383 
3.511289 5.241143 -0.774602 
3.586380 5.194874 -0.775089 
3.602170 5.217744 -0.778501 
3.690776 5.189590 -0.781914 
3.710335 5.217090 -0.786057 
3.806540 5.199073 -0.791176 
3.813576 5.208683 -0.792638 
3.900268 5.173951 -0.795563 
3.914607 5.192973 -0.798488 
4.003768 5.159767 -0.801900 
4.009853 5.167609 -0.803119 
4.145121 5.192503 -0.815793 
4.156267 5.206466 -0.817987 
4.234495 5.153325 -0.818962 
4.279865 5.208539 -0.827737 
4.411121 5.218010 -0.838949 
4.408558 5.214978 -0.838461 
3.384881 5.538801 -0.567907 
3.345401 5.474199 -0.561283 
3.394002 5.385414 -0.556925 
3.467300 5.501719 -0.568953 
3.534006 5.437736 -0.567384 
3.514463 5.407666 -0.564246 
3.529741 5.268685 -0.554833 
3.535286 5.276961 -0.555705 
3.644841 5.279554 -0.561283 
3.623334 5.248402 -0.557971 
3.696260 5.197300 -0.557971 
3.705498 5.210289 -0.559366 
3.802877 5.194071 -0.563200 
3.827595 5.227830 -0.566861 
3.923001 5.204107 -0.570173 
3.931396 5.215244 -0.571393 
4.019707 5.180308 -0.573659 
4.033143 5.197623 -0.575577 
4.140470 5.186677 -0.580632 
4.150414 5.199134 -0.582026 
4.234882 5.153795 -0.583595 
4.251326 5.173807 -0.585861 
4.364309 5.162635 -0.591439 
4.399039 5.203717 -0.596145 
4.214540 5.926052 1.413513 
4.283088 5.849956 1.409315 
4.274970 5.838867 1.406644 
4.406245 5.678450 1.397103 
4.474320 5.604884 1.394050 
4.470645 5.600281 1.392906 
4.539397 5.524386 1.389853 
4.464613 5.433375 1.366956 
4.486806 5.307539 1.350928 
4.461457 5.277553 1.343295 
3.404610 5.571085 -0.342172 
3.383780 5.537001 -0.340079 
3.469723 5.338824 -0.333694 
3.487137 5.365619 -0.335369 
3.561713 5.316408 -0.335369 
3.568383 5.326364 -0.335997 
3.651480 5.289171 -0.336834 
3.680983 5.331905 -0.339556 
3.778220 5.312543 -0.341649 
3.789795 5.328819 -0.342696 
3.636396 4.555234 1.345657 
3.785449 5.483224 -0.116303 
3.741141 5.419045 -0.114942 
3.832664 5.389097 -0.115430 
3.845412 5.407022 -0.115814 
2.690253 4.015619 1.295130 
2.668748 3.983519 1.284778 
2.713131 3.929972 1.279601 
2.735082 3.961767 1.289954 
3.175813 6.330908 -0.869660 
3.209010 6.180244 -0.855035 
3.181567 6.127392 -0.847723 
3.226310 6.009486 -0.837486 
3.177484 5.918539 -0.824812 
3.225131 5.811112 -0.816037 
3.198159 5.762513 -0.809212 
3.250656 5.669080 -0.802388 
3.226957 5.627750 -0.796538 
3.288025 5.553108 -0.792394 
3.263751 5.512113 -0.786545 
3.287543 6.553639 -0.641466 
3.292903 6.564324 -0.642512 
3.308947 6.372713 -0.628219 
3.246514 6.252473 -0.616365 
3.283406 6.115836 -0.607301 
3.260788 6.073706 -0.603118 
3.294997 5.936998 -0.594054 
3.250522 5.856863 -0.586035 
3.309185 5.771154 -0.582026 
3.286391 5.731401 -0.578017 
3.342746 5.645526 -0.574008 
3.332595 5.628382 -0.572265 
3.291100 6.560731 -0.384669 
3.266414 6.290799 -0.371481 
3.318829 6.181815 -0.367712 
3.342788 6.023109 -0.361013 
3.274943 5.900866 -0.353686 
3.327208 5.802586 -0.350546 
3.293430 5.743677 -0.346987 
3.348881 5.655887 -0.344475 
3.322423 5.611204 -0.341754 
2.639014 5.449351 1.397846 
2.594847 5.358149 1.374451 
2.638823 5.260431 1.358704 
3.572966 6.437849 -0.128520 
1.855703 7.073519 0.127647 
1.834898 6.994215 0.126216 
1.917806 6.920074 0.125343 
1.907659 6.883461 0.124680 
1.997972 6.836960 0.124331 
1.996289 6.831202 0.124226 
2.092648 6.806487 0.124296 
2.096762 6.819866 0.124540 
2.193048 6.797921 0.124680 
2.201030 6.822661 0.125134 
2.309612 6.835238 0.125937 
2.336498 6.914806 0.127403 
1.853949 7.066833 0.382890 
1.831142 6.979898 0.378180 
1.919203 6.925117 0.376610 
1.908002 6.884697 0.374411 
2.000020 6.843967 0.373679 
1.994977 6.826714 0.372737 
2.087164 6.788649 0.372213 
2.091860 6.803921 0.373051 
2.190990 6.791540 0.373993 
2.204480 6.833357 0.376296 
2.309356 6.834479 0.378075 
2.335570 6.912058 0.382367 
1.851956 7.059238 0.638503 
1.832744 6.986006 0.631879 
1.916120 6.913992 0.627696 
1.902285 6.864071 0.623164 
1.994025 6.823455 0.621943 
1.991790 6.815806 0.621246 
2.088516 6.793045 0.621769 
2.087345 6.789236 0.621420 
2.184424 6.771188 0.622466 
2.199106 6.816696 0.626650 
2.306914 6.827254 0.630485 
2.333702 6.906530 0.637806 
1.774954 7.177627 -1.171068 
1.850178 7.052461 -1.154799 
1.838649 7.008514 -1.147603 
1.924027 6.942521 -1.141033 
1.916113 6.913967 -1.136340 
2.009136 6.875164 -1.134463 
2.010244 6.878955 -1.135088 
2.110738 6.865323 -1.137591 
2.117123 6.886093 -1.141033 
2.215504 6.867527 -1.142910 
2.230060 6.912647 -1.150419 
2.343495 6.935514 -1.159492 
1.847692 7.042984 0.894033 
1.828551 6.970020 0.884771 
1.914934 6.909712 0.880384 
1.904861 6.873366 0.875753 
1.992847 6.819424 0.872341 
1.990063 6.809897 0.871122 
2.086700 6.787140 0.871853 
2.091951 6.804217 0.874047 
2.191051 6.791730 0.876241 
2.195927 6.806844 0.878191 
2.297830 6.800368 0.881359 
2.328967 6.892519 0.893302 
1.777012 7.185951 -0.908902 
1.849204 7.048745 -0.894765 
1.832580 6.985381 -0.886721 
1.923417 6.940320 -0.884284 
1.920236 6.928843 -0.882822 
2.015120 6.895640 -0.882090 
2.008438 6.872775 -0.879165 
2.103618 6.842166 -0.878922 
2.112368 6.870627 -0.882578 
2.216649 6.871077 -0.886478 
2.231276 6.916418 -0.892327 
2.341677 6.930132 -0.898177 
1.843662 7.027621 1.150732 
1.820102 6.937818 1.136027 
1.900286 6.856858 1.126954 
1.892900 6.830207 1.122574 
1.986418 6.797424 1.121635 
1.982540 6.784152 1.119445 
2.073585 6.744481 1.117568 
2.075907 6.752034 1.118819 
2.177295 6.749090 1.123199 
2.187605 6.781049 1.128518 
2.300495 6.808257 1.138217 
2.320098 6.866271 1.147916 
1.773022 7.169815 -0.646173 
1.848417 7.045748 -0.637283 
1.836789 7.001423 -0.633274 
1.924634 6.944712 -0.630485 
1.913460 6.904392 -0.626824 
2.009115 6.875091 -0.626650 
2.009674 6.877003 -0.626824 
2.108423 6.857795 -0.627696 
2.108423 6.857795 -0.627696 
2.210116 6.850827 -0.629787 
2.223574 6.892542 -0.633622 
2.341993 6.931068 -0.640072 
1.815908 6.921828 1.390998 
1.901209 6.860186 1.383747 
1.893344 6.831807 1.378023 
1.980286 6.776439 1.372298 
1.976431 6.763248 1.369627 
2.075861 6.751883 1.373062 
2.078168 6.759389 1.374588 
2.173578 6.737567 1.376114 
2.183222 6.767462 1.382220 
2.289520 6.775776 1.390234 
2.315287 6.852034 1.405881 
1.770643 7.160195 -0.386553 
1.846853 7.039786 -0.381424 
1.834183 6.991489 -0.378808 
1.919737 6.927042 -0.376714 
1.914936 6.909719 -0.375772 
2.005062 6.861221 -0.374621 
2.003941 6.857387 -0.374411 
2.103011 6.840193 -0.375039 
2.108294 6.857375 -0.375982 
2.210612 6.852365 -0.377342 
2.219810 6.880877 -0.378912 
2.335570 6.912058 -0.382367 
1.656073 5.975657 1.431589 
1.605069 5.791617 1.387498 
1.665005 5.697563 1.370402 
1.658445 5.675117 1.365003 
1.691133 5.500530 1.328561 
1.770883 7.161165 -0.128764 
1.846062 7.036768 -0.126984 
1.833883 6.990346 -0.126146 
1.914602 6.908512 -0.125134 
1.911397 6.896950 -0.124924 
2.004142 6.858074 -0.124715 
2.005264 6.861913 -0.124785 
2.100876 6.833246 -0.124785 
2.105577 6.848537 -0.125064 
2.207783 6.843596 -0.125518 
2.218221 6.875948 -0.126111 
2.335858 6.912912 -0.127368 
1.696257 4.795400 1.362941 
-0.583177 6.371079 1.477029 
-0.582289 6.361376 1.474779 
-0.494676 6.370742 1.475229 
-0.495280 6.378514 1.477029 
-0.405802 6.378973 1.475679 
-0.317231 6.372284 1.472980 
-0.317522 6.378123 1.474329 
-0.139310 6.384502 1.474329 
-0.849976 6.344933 1.477928 
-3.830438 6.873467 1.529525 
-3.646414 6.992772 1.532959 
-3.651860 7.003217 1.535249 
-5.604643 6.615788 0.151347 
-5.507699 6.501354 0.148729 
-5.367952 6.516480 0.147368 
-5.347610 6.491785 0.146810 
-5.251450 6.559572 0.146670 
-5.242702 6.548644 0.146426 
-5.154369 6.623463 0.146496 
-5.159281 6.629775 0.146635 
-5.089125 6.731472 0.147298 
-5.126510 6.780921 0.148380 
-5.115399 6.963771 0.150824 
-5.560376 6.563534 0.450822 
-5.497117 6.488862 0.445693 
-5.376651 6.527040 0.443181 
-5.356333 6.502374 0.441506 
-5.237562 6.542225 0.439203 
-5.241307 6.546902 0.439517 
-5.157902 6.628003 0.440145 
-5.168941 6.642189 0.441087 
-5.094970 6.739202 0.442762 
-5.132309 6.788591 0.446007 
-5.535228 6.533849 0.749191 
-5.475986 6.463920 0.741172 
-5.355941 6.501898 0.736989 
-5.342006 6.484982 0.735072 
-5.243470 6.549604 0.734026 
-5.226037 6.527829 0.731585 
-5.134313 6.597691 0.731411 
-5.155115 6.624422 0.734374 
-5.095764 6.740253 0.739255 
-5.134214 6.791111 0.744833 
-5.516238 6.511434 1.047833 
-5.470045 6.456906 1.039058 
-5.343897 6.487278 1.031990 
-5.326228 6.465828 1.028577 
-5.231709 6.534914 1.027846 
-5.237913 6.542663 1.029065 
-5.141111 6.606426 1.027846 
-5.161836 6.633059 1.031990 
-5.090270 6.732985 1.036377 
-5.147733 6.808993 1.048076 
-5.611191 6.623517 -1.065869 
-5.554733 6.556873 -1.055145 
-5.430985 6.592999 -1.048808 
-5.396907 6.551630 -1.042227 
-5.283815 6.600000 -1.038083 
-5.278853 6.593801 -1.037108 
-5.187438 6.665957 -1.037108 
-5.200849 6.683190 -1.039789 
-5.115410 6.766239 -1.041495 
-5.153718 6.816910 -1.049295 
-5.123876 6.975311 -1.062701 
-5.476471 6.464492 1.341895 
-5.440720 6.422290 1.333135 
-5.322767 6.461627 1.325939 
-5.308951 6.444855 1.322497 
-5.204869 6.501389 1.319055 
-5.201166 6.496762 1.318117 
-5.125654 6.586564 1.321871 
-5.146278 6.613066 1.327190 
-5.083226 6.723668 1.335012 
-5.145173 6.805606 1.351281 
-7.514315 7.503831 -0.929080 
-7.388842 7.378532 -0.913566 
-7.210040 7.403898 -0.904154 
-7.040132 7.431729 -0.895612 
-7.040132 7.431729 -0.895612 
-6.934296 7.525159 -0.895264 
-6.915394 7.504647 -0.892823 
-5.589318 6.597698 -0.756512 
-5.536516 6.535369 -0.749365 
-5.407878 6.564949 -0.744136 
-5.380010 6.531117 -0.740301 
-5.280825 6.596265 -0.739255 
-5.270864 6.583822 -0.737861 
-5.177140 6.652724 -0.737512 
-5.197942 6.679455 -0.740475 
-5.124601 6.778397 -0.743438 
-5.161849 6.827665 -0.748842 
-4.870532 5.749234 1.464650 
-4.859111 5.735753 1.461215 
-4.813269 5.843117 1.471519 
-4.865696 5.906761 1.487547 
-7.144057 7.336141 -0.536653 
-7.014759 7.404944 -0.534559 
-7.006517 7.396245 -0.533931 
-6.880866 7.467176 -0.532152 
-6.868685 7.453958 -0.531210 
-5.578450 6.584869 -0.452287 
-5.517773 6.513245 -0.447368 
-5.396968 6.551704 -0.444856 
-5.371571 6.520873 -0.442762 
-5.271264 6.584322 -0.442029 
-5.266272 6.578085 -0.441611 
-5.184887 6.662680 -0.442448 
-5.194700 6.675289 -0.443286 
-5.119060 6.771066 -0.444856 
-5.168443 6.836387 -0.449147 
-5.563281 6.566963 -0.150230 
-5.502529 6.495251 -0.148590 
-5.390838 6.544262 -0.147996 
-5.373038 6.522654 -0.147508 
-5.251450 6.559572 -0.146670 
-5.252699 6.561133 -0.146705 
-5.167878 6.640822 -0.146879 
-5.198581 6.680276 -0.147752 
-5.122892 6.776135 -0.148276 
-5.160276 6.825584 -0.149358 
-6.619680 4.988286 0.144680 
-6.671405 4.744627 -1.005178 
-6.634198 4.718165 -0.999572 
-6.566913 4.808014 -0.999329 
-6.512455 4.768143 -0.991041 
-6.436583 4.850313 -0.989579 
-6.423900 4.840756 -0.987629 
-6.365959 4.936164 -0.989092 
-6.372234 4.941030 -0.990067 
-7.097477 6.165394 -1.154346 
-7.042028 6.117227 -1.145328 
-6.902237 6.164812 -1.136310 
-6.884470 6.148943 -1.133385 
-6.767246 6.216266 -1.128266 
-6.822799 6.267296 -1.137528 
-7.538623 5.361382 1.465165 
-7.580477 5.391148 1.473300 
-7.550053 5.527827 1.482060 
-7.607431 5.569838 1.493323 
-6.459231 4.729174 -0.700384 
-6.371137 4.800996 -0.697943 
-6.395004 4.818982 -0.700558 
-6.285442 4.873732 -0.695851 
-6.376764 4.944543 -0.705962 
-6.341833 5.205534 -0.717815 
-6.268535 5.293573 -0.717815 
-6.320290 5.337279 -0.723741 
-6.269220 5.445909 -0.726530 
-7.555462 7.337110 -0.921411 
-6.471796 4.738373 -0.420362 
-6.364377 4.795902 -0.417641 
-6.365973 4.797104 -0.417746 
-6.310275 4.892987 -0.418478 
-6.351312 4.924808 -0.421200 
-6.283035 5.457910 -0.436168 
-6.334301 5.502443 -0.439727 
-6.275708 5.605221 -0.440983 
-6.342741 5.665091 -0.445693 
-6.304210 5.790929 -0.448624 
-7.559600 7.341128 -0.552249 
-4.681654 3.329539 1.326311 
-4.724532 3.360033 1.338459 
-4.709203 3.447878 1.347457 
-4.745368 3.474356 1.357805 
-4.720358 3.557045 1.364553 
-6.383289 5.701307 -0.149393 
-6.353135 5.835871 -0.150579 
-6.411143 3.108937 -1.128518 
-6.492904 3.148585 -1.142910 
-7.044951 3.538621 -1.248660 
-6.972073 3.624793 -1.244593 
-7.031663 3.655774 -1.255230 
-6.349795 3.079187 -0.866491 
-6.423381 3.339527 -0.888915 
-6.479742 3.368829 -0.896715 
-6.576054 3.534920 -0.916701 
-8.987215 4.831027 -1.252817 
-8.904134 4.945805 -1.250623 
-8.885045 4.935202 -1.247942 
-8.798056 5.048895 -1.245505 
-8.786003 5.041979 -1.243798 
-8.701088 5.156063 -1.241849 
-8.692549 5.151003 -1.240630 
-8.614846 5.264718 -1.239655 
-8.601295 5.256437 -1.237705 
-8.525387 5.374959 -1.237461 
-8.525387 5.374959 -1.237461 
-7.289512 4.739293 -1.067575 
-7.163027 4.657059 -1.049051 
-7.050310 4.723336 -1.041983 
-6.994237 4.685770 -1.033696 
-6.840741 4.720873 -1.020534 
-6.824403 4.709599 -1.018096 
-7.624807 4.957286 1.440449 
-7.576780 4.926061 1.431375 
-7.537681 5.049849 1.437007 
-7.575427 5.075137 1.444203 
-7.547003 5.208273 1.452338 
-7.584397 5.234079 1.459534 
-6.511177 3.157445 -0.633099 
-6.554202 3.178310 -0.637283 
-6.559039 3.294551 -0.642164 
-6.623133 3.326745 -0.648439 
-6.844738 3.558591 -0.674934 
-6.842970 3.557672 -0.674760 
-6.796777 3.653569 -0.675108 
-7.284571 4.736080 -0.760172 
-7.124229 4.772858 -0.750237 
-7.028224 4.708539 -0.740127 
-4.785164 2.320456 1.227783 
-4.707405 3.248634 1.320463 
-4.705801 3.247527 1.320013 
-7.827515 4.638404 -0.158817 
-7.114511 2.084473 -1.174197 
-6.981813 2.045594 -1.152296 
-6.918964 2.131195 -1.146665 
-6.843451 2.107935 -1.134150 
-6.772002 2.189908 -1.127267 
-6.666748 2.155871 -1.109746 
-6.572387 2.227188 -1.099109 
-6.555549 2.221482 -1.096293 
-6.522435 2.310997 -1.095980 
-6.522435 2.310997 -1.095980 
-6.467302 2.393611 -1.092225 
-6.461744 2.391554 -1.091287 
-6.426313 2.479708 -1.090974 
-6.439214 2.484686 -1.093164 
-6.411226 2.577296 -1.094416 
-6.411226 2.577296 -1.094416 
-6.384194 2.669257 -1.095980 
-6.389661 2.671543 -1.096918 
-6.372149 2.768045 -1.100360 
-6.384832 2.773554 -1.102550 
-6.362192 2.868630 -1.105366 
-6.372996 2.873502 -1.107243 
-6.362153 2.977543 -1.112562 
-6.372888 2.982567 -1.114439 
-7.052348 2.066260 -0.902321 
-6.930427 2.030538 -0.886721 
-6.808812 2.097266 -0.874778 
-6.753795 2.080320 -0.867710 
-6.682538 2.160977 -0.862347 
-6.616430 2.139600 -0.853817 
-6.574631 2.227948 -0.852354 
-6.567111 2.225400 -0.851379 
-6.500252 2.303137 -0.846748 
-6.511479 2.307115 -0.848211 
-6.486079 2.400560 -0.849186 
-6.473047 2.395737 -0.847479 
-6.435696 2.483328 -0.846992 
-6.430140 2.481184 -0.846261 
-6.411447 2.577385 -0.848454 
-6.404080 2.574424 -0.847479 
-6.348868 2.757932 -0.849917 
-6.363434 2.764259 -0.851867 
-6.350052 2.863157 -0.855279 
-6.382626 2.877844 -0.859666 
-6.352092 2.972834 -0.861129 
-6.371869 2.982090 -0.863810 
-7.093567 2.078337 -0.646696 
-7.017087 2.055929 -0.639723 
-6.927142 2.133714 -0.634145 
-6.879539 2.119052 -0.629787 
-6.809472 2.202025 -0.626127 
-6.760183 2.186086 -0.621595 
-6.736549 2.282817 -0.622292 
-6.687488 2.266192 -0.617760 
-6.659362 2.359512 -0.618109 
-6.638705 2.352193 -0.616191 
-6.586531 2.437739 -0.614448 
-6.588399 2.438430 -0.614622 
-6.561588 2.531906 -0.615320 
-6.569023 2.534775 -0.616017 
-6.518203 2.620301 -0.614622 
-6.540386 2.629218 -0.616714 
-6.518219 2.725294 -0.618109 
-6.507190 2.720682 -0.617063 
-6.507435 2.826813 -0.620723 
-6.492816 2.820462 -0.619329 
-6.471474 2.917904 -0.621072 
-6.473290 2.918723 -0.621246 
-6.480105 3.032745 -0.625953 
-6.532437 3.057237 -0.631008 
-8.693179 2.547005 -0.158119 
-9.708335 2.990384 -0.177316 
-9.597139 3.103492 -0.176060 
-9.627583 3.113336 -0.176618 
-9.590751 3.250022 -0.176758 
-8.104981 2.871716 -0.150091 
-8.915479 3.158888 -0.165100 
-8.870505 3.283060 -0.165100 
-8.824396 3.405051 -0.165100 
-7.513313 0.894578 -1.470756 
-7.513313 0.894578 -1.470756 
-7.469127 0.993941 -1.464650 
-7.447720 0.991092 -1.460452 
-7.440925 1.096126 -1.461979 
-7.440925 1.096126 -1.461979 
-7.407661 1.195799 -1.458544 
-7.386342 1.192358 -1.454346 
-7.351572 1.292312 -1.450912 
-7.347704 1.291632 -1.450148 
-7.325097 1.393362 -1.449385 
-7.313525 1.391161 -1.447095 
-6.868570 1.404919 -1.362758 
-6.705079 1.371477 -1.330320 
-6.626080 1.450777 -1.318490 
-6.631833 1.452037 -1.319635 
-6.649148 1.553423 -1.327267 
-6.192524 0.737318 -0.987727 
-6.206254 0.738953 -0.989917 
-6.201351 0.825234 -0.990856 
-6.207225 0.826015 -0.991795 
-6.218538 0.916056 -0.995549 
-6.216584 0.915768 -0.995236 
-6.261871 1.010837 -1.004622 
-6.277472 1.013356 -1.007125 
-6.282167 1.104324 -1.010254 
-6.274384 1.102956 -1.009002 
-6.312710 1.200788 -1.017763 
-6.285542 1.195621 -1.013382 
-6.342001 1.297212 -1.025272 
-6.392319 1.307505 -1.033406 
-8.577234 2.003877 -1.395083 
-8.531535 2.117664 -1.392267 
-8.512363 2.112905 -1.389138 
-8.455288 2.224514 -1.384758 
-8.434274 2.218985 -1.381316 
-8.391050 2.333354 -1.379439 
-7.308150 2.032225 -1.201417 
-6.362934 0.757608 -0.786788 
-6.349136 0.755965 -0.785082 
-6.379432 0.848932 -0.790201 
-6.371561 0.847884 -0.789226 
-6.353210 0.935894 -0.788495 
-6.368921 0.938209 -0.790445 
-6.367138 1.027830 -0.791907 
-6.394575 1.032259 -0.795319 
-6.389314 1.123159 -0.796538 
-6.404955 1.125909 -0.798488 
-6.353508 1.208549 -0.794101 
-6.340131 1.296830 -0.794588 
-6.375138 1.303990 -0.798975 
-8.288356 2.057302 -1.048564 
-7.967019 2.096054 -1.011515 
-7.698252 2.025344 -0.977392 
-7.470321 2.077321 -0.952043 
-7.254206 2.017224 -0.924501 
-6.401027 1.125218 -0.568604 
-6.452047 1.134187 -0.573136 
-6.498216 1.236075 -0.578714 
-6.513874 1.239053 -0.580109 
-6.550827 1.339926 -0.584989 
-6.556683 1.341124 -0.585512 
-9.108609 1.994326 -0.815778 
-8.835419 2.064196 -0.793814 
-8.571559 2.002551 -0.770108 
-8.349762 2.072545 -0.752677 
-8.156391 2.024547 -0.735246 
-7.956832 2.212608 -0.144157 
-7.848943 2.182607 -0.142202 
-6.494254 0.049873 -1.262392 
-6.755964 0.145056 -1.313529 
-6.801109 0.146026 -1.322306 
-6.804335 0.239991 -1.323451 
-6.772943 0.238883 -1.317345 
-7.657290 0.375844 -1.490218 
-7.643564 0.375170 -1.487547 
-7.617987 0.480618 -1.483731 
-7.623865 0.480989 -1.484876 
-7.606721 0.585305 -1.482967 
-7.598891 0.584703 -1.481441 
-7.593897 0.691099 -1.482204 
-7.566525 0.688608 -1.476862 
-7.552406 0.792457 -1.476098 
-7.532881 0.790408 -1.472282 
-6.243981 0.047951 -0.988979 
-6.254576 0.134291 -0.990856 
-6.242727 0.134037 -0.988979 
-6.248182 0.220375 -0.990230 
-6.244234 0.220236 -0.989604 
-6.224820 0.305534 -0.987101 
-6.218901 0.305243 -0.986163 
-6.219947 0.392416 -0.987101 
-6.229804 0.393038 -0.988666 
-6.215915 0.478289 -0.987414 
-6.215915 0.478289 -0.987414 
-6.208631 0.565030 -0.987414 
-6.220435 0.566104 -0.989292 
-6.217932 0.652434 -0.990230 
-6.206144 0.651197 -0.988353 
-6.387839 0.049056 -0.784351 
-6.386555 0.137125 -0.784351 
-6.303200 0.135335 -0.774114 
-6.362235 0.224398 -0.781670 
-6.350605 0.311707 -0.780695 
-6.344657 0.311416 -0.779964 
-6.331766 0.399470 -0.778989 
-6.325823 0.399095 -0.778258 
-6.357325 0.489169 -0.782889 
-6.375138 0.490540 -0.785082 
-6.355806 0.578424 -0.783620 
-6.355806 0.578424 -0.783620 
-6.361046 0.667450 -0.785326 
-6.359072 0.667243 -0.785082 
-6.483044 0.049787 -0.567210 
-6.441903 0.138313 -0.563723 
-6.402064 0.137458 -0.560237 
-6.377657 0.224942 -0.558320 
-6.363719 0.224450 -0.557100 
-6.362010 0.312267 -0.557274 
-6.364000 0.312365 -0.557448 
-6.372937 0.402068 -0.558668 
-6.351065 0.400688 -0.556751 
-6.340963 0.487911 -0.556402 
-6.335004 0.487452 -0.555879 
-6.311707 0.574410 -0.554485 
-6.327580 0.575855 -0.555879 
-6.380466 0.669488 -0.561283 
-6.380466 0.669488 -0.561283 
-6.861373 0.147319 -0.119793 
-6.778752 0.239088 -0.118397 
-6.734786 0.237538 -0.117629 
-6.752841 0.331450 -0.118013 
-6.752841 0.331450 -0.118013 
-6.749550 0.425828 -0.118048 
-6.709636 0.423310 -0.117350 
-4.914443 -0.927705 0.087297 
-4.875697 -0.850068 0.086389 
-4.830388 -0.842169 0.085587 
-4.810082 -0.769589 0.085028 
-4.784412 -0.765482 0.084574 
-4.782639 -0.697712 0.084365 
-4.782639 -0.697712 0.084365 
-4.781892 -0.630397 0.084190 
-4.768014 -0.628568 0.083946 
-4.784171 -0.563704 0.084086 
-4.796087 -0.565108 0.084295 
-4.823400 -0.500152 0.084644 
-4.827378 -0.500564 0.084714 
-4.851746 -0.435567 0.085028 
-4.889587 -0.438965 0.085691 
-4.955060 -0.375182 0.086738 
-4.967333 -0.937689 0.264925 
-4.894717 -0.923982 0.261052 
-4.865821 -0.848347 0.258854 
-4.826470 -0.841486 0.256760 
-4.821971 -0.771491 0.255923 
-4.800277 -0.768021 0.254771 
-4.790647 -0.698880 0.253725 
-4.784718 -0.698015 0.253411 
-4.789927 -0.631456 0.253201 
-4.795867 -0.632239 0.253515 
-4.794210 -0.564887 0.252992 
-4.802145 -0.565822 0.253411 
-4.821496 -0.499954 0.254039 
-4.853282 -0.503250 0.255713 
-4.885620 -0.438609 0.257074 
-4.915459 -0.441287 0.258644 
-4.968938 -0.376233 0.261156 
-4.701693 -0.954861 0.419742 
-4.700706 -0.887358 0.418522 
-4.667423 -0.881075 0.415559 
-4.632164 -0.807609 0.411375 
-4.719715 -0.755131 0.418173 
-4.788824 -0.698614 0.423403 
-4.747422 -0.692574 0.419742 
-4.618248 -0.608824 0.407540 
-4.634051 -0.610907 0.408935 
-4.673693 -0.550687 0.411724 
-4.685565 -0.552086 0.412770 
-4.706689 -0.488050 0.413990 
-4.847394 -0.502640 0.426366 
-4.889583 -0.438964 0.429504 
-4.935225 -0.443062 0.433513 
-5.022384 -0.380280 0.440659 
-4.721435 -0.958871 0.591554 
-4.691293 -0.885581 0.586192 
-4.644477 -0.876744 0.580342 
-4.666044 -0.813516 0.581560 
-4.784756 -0.765537 0.594966 
-4.785035 -0.698061 0.593747 
-4.644632 -0.612302 0.575223 
-4.648568 -0.612821 0.575711 
-4.664461 -0.549599 0.576686 
-4.688118 -0.552386 0.579611 
-4.740788 -0.491585 0.585217 
-4.875054 -0.505508 0.601791 
-4.889469 -0.438954 0.602766 
-4.942852 -0.443747 0.609347 
-4.688647 -0.952212 0.757769 
-4.672214 -0.881979 0.753076 
-4.623687 -0.872819 0.745254 
-4.643207 -0.809534 0.746505 
-4.776943 -0.764287 0.766216 
-4.773042 -0.763663 0.765590 
-4.759661 -0.694359 0.761836 
-4.617983 -0.608789 0.737745 
-4.627775 -0.610080 0.739309 
-4.669097 -0.550145 0.744628 
-4.667135 -0.549914 0.744315 
-4.809933 -0.498755 0.765903 
-4.855124 -0.503441 0.773099 
-4.895051 -0.439455 0.778418 
-4.965879 -0.445814 0.789681 
-4.700278 -0.954574 0.932293 
-4.677190 -0.949885 0.927713 
-4.653188 -0.878388 0.920463 
-4.639684 -0.875839 0.917791 
-4.643724 -0.809624 0.916265 
-4.688208 -0.817380 0.925042 
-4.716610 -0.754634 0.928477 
-4.728242 -0.756495 0.930766 
-4.763478 -0.694916 0.935727 
-4.622733 -0.609415 0.906343 
-4.624679 -0.609672 0.906724 
-4.654093 -0.548377 0.910922 
-4.669691 -0.550215 0.913975 
-4.844857 -0.502377 0.946794 
-4.874149 -0.505414 0.952519 
-4.892386 -0.439216 0.954808 
-4.997978 -0.448696 0.975416 
-4.697995 -0.954110 1.106759 
-4.667439 -0.947905 1.099561 
-4.649426 -0.877678 1.092362 
-4.618787 -0.871894 1.085164 
-4.640110 -0.808994 1.087413 
-4.674665 -0.815019 1.095512 
-4.770257 -0.763218 1.115307 
-4.760636 -0.761678 1.113058 
-4.602921 -0.671493 1.073916 
-4.627197 -0.610004 1.077516 
-4.634925 -0.611023 1.079315 
-4.654521 -0.548428 1.082015 
-4.675810 -0.550936 1.086964 
-4.826485 -0.500471 1.120256 
-4.886573 -0.506702 1.134203 
-4.943560 -0.443810 1.145901 
-4.529419 -1.320205 1.089213 
-4.533161 -1.321296 1.090113 
-4.564095 -1.262305 1.093262 
-4.644859 -1.284642 1.112608 
-4.628407 -1.210787 1.104510 
0.087577 -0.610006 -0.165127 
0.086479 -0.602357 -0.163056 
0.079158 -0.611156 -0.165127 
0.024100 -0.530712 -0.142350 
0.024450 -0.538432 -0.144421 
0.017268 -0.546441 -0.146492 
0.136211 -0.632674 -0.173409 
0.137837 -0.640228 -0.175479 
0.125953 -0.626916 -0.171338 
0.128997 -0.642068 -0.175479 
0.111627 -0.598207 -0.163056 
0.123676 -0.662776 -0.180656 
0.111788 -0.649207 -0.176515 
0.109165 -0.633977 -0.172373 
0.100303 -0.635439 -0.172373 
0.090062 -0.570559 -0.154774 
0.530201 -1.028567 -0.310065 
0.523120 -1.014830 -0.305924 
0.507355 -1.018488 -0.304889 
0.507355 -1.018488 -0.304889 
0.500620 -1.041142 -0.309548 
0.497271 -1.034177 -0.307477 
0.477907 -1.030504 -0.304371 
0.485222 -1.046277 -0.309030 
0.467413 -1.045895 -0.306959 
0.472143 -1.056478 -0.310065 
0.454476 -1.055789 -0.307995 
0.449893 -1.045143 -0.304889 
0.435440 -1.051246 -0.304889 
0.442833 -1.069094 -0.310065 
0.427863 -1.075173 -0.310065 
0.425006 -1.067993 -0.307995 
0.408862 -1.070142 -0.306959 
0.408862 -1.070142 -0.306959 
0.611549 -0.581963 -0.164096 
2.129313 -0.198655 -0.573025 
2.133160 -0.199014 -0.574061 
2.122490 -0.227953 -0.571990 
2.134015 -0.229191 -0.575096 
2.122981 -0.257661 -0.573025 
2.122981 -0.257661 -0.573025 
2.119177 -0.287277 -0.573025 
2.130663 -0.288834 -0.576131 
2.134064 -0.319700 -0.578202 
2.126422 -0.318555 -0.576131 
2.121767 -0.348213 -0.576131 
2.137018 -0.350716 -0.580272 
2.147127 -0.383235 -0.584413 
2.162342 -0.385951 -0.588555 
2.160536 -0.416836 -0.589590 
2.171917 -0.419032 -0.592696 
2.179175 -0.451682 -0.596319 
2.209441 -0.457955 -0.604601 
2.223577 -0.493362 -0.610295 
2.244323 -0.497965 -0.615989 
2.276725 -0.538195 -0.626860 
3.619072 -0.855512 -0.996453 
2.152324 -0.200802 0.037732 
2.140378 -0.199687 0.037523 
2.141358 -0.229979 0.037592 
2.145334 -0.230406 0.037662 
2.141953 -0.259964 0.037662 
2.130043 -0.258518 0.037453 
2.130189 -0.288770 0.037523 
2.134152 -0.289307 0.037592 
2.098262 -0.314336 0.037034 
2.141770 -0.320854 0.037802 
2.133135 -0.350079 0.037732 
2.137082 -0.350727 0.037802 
2.139851 -0.381936 0.037942 
2.151662 -0.384044 0.038151 
2.157871 -0.416322 0.038360 
2.161798 -0.417079 0.038430 
2.163675 -0.448469 0.038570 
2.187171 -0.453340 0.038989 
2.196246 -0.487298 0.039268 
2.221625 -0.492929 0.039722 
2.222402 -0.525354 0.039861 
2.261323 -0.534554 0.040559 
2.298247 -0.577280 0.041362 
2.145988 -0.200211 -0.497592 
2.134346 -0.199124 -0.494892 
2.125545 -0.228281 -0.493543 
2.127482 -0.228489 -0.493993 
2.124130 -0.257800 -0.493993 
2.131868 -0.258739 -0.495792 
2.120323 -0.287433 -0.493993 
2.124185 -0.287956 -0.494892 
2.127667 -0.318741 -0.496692 
2.139230 -0.320474 -0.499391 
2.140316 -0.351257 -0.500741 
2.138393 -0.350942 -0.500291 
2.133285 -0.380764 -0.500291 
2.146713 -0.383161 -0.503440 
2.156462 -0.416050 -0.507040 
2.169856 -0.418634 -0.510189 
2.169603 -0.449698 -0.511539 
2.192501 -0.454444 -0.516937 
2.208772 -0.490077 -0.522336 
2.241114 -0.497253 -0.529985 
2.271974 -0.537072 -0.538983 
2.167599 -0.202227 0.114092 
2.167599 -0.202227 0.114092 
2.152650 -0.231192 0.113464 
2.140734 -0.229912 0.112836 
2.145292 -0.260369 0.113255 
2.155205 -0.261572 0.113778 
2.157281 -0.292443 0.114092 
2.145406 -0.290833 0.113464 
2.109533 -0.316025 0.111790 
2.151012 -0.322239 0.113988 
2.152216 -0.353210 0.114302 
2.160100 -0.354504 0.114720 
2.151007 -0.383927 0.114511 
2.147075 -0.383226 0.114302 
2.163087 -0.417328 0.115453 
2.174853 -0.419598 0.116081 
2.180595 -0.451977 0.116709 
2.184507 -0.452787 0.116919 
2.193571 -0.486705 0.117756 
2.218919 -0.492329 0.119117 
2.239131 -0.529308 0.120582 
2.272174 -0.537119 0.122361 
2.291572 -0.575603 0.123827 
2.146333 -0.200243 -0.419017 
2.146333 -0.200243 -0.419017 
2.143328 -0.230191 -0.419017 
2.137471 -0.229562 -0.417872 
2.132154 -0.258774 -0.417490 
2.138001 -0.259484 -0.418635 
2.140006 -0.290101 -0.419780 
2.143897 -0.290628 -0.420543 
2.131864 -0.319370 -0.419017 
2.137689 -0.320243 -0.420161 
2.136884 -0.350694 -0.420925 
2.150445 -0.352920 -0.423596 
2.154972 -0.384635 -0.425504 
2.156904 -0.384980 -0.425886 
2.172523 -0.419149 -0.430083 
2.182162 -0.421008 -0.431992 
2.195374 -0.455040 -0.435808 
2.206908 -0.457430 -0.438097 
2.219473 -0.492452 -0.441914 
2.246306 -0.498405 -0.447256 
2.285075 -0.540169 -0.456415 
2.334750 -0.551912 -0.466337 
2.158347 -0.201364 0.189651 
2.158347 -0.201364 0.189651 
2.157306 -0.231692 0.189825 
2.161268 -0.232118 0.190174 
2.145995 -0.260454 0.189128 
2.140061 -0.259734 0.188605 
2.148072 -0.291194 0.189651 
2.138201 -0.289856 0.188779 
2.110300 -0.316140 0.186688 
2.145767 -0.321453 0.189825 
2.141070 -0.351381 0.189825 
2.150901 -0.352994 0.190697 
2.155569 -0.384742 0.191568 
2.167338 -0.386842 0.192614 
2.155856 -0.415933 0.192091 
2.165638 -0.417820 0.192963 
2.165524 -0.448853 0.193486 
2.183082 -0.452492 0.195055 
2.209618 -0.490265 0.198018 
2.215454 -0.491560 0.198541 
2.227855 -0.526643 0.200284 
2.260817 -0.534435 0.203247 
2.301444 -0.578083 0.207605 
2.132050 -0.198910 -0.339150 
2.120249 -0.197809 -0.337273 
2.125137 -0.228237 -0.338524 
2.132993 -0.229081 -0.339776 
2.115905 -0.256802 -0.337586 
2.080607 -0.252518 -0.331954 
2.069049 -0.280482 -0.330702 
2.072963 -0.281013 -0.331328 
2.113770 -0.316659 -0.338524 
2.139167 -0.320464 -0.342591 
2.126687 -0.349021 -0.341340 
2.136433 -0.350620 -0.342904 
2.135219 -0.381109 -0.343530 
2.150776 -0.383886 -0.346033 
2.164602 -0.417620 -0.349162 
2.166542 -0.417995 -0.349475 
2.166376 -0.449029 -0.350413 
2.193455 -0.454642 -0.354793 
2.211964 -0.490786 -0.358861 
2.237034 -0.496348 -0.362928 
2.260736 -0.534415 -0.367934 
2.306874 -0.545322 -0.375443 
2.170207 -0.202470 0.267625 
2.158348 -0.201364 0.266163 
2.149405 -0.230843 0.265431 
2.153352 -0.231267 0.265919 
2.149959 -0.260935 0.265919 
2.153900 -0.261413 0.266406 
2.142172 -0.290394 0.265431 
2.136271 -0.289595 0.264700 
2.118277 -0.317335 0.262994 
2.133982 -0.319687 0.264944 
2.150859 -0.352988 0.267625 
2.164571 -0.355238 0.269331 
2.145720 -0.382984 0.267625 
2.157446 -0.385077 0.269088 
2.161605 -0.417042 0.270306 
2.173300 -0.419298 0.271769 
2.171199 -0.450029 0.272256 
2.177031 -0.451238 0.272987 
2.199588 -0.488040 0.276643 
2.228657 -0.494489 0.280299 
2.244810 -0.530650 0.283224 
2.258332 -0.533847 0.284931 
2.285314 -0.574031 0.289318 
2.146489 -0.200257 -0.264700 
2.150442 -0.200626 -0.265188 
2.133615 -0.229148 -0.263482 
2.123746 -0.228088 -0.262263 
2.080987 -0.252564 -0.257388 
2.088870 -0.253521 -0.258363 
2.092994 -0.283728 -0.259338 
2.087093 -0.282928 -0.258607 
2.077050 -0.311158 -0.257876 
2.145761 -0.321452 -0.266406 
2.143023 -0.351702 -0.266650 
2.150859 -0.352988 -0.267625 
2.139858 -0.381937 -0.266894 
2.143766 -0.382635 -0.267381 
2.151859 -0.415162 -0.269088 
2.167452 -0.418170 -0.271037 
2.178974 -0.451641 -0.273231 
2.192581 -0.454461 -0.274937 
2.205401 -0.489330 -0.277375 
2.234471 -0.495779 -0.281031 
2.266060 -0.535674 -0.285905 
2.302765 -0.544351 -0.290537 
2.151718 -0.200745 0.342279 
2.155652 -0.201112 0.342904 
2.144777 -0.230346 0.341653 
2.136921 -0.229503 0.340401 
2.129632 -0.258468 0.339776 
2.125710 -0.257992 0.339150 
2.133645 -0.289239 0.341027 
2.137560 -0.289769 0.341653 
2.107909 -0.315781 0.337586 
2.100095 -0.314611 0.336334 
2.122788 -0.348381 0.340714 
2.136433 -0.350620 0.342904 
2.141052 -0.382151 0.344469 
2.135219 -0.381109 0.343530 
2.139387 -0.412756 0.345094 
2.151025 -0.415001 0.346972 
2.164441 -0.448628 0.350100 
2.179915 -0.451836 0.352603 
2.179180 -0.483512 0.353542 
2.194608 -0.486935 0.356045 
2.214599 -0.523509 0.360425 
2.249202 -0.531689 0.366057 
2.279876 -0.572665 0.372314 
2.346932 -0.589508 0.383264 
2.150412 -0.200623 -0.188954 
2.146444 -0.200253 -0.188605 
2.141458 -0.229990 -0.188431 
2.159287 -0.231905 -0.190000 
2.126216 -0.258054 -0.187385 
2.132150 -0.258774 -0.187908 
2.130303 -0.288786 -0.188082 
2.122406 -0.287715 -0.187385 
2.151679 -0.322338 -0.190348 
2.147738 -0.321748 -0.190000 
2.125341 -0.348800 -0.188431 
2.150901 -0.352994 -0.190697 
2.157531 -0.385092 -0.191743 
2.165376 -0.386492 -0.192440 
2.169551 -0.418575 -0.193311 
2.163682 -0.417443 -0.192788 
2.173328 -0.450470 -0.194183 
2.192837 -0.454514 -0.195926 
2.215454 -0.491560 -0.198541 
2.231014 -0.495012 -0.199935 
2.251122 -0.532143 -0.202376 
2.289901 -0.541310 -0.205862 
2.146333 -0.200243 0.419017 
2.138514 -0.199513 0.417490 
2.135520 -0.229352 0.417490 
2.149184 -0.230820 0.420161 
2.134103 -0.259011 0.417872 
2.130205 -0.258538 0.417108 
2.114715 -0.286672 0.414819 
2.120552 -0.287464 0.415964 
2.124098 -0.318207 0.417490 
2.134946 -0.350376 0.420543 
2.138821 -0.351012 0.421306 
2.125981 -0.379461 0.419780 
2.154972 -0.384635 0.425504 
2.160957 -0.416917 0.427794 
2.159030 -0.416545 0.427412 
2.156926 -0.447071 0.428175 
2.172305 -0.450258 0.431228 
2.190723 -0.486073 0.436189 
2.215640 -0.491601 0.441150 
2.218204 -0.524361 0.443058 
2.239220 -0.529329 0.447256 
2.262077 -0.568195 0.453362 
2.330625 -0.585413 0.467100 
2.165611 -0.202041 -0.113988 
2.153679 -0.200928 -0.113360 
2.148678 -0.230765 -0.113255 
2.152650 -0.231192 -0.113464 
2.147275 -0.260609 -0.113360 
2.155205 -0.261572 -0.113778 
2.141448 -0.290296 -0.113255 
2.117698 -0.287077 -0.111999 
2.119409 -0.317504 -0.112313 
2.151012 -0.322239 -0.113988 
2.162071 -0.354828 -0.114825 
2.150245 -0.352887 -0.114197 
2.149041 -0.383576 -0.114406 
2.164770 -0.386384 -0.115244 
2.170931 -0.418841 -0.115872 
2.184659 -0.421490 -0.116605 
2.192329 -0.454409 -0.117337 
2.192329 -0.454409 -0.117337 
2.216969 -0.491896 -0.119012 
2.244267 -0.497953 -0.120477 
2.270230 -0.536660 -0.122257 
2.307160 -0.545390 -0.124246 
2.165390 -0.202021 0.502091 
2.161510 -0.201659 0.501191 
2.139108 -0.229738 0.496692 
2.139108 -0.229738 0.496692 
2.135737 -0.259209 0.496692 
2.143475 -0.260148 0.498492 
2.139634 -0.290050 0.498492 
2.131910 -0.289003 0.496692 
2.139230 -0.320474 0.499391 
2.108394 -0.315854 0.492193 
2.136470 -0.350626 0.499841 
2.146085 -0.352204 0.502091 
2.139040 -0.381791 0.501641 
2.139040 -0.381791 0.501641 
2.148808 -0.414573 0.505240 
2.167943 -0.418265 0.509739 
2.173419 -0.450489 0.512438 
2.175327 -0.450885 0.512888 
2.187845 -0.485434 0.517387 
2.204967 -0.489233 0.521437 
2.218873 -0.524519 0.526385 
2.249217 -0.531692 0.533584 
2.266144 -0.569216 0.539433 
2.328515 -0.584883 0.554279 
2.154315 -0.200988 -0.037767 
2.156306 -0.201173 -0.037802 
2.155275 -0.231474 -0.037837 
2.145334 -0.230406 -0.037662 
2.134013 -0.259000 -0.037523 
2.145924 -0.260445 -0.037732 
2.146041 -0.290919 -0.037802 
2.130189 -0.288770 -0.037523 
2.112106 -0.316410 -0.037278 
2.133860 -0.319669 -0.037662 
2.160761 -0.354613 -0.038221 
2.154841 -0.353641 -0.038116 
2.149694 -0.383693 -0.038116 
2.167411 -0.386855 -0.038430 
2.173579 -0.419352 -0.038640 
2.183397 -0.421246 -0.038814 
2.187171 -0.453340 -0.038989 
2.206752 -0.457398 -0.039338 
2.204055 -0.489031 -0.039408 
2.227482 -0.494229 -0.039826 
2.253539 -0.532714 -0.040420 
2.304137 -0.544675 -0.041327 
2.163936 -0.201885 0.582343 
2.167783 -0.202244 0.583378 
2.164748 -0.232491 0.583378 
2.168590 -0.232904 0.584413 
2.149830 -0.260919 0.580272 
2.136405 -0.259290 0.576649 
2.151721 -0.291689 0.581825 
2.147892 -0.291170 0.580790 
2.147438 -0.321703 0.581825 
2.105407 -0.315406 0.570437 
2.140831 -0.351342 0.581308 
2.152269 -0.353219 0.584413 
2.154735 -0.384593 0.586484 
2.169949 -0.387308 0.590625 
2.160536 -0.416836 0.589590 
2.164330 -0.417568 0.590625 
2.175391 -0.450898 0.595284 
2.188633 -0.453642 0.598907 
2.199060 -0.487922 0.603566 
2.208490 -0.490015 0.606154 
2.222204 -0.525307 0.611848 
2.252285 -0.532418 0.620130 
2.274610 -0.571342 0.628413 
2.334567 -0.586403 0.644977 
2.230660 -0.052958 -0.597872 
2.213278 -0.052545 -0.593213 
2.206552 -0.082839 -0.591660 
2.204622 -0.082766 -0.591143 
2.172382 -0.111949 -0.582860 
2.156948 -0.111153 -0.578719 
2.153283 -0.140756 -0.578202 
2.151355 -0.140630 -0.577684 
2.151108 -0.170807 -0.578202 
2.143404 -0.170195 -0.576131 
2.385614 0.010409 0.041641 
2.337536 -0.022439 0.040804 
2.307542 -0.022151 0.040280 
2.269015 -0.053869 0.039617 
2.243026 -0.053252 0.039163 
2.226093 -0.083572 0.038884 
2.220098 -0.083347 0.038779 
2.210729 -0.113925 0.038640 
2.184768 -0.112587 0.038186 
2.173031 -0.142047 0.038011 
2.173031 -0.142047 0.038011 
2.170835 -0.172373 0.038011 
2.162862 -0.171740 0.037872 
2.221461 -0.021325 -0.512888 
2.230679 -0.052958 -0.515138 
2.199508 -0.052218 -0.507939 
2.184947 -0.082028 -0.504790 
2.179105 -0.081808 -0.503440 
2.171912 -0.111925 -0.502091 
2.173858 -0.112025 -0.502541 
2.152661 -0.140716 -0.498042 
2.148772 -0.140461 -0.497142 
2.144659 -0.170295 -0.496692 
2.140773 -0.169986 -0.495792 
2.386702 0.010414 0.125083 
2.336685 -0.022431 0.122466 
2.310722 -0.022182 0.121105 
2.284221 -0.054230 0.119745 
2.264254 -0.053756 0.118698 
2.241343 -0.084145 0.117547 
2.221385 -0.083396 0.116500 
2.214020 -0.114095 0.116186 
2.208036 -0.113786 0.115872 
2.190313 -0.143177 0.115034 
2.182341 -0.142656 0.114616 
2.170182 -0.172322 0.114092 
2.162218 -0.171689 0.113674 
2.445796 0.045254 -0.475496 
2.367662 0.010331 -0.460231 
2.324471 0.010142 -0.451836 
2.287086 -0.021955 -0.444585 
2.253712 -0.021635 -0.438097 
2.245330 -0.053306 -0.436571 
2.229629 -0.052933 -0.433518 
2.220840 -0.083375 -0.431992 
2.203183 -0.082712 -0.428557 
2.186128 -0.112657 -0.425504 
2.184167 -0.112556 -0.425122 
2.182408 -0.142660 -0.425122 
2.168694 -0.141764 -0.422451 
2.156718 -0.171252 -0.420543 
2.146932 -0.170475 -0.418635 
2.364857 -0.022702 0.206908 
2.309073 -0.022166 0.202027 
2.278651 -0.054097 0.199412 
2.256741 -0.053577 0.197495 
2.249815 -0.084463 0.196972 
2.231896 -0.083790 0.195403 
2.220560 -0.114432 0.194532 
2.204642 -0.113611 0.193137 
2.188949 -0.143088 0.191917 
2.190937 -0.143218 0.192091 
2.178793 -0.173005 0.191220 
2.166877 -0.172059 0.190174 
2.354627 0.010274 -0.372940 
2.313144 0.010093 -0.366370 
2.281455 -0.021901 -0.361364 
2.257751 -0.021674 -0.357609 
2.227597 -0.052885 -0.352916 
2.205874 -0.052370 -0.349475 
2.197047 -0.082482 -0.348223 
2.185203 -0.082037 -0.346346 
2.179899 -0.112336 -0.345720 
2.162144 -0.111421 -0.342904 
2.156460 -0.140964 -0.342279 
2.144633 -0.140191 -0.340401 
2.150343 -0.170746 -0.341653 
2.150343 -0.170746 -0.341653 
2.374061 -0.022790 0.291511 
2.318481 -0.022257 0.284687 
2.298089 -0.054559 0.282249 
2.266337 -0.053805 0.278350 
2.243559 -0.084228 0.275668 
2.227689 -0.083632 0.273719 
2.226305 -0.114728 0.273719 
2.214410 -0.114115 0.272256 
2.190836 -0.143211 0.269575 
2.180932 -0.142564 0.268356 
2.176750 -0.172843 0.268113 
2.172792 -0.172529 0.267625 
2.388043 0.010420 -0.293218 
2.324521 0.010143 -0.285418 
2.282751 -0.021914 -0.280299 
2.260916 -0.021704 -0.277618 
2.244507 -0.053287 -0.275668 
2.228631 -0.052910 -0.273719 
2.209836 -0.082962 -0.271525 
2.193967 -0.082366 -0.269575 
2.190620 -0.112889 -0.269331 
2.184673 -0.112582 -0.268600 
2.169047 -0.141787 -0.266894 
2.155181 -0.140880 -0.265188 
2.145088 -0.170329 -0.264213 
2.145088 -0.170329 -0.264213 
2.346639 -0.022527 0.371688 
2.313060 -0.022204 0.366370 
2.278943 -0.054104 0.361051 
2.257220 -0.053589 0.357609 
2.242448 -0.084186 0.355419 
2.216786 -0.083223 0.351352 
2.199626 -0.113353 0.348849 
2.187790 -0.112743 0.346972 
2.182085 -0.142639 0.346346 
2.174200 -0.142124 0.345094 
2.160189 -0.171528 0.343217 
2.150343 -0.170746 0.341653 
2.388852 0.010423 -0.208999 
2.337050 0.010197 -0.204467 
2.299111 -0.022071 -0.201155 
2.265242 -0.021745 -0.198192 
2.242799 -0.053246 -0.196275 
2.220888 -0.052726 -0.194357 
2.219950 -0.083342 -0.194357 
2.213977 -0.083118 -0.193834 
2.190714 -0.112894 -0.191917 
2.178775 -0.112278 -0.190871 
2.173044 -0.142048 -0.190522 
2.175032 -0.142178 -0.190697 
2.172835 -0.172532 -0.190697 
2.143043 -0.170167 -0.188082 
2.363649 -0.022690 0.459468 
2.328312 -0.022351 0.452599 
2.282622 -0.054192 0.443822 
2.253181 -0.053493 0.438097 
2.242420 -0.084185 0.436189 
2.228687 -0.083670 0.433518 
2.223380 -0.114577 0.432755 
2.201813 -0.113465 0.428557 
2.180449 -0.142532 0.424741 
2.176530 -0.142276 0.423978 
2.174332 -0.172651 0.423978 
2.172375 -0.172496 0.423596 
2.404677 0.010492 -0.126025 
2.336771 0.010196 -0.122466 
2.312719 -0.022201 -0.121210 
2.298739 -0.022067 -0.120477 
2.270244 -0.053898 -0.119012 
2.248280 -0.053376 -0.117861 
2.233360 -0.083845 -0.117128 
2.209409 -0.082946 -0.115872 
2.208036 -0.113786 -0.115872 
2.200058 -0.113375 -0.115453 
2.180348 -0.142525 -0.114511 
2.170383 -0.141874 -0.113988 
2.164209 -0.171847 -0.113778 
2.172173 -0.172480 -0.114197 
4.752164 0.087927 1.097311 
4.720989 0.087351 1.090113 
4.727599 0.020628 1.091462 
4.710060 0.020552 1.087413 
2.357867 -0.022635 0.544382 
2.324740 -0.022317 0.536733 
2.300814 -0.054623 0.531334 
2.275487 -0.054022 0.525486 
2.257000 -0.084733 0.521437 
2.223895 -0.083490 0.513788 
2.214727 -0.114131 0.511989 
2.210835 -0.113930 0.511089 
2.195442 -0.143512 0.507939 
2.179885 -0.142495 0.504340 
2.169913 -0.172300 0.502541 
2.169913 -0.172300 0.502541 
2.391613 0.010435 -0.041746 
2.369617 0.010339 -0.041362 
2.311541 -0.022190 -0.040350 
2.287546 -0.021960 -0.039931 
2.273013 -0.053963 -0.039687 
2.247025 -0.053346 -0.039233 
2.242079 -0.084173 -0.039163 
2.214103 -0.083122 -0.038675 
2.208732 -0.113822 -0.038605 
2.184768 -0.112587 -0.038186 
2.194980 -0.143482 -0.038395 
2.194980 -0.143482 -0.038395 
2.166849 -0.172057 -0.037942 
2.158875 -0.171424 -0.037802 
2.418567 -0.023217 0.648083 
2.354819 -0.022605 0.631001 
2.307912 -0.054792 0.618578 
2.278943 -0.054104 0.610813 
2.262536 -0.084941 0.606672 
2.250953 -0.084506 0.603566 
2.230261 -0.114932 0.598390 
2.214827 -0.114136 0.594249 
2.205332 -0.144159 0.592178 
2.197621 -0.143654 0.590107 
2.193475 -0.174171 0.589590 
2.176143 -0.172795 0.584931 
3.892714 0.956863 -1.074099 
3.898342 0.958246 -1.075652 
3.907577 0.902854 -1.074617 
3.901930 0.901549 -1.073064 
3.925318 0.850118 -1.076170 
3.934758 0.852163 -1.078758 
3.950060 0.797907 -1.079793 
3.964613 0.743390 -1.080828 
3.987398 0.747662 -1.087040 
4.033494 0.698881 -1.096875 
4.208615 0.729224 -1.144498 
4.409299 0.699942 -1.196262 
4.527593 0.718720 -1.228355 
4.755035 0.687753 -1.287366 
5.894561 0.852570 -1.595878 
5.917384 0.771685 -1.598984 
5.909722 0.770686 -1.596913 
5.923503 0.690612 -1.597949 
5.933097 0.691730 -1.600537 
5.961608 0.608712 -1.605713 
5.975061 0.610086 -1.609337 
6.025055 0.533482 -1.620725 
3.945669 0.969880 -0.938046 
3.955131 0.972205 -0.940295 
3.974016 0.918204 -0.941645 
3.977813 0.919082 -0.942545 
3.984393 0.862912 -0.941195 
3.971061 0.860025 -0.938046 
3.997963 0.807583 -0.941645 
3.997963 0.807583 -0.941645 
4.028003 0.755276 -0.946144 
4.018426 0.753480 -0.943895 
4.068756 0.704990 -0.953343 
4.110998 0.712310 -0.963240 
4.320820 0.685897 -1.010030 
4.721145 0.749445 -1.103610 
4.675098 0.676191 -1.090563 
5.428049 0.707871 -1.263775 
6.521135 0.760289 -1.515720 
6.466937 0.753970 -1.503123 
6.457678 0.659363 -1.498624 
6.465433 0.660155 -1.500424 
6.842538 0.605866 -1.585905 
6.929890 0.613600 -1.606151 
3.990308 0.980852 -0.798726 
3.992215 0.981321 -0.799108 
3.997876 0.923717 -0.797582 
4.022743 0.929463 -0.802543 
4.039013 0.874741 -0.803306 
4.044769 0.875988 -0.804451 
4.058530 0.819818 -0.804832 
4.070076 0.822150 -0.807122 
4.098526 0.768499 -0.810557 
4.137118 0.775735 -0.818189 
4.201584 0.728005 -0.828874 
4.213191 0.730016 -0.831164 
4.416987 0.701163 -0.869326 
4.513937 0.716553 -0.888407 
4.523387 0.654248 -0.888407 
6.288981 0.642138 -1.228810 
6.410073 0.654503 -1.252470 
3.988091 0.980307 -0.650455 
4.005355 0.984551 -0.653270 
4.016787 0.928087 -0.652957 
4.135386 0.895613 -0.670165 
4.139246 0.896449 -0.670791 
4.135870 0.835440 -0.668288 
4.137805 0.835831 -0.668601 
4.139365 0.776157 -0.667037 
4.168488 0.781617 -0.671730 
4.287865 0.742955 -0.689250 
4.365720 0.756445 -0.701765 
4.493034 0.713235 -0.720537 
4.493034 0.713235 -0.720537 
4.697945 0.679495 -0.751824 
5.370231 0.626107 -0.856322 
4.213928 0.912623 -0.529400 
4.216531 0.851734 -0.528182 
4.154265 0.839156 -0.520382 
4.192892 0.786193 -0.523794 
4.216305 0.790583 -0.526719 
4.338294 0.751693 -0.540612 
4.420444 0.765927 -0.550849 
4.544541 0.721411 -0.564986 
4.624923 0.734171 -0.574980 
5.369039 0.625968 -0.663700 
4.171738 0.963889 -0.374595 
4.204740 0.971514 -0.377559 
4.209946 0.911761 -0.376861 
4.206051 0.910917 -0.376513 
4.212501 0.850919 -0.375990 
4.202736 0.848947 -0.375118 
4.366924 0.818825 -0.388715 
4.382590 0.821763 -0.390109 
4.554481 0.789152 -0.404403 
4.668343 0.808880 -0.414513 
6.100840 0.795609 -0.538274 
6.190264 0.721713 -0.545246 
6.084998 0.621311 -0.535136 
4.100153 1.007853 -0.221276 
4.150580 1.020249 -0.223998 
4.176097 0.964896 -0.224626 
4.168313 0.963097 -0.224207 
4.202667 0.910185 -0.225359 
5.227285 0.829791 -0.277381 
4.373135 1.074954 -0.078606 
