1.2461483029506681 3.971156539432446 0.35128708892627
0.5701002967780346 5.489193705313128 0.2033317883993924
0.1666666666666667 5.601010101010101 -0.1686845566232773
0.3787878787878789 5.5 -0.265868067130688
-0.0353535353535353 5.601010101010101 -0.1039169689992006
0.1310933507050468 5.410861824074262 0.005957206957655
1.2373737373737375 6.712121212121212 0.3427680252411762
0.8737373737373737 6.5 0.1825865142997192
0.4898989898989899 5.954545454545455 -0.1701912945643446
0.186868686868687 5.6313131313131315 -0.1664080523350459
-0.062552208836105 5.800880564475154 -0.2016796962000491
0.3989898989898991 5.732323232323233 -0.2052364758381964
0.5909090909090909 6.722222222222222 -0.1583354201572551
-0.5 5.994949494949495 0.1588409021944834
-0.297979797979798 6.2272727272727275 0.1611816646253059
0.7910381073768156 6.319473336864751 0.1707956388667604
1.0353535353535355 6.5 0.306451486639528
0.6689864350926944 6.251644762558004 0.2349065547773872
-0.297979797979798 6.3686868686868685 0.2020302255282881
1.0454545454545454 6.702020202020202 0.201321926626849
1.1172626020941943 6.373457643333097 0.3897878008992954
0.7121212121212122 6.5 0.0587215419599103
0.9747474747474748 6.712121212121212 0.1414874451889868
0.4090909090909092 6.41919191919192 -0.0100675594049154
0.2070707070707072 6.287878787878788 0.0167692216663922
-0.1716035200939231 5.920337601592086 -0.1040215304562277
-0.398989898989899 5.904040404040404 0.1001973192305279
-0.398989898989899 5.732323232323233 0.0505954952769067
-0.196969696969697 5.732323232323233 -0.01417209234717
-0.196969696969697 6.136363636363637 0.1025380816613505
0.2070707070707072 6.085858585858586 -0.0415858653378681
0.186868686868687 5.732323232323233 -0.1372305088329158
0.2575757575757577 5.934343434343434 -0.1015440774970824
0.2070707070707072 6.48989898989899 0.0751243086706525
0.3080808080808082 6.207070707070708 -0.0389566069473502
0.3888888888888889 6.045454545454546 -0.1115477116003891
0.287878787878788 5.833333333333333 -0.140436759142824
0.8131313131313131 6.671717171717171 0.0401966970059613
0.1060606060606061 5.873737373737374 -0.0704749128803029
-0.0151515151515151 5.6313131313131315 -0.1016404647109692
0.1060606060606061 6.1767676767676765 0.0170577176260874
0.0050505050505051 6.358585858585859 0.10196108974196
0.702020202020202 6.954545454545455 -0.2029800405751412
1.1565656565656566 6.853535353535354 0.2018257545225297
0.7323232323232324 7.41919191919192 -0.4393589360644364
0.5 7.0353535353535355 -0.4029597043134691
0.5202020202020202 6.954545454545455 -0.3423281344574262
1.0050505050505052 7.3686868686868685 -0.2021190150450297
0.5 6.752525252525253 -0.2449401352159852
0.601010101010101 6.752525252525253 -0.1675245275036047
0.803030303030303 7.348484848484849 -0.345663118391399
0.702020202020202 7.156565656565657 -0.3158511613590583
1.1565656565656566 7.46969696969697 -0.1424311638684175
0.893939393939394 6.853535353535354 0.0005451744703403
0.7323232323232324 6.813131313131313 -0.1007455737126851
0.4074972653388164 6.922713071639835 0.0369557282849442
0.8535353535353536 7.055555555555555 -0.143292189398529
1.0050505050505052 7.267676767676768 -0.1456834546530712
1.196969696969697 7.196969696969697 0.0409110922748229
1.1565656565656566 6.954545454545455 0.1453901941305712
2.3800351197016996 0.2391362004839589 0.9636748869792111
2.297979797979798 0.8838383838383839 -0.3477311620968623
1.702020202020202 0.9545454545454546 0.2453832921742345
1.5404040404040404 1.0252525252525253 0.4388621154158784
2.45959595959596 0.8434343434343434 -0.5220197597280135
1.8516824405330596 0.9441068614309467 0.5194398873152508
1.803030303030303 1.106060606060606 0.2483959013826392
2.1262626262626263 0.8434343434343434 -0.2153226475426193
1.974747474747475 0.6414141414141414 -0.2038497066798159
2.0656565656565657 0.601010101010101 -0.3130813411201259
2.388888888888889 1.0858585858585859 -0.3034409916532305
2.367345468098559 0.8901665607620353 0.0819119091424501
2.0757575757575757 0.8838383838383839 -0.1432664206399329
1.803030303030303 0.8737373737373737 0.1012708383688617
1.9242424242424243 1.0353535353535355 0.0920924856786189
1.904040404040404 0.702020202020202 -0.1004122922679892
2.1565656565656566 1.0757575757575757 -0.0960791401820594
1.6818181818181819 1.2272727272727273 0.4366830264374808
1.2789464481367254 1.5557425345259648 0.7303156260119135
2.44949494949495 1.3282828282828283 -0.2056822980757239
1.904040404040404 1.2272727272727273 0.2322182849805513
2.025252525252525 1.4090909090909092 0.2358334160306371
2.297979797979798 1.1262626262626263 -0.1942093572129205
2.419191919191919 1.1262626262626263 -0.3057355798257911
1.5 1.287878787878788 0.6423528115777721
1.5 1.4494949494949496 0.7447006815004
1.9242424242424243 1.3686868686868687 0.303184967394039
1.702020202020202 1.4696969696969697 0.5716171275526107
2.0858585858585856 1.1262626262626263 0.000961532359603
2.388888888888889 1.4090909090909092 -0.0987452518079747
1.9343434343434343 1.1262626262626263 0.1403693106256913
2.2676767676767677 1.2272727272727273 -0.1023603828580605
2.274578946644004 1.6640059649087688 0.0994003164107209
2.1262626262626263 1.3282828282828283 0.0917209622252644
1.7015866503631463 3.94630606972425 -0.1872147495618444
1.7230307729471654 3.876624100182817 0.2054142286597728
2.259388914832505 4.3412814946833995 0.3955581422316019
2.186013738992788 4.23944196435852 0.1847408090863283
2.2469048492938968 3.8240126118578317 0.1917248270999646
2.260614997683147 3.978414560793106 0.3518311311999796
1.6990173939430442 4.0366474588628956 0.194202984578287
2.202268457131293 3.774121633086144 -0.1531030824677957
2.0033161587024746 4.303187348814894 -0.1544921048891674
1.8703903907283417 3.72589251273562 -0.1919371773019093
2.2172502988540734 4.211508564927664 -0.1732297475863626
2.332270714521442 3.5181771165166857 -0.1551885735665266
1.8130068570276858 4.238677878889686 -0.2266581641623289
1.7618463209213564 4.187660306221776 0.1223783928236085
2.055668015717469 4.298051400627515 0.1149519594710816
2.3020400636815253 3.973441285399999 0.1383692411685263
2.4678807946377126 4.0838487105945624 0.0774361605924945
2.2537656539448223 4.165941430233383 -0.1011352118761826
2.2335253365316294 3.806610541684058 0.0173645346596426
2.2045363458494474 3.7761731727059966 -0.102762247321937
1.7508117700451806 3.8272609151294117 -0.1014588938842315
2.31658144554297 4.514708571048931 0.2272704354759885
1.3585858585858586 6.702020202020202 0.4413103105352287
1.2575757575757578 6.934343434343434 0.2340929139213435
1.3585858585858586 6.752525252525253 0.4130925303392494
1.3203533493028126 7.517481108074655 -0.1701843969318162
1.4595959595959598 6.954545454545455 0.3776370172677128
1.2575757575757578 6.752525252525253 0.3356769226268689
2.8737373737373737 0.186868686868687 0.2178461434662542
3.0353535353535355 0.186868686868687 -0.3491348963273638
3.3989898989898992 0.095959595959596 -1.5153303361412434
3.409090909090909 -0.0757575757575758 -1.3439108405427949
3.297979797979798 0.1161616161616162 -1.1853031639861786
3.2474747474747474 0.0858585858585859 -0.9716176224767525
3.186868686868687 0.0858585858585859 -0.7589997325541459
2.9141414141414144 0.3787878787878789 -0.1550909047836469
2.691919191919192 0.0858585858585859 0.9773797018138095
3.1565656565656566 -0.005050505050505 -0.5431788878710808
2.7323232323232323 0.095959595959596 0.8234664530074313
2.8434343434343434 0.0858585858585859 0.4458349770072925
2.782828282828283 0.0858585858585859 0.6584528669298993
2.5923901858593785 0.8211781137174698 -0.1986794654610371
3.015151515151515 0.0858585858585859 -0.1565823777734268
2.948420284751251 0.7740697657873689 -0.1905126301416355
3.6671959949720536 -0.1297178042620219 -0.958601333088902
3.1262626262626263 0.3888888888888889 -0.911421508370744
3.3181818181818183 -0.106060606060606 -0.9884800390849638
3.3484848484848486 -0.106060606060606 -1.0947889840462672
3.3282828282828283 0.1161616161616162 -1.2916121089474824
3.4292929292929295 -0.0858585858585858 -1.4026154816590235
3.308080808080808 0.3080808080808082 -1.4519312672747766
2.808992906255397 1.0287319967319948 -0.2295446851988369
3.188232889171137 0.9984572421406962 -0.2335936628688245
2.904040404040404 0.4797979797979799 -0.2413344783762808
2.890612852288291 1.0085436957565632 -0.2792157896293045
2.9612645519269614 0.8288558532008138 -0.24332950104531
2.813131313131313 0.3888888888888889 0.1871042562293911
2.9343434343434343 -0.005050505050505 0.236420041845144
2.863874450328637 0.7834365472310401 0.1567485427410912
2.8737373737373737 0.4696969696969697 -0.1228575445570037
2.72202634620154 0.8881047495150618 0.0144948512530086
3.0353535353535355 -0.0151515151515151 -0.1057751191678937
3.2679776014034534 0.8946299921969398 -0.0841734316850326
2.5056198927660023 0.8209568557584213 -0.0395398657668764
3.082210038532541 0.7355256507056778 0.1153032008654701
2.9343434343434343 0.2777777777777778 -0.104283646178114
2.9343434343434343 0.0858585858585859 0.1269081421233825
3.015151515151515 -0.106060606060606 0.0746094105280697
2.9037973155493155 0.7386386300246371 -0.1115135767029445
2.7378781083817403 0.9049559078030891 0.1107191694013753
3.2902995670822914 1.8716185834570447 -0.2318479394359655
3.300765566595953 2.1014677323682607 0.1801702490664367
2.8808416939334314 1.7229860423569074 -0.4317048640648675
2.918397280246453 1.2171374971123896 -0.1902427488147474
3.113078899835993 1.2221894091363918 -0.1668682980062497
2.5 1.287878787878788 -0.2777385249784103
3.504990074002486 1.4497559862012916 -0.1992021156573536
2.9768757235660868 1.6834231616160942 -0.2122508216637594
3.197177040728097 1.1385036250279237 -0.1787119482962312
2.998159814059995 1.5741687027241555 0.1404411071753344
3.148978048619196 1.2286271178494808 0.1246402102591942
2.8345979752821115 1.2490495307601308 0.0248294471823612
3.3019608901701734 1.9021468060338447 0.0806734038208645
2.843375369885014 1.723912419687003 0.1227415399791976
2.845974140942123 1.936899271315105 0.101510533142255
3.116372466795893 1.2483811534269653 0.121508236733684
2.982882621964833 2.316958391797635 0.2472727625847879
2.85355022571011 2.281616921317207 -0.2475483665394127
2.8024737087308917 3.747613325129082 0.2441088496436943
3.237598129136512 3.7849121146466946 -0.2340062887921315
3.1546848673411696 4.206975157428686 0.6550491183289839
3.0822883954038574 3.6902512479818754 -0.1960329853419702
2.921512193838808 3.8020972261817683 -0.2113626182631471
2.7647169885995426 3.782382045912431 -0.2391280720534302
2.823181505450625 4.022227294950894 -0.241332068620104
2.8116044210659275 4.259273552899294 -0.1827230728106924
3.002706274205564 4.04382246878989 -0.2967697210112302
2.96066114035548 4.3180693690325995 -0.2280682159343199
3.2172306986190793 4.003650299737311 -0.2068755637800041
3.089440540773048 4.307759742430929 -0.2352511372918994
3.114424491342844 3.91085614688701 0.2626031401813413
3.3002520726519475 3.8879091338996044 0.2214695123758034
2.9529463841736585 4.200032523727751 0.2185702328515335
3.0338760865176333 3.6813025256498304 0.2295025073507762
3.132676251373406 4.291740778288583 0.2294347099636428
2.903317389495953 3.951230112914945 0.2797748575905879
2.8003187176225532 4.10788446442112 0.1961844229409321
2.9287623416778352 4.312475383721185 0.2264664168677291
3.2980990081002526 3.8823027155599044 0.0261721039331261
3.490490471592835 3.57641266070494 0.0419703830324316
2.6917256073125264 3.912349739258251 0.1094608561911472
3.0738529621094948 3.688132384844818 -0.0276579522390295
2.918385032954885 3.6900731270942257 -0.113405942141278
2.850940491121664 4.283719812857467 -0.0548109978459153
2.7477470436140132 4.1976970292883955 0.1293043071467632
2.7926821875289405 3.755592565523997 -0.1012551217824815
4.793430197798266 6.748798705112354 -0.164195453423091
4.949180416311075 6.230301631683751 0.1854144772057623
4.941764255345049 5.929925405680566 0.2858288811079982
4.990706820481416 5.775397598460326 -0.1986640330735445
4.552053767097064 5.921754557735525 -0.2591510344516159
4.494175263081776 5.704111356488763 -0.2330846219046467
4.961796763090922 6.141373643068103 -0.261828198892559
4.822024527945422 5.816528922791194 -0.157044882676229
4.7601851467977525 6.059014912296372 -0.1703117033859852
4.885661163490016 6.2426631608547725 0.1343176117622481
4.710768083077076 6.072835600370658 -0.0322470704365001
4.981574596610672 6.4676623852087785 -0.0364484185267209
4.903988869092867 6.689266936942934 0.1003785427081934
4.750335775286404 5.900016152443134 -0.1329323328836301
4.891158076860434 5.745785044527117 0.1163107569453522
4.485749560546755 7.228320087896173 0.1688795508706278
4.704504960666851 7.336944013151285 -0.1920318516055097
4.96926627856677 7.323772469647681 -0.2103985005573925
4.678159425252235 7.046816857871089 0.1899457653952668
4.616062602488748 7.38157118371695 0.2082840287031313
4.771663342561713 6.7684065100120385 0.0119703018542194
4.416726038676845 7.404241971158684 -0.1027943554041766
4.67483889889141 7.006590300504708 -0.1437743229756701
4.857038539268519 7.292121882919467 -0.1382049436456263
5.008087303810815 6.239212851293676 0.1808640574935251
5.047458189323646 5.873974911557447 -0.2680772227347328
5.302589206947419 6.48281758682423 -0.2260812873258065
5.105308141146693 6.173727385378476 -0.2207464404645893
5.147096458222171 6.709938272580841 -0.1885516029408192
5.225571663347761 5.897684580953325 0.1692600948830755
5.077015662605226 6.024831197903432 0.288880597001873
5.011675307529251 6.674981752929177 0.1696729570493047
5.019634134523015 5.74177318051205 0.1514378105318155
5.178611669035448 6.218525331147192 0.101708167476275
5.48429373634768 6.682677797365753 0.032178802253302
5.000307624104847 6.289442037866241 -0.0788873379145701
5.000446176070272 6.674772426350705 -0.0064636671244244
5.0237978217617965 6.026307264435514 0.0566459697998329
5.440538392687717 6.341993315842444 0.0010781878831931
5.2048465491524265 6.747391478696311 -0.0190052752306307
5.184078349370945 5.816074485609016 -0.1492868595988279
5.262589297384679 6.061225009359131 0.1315232265723248
5.324968438481006 6.987012016087567 -0.2340357285550856
5.1410426018652275 7.293053166155871 0.2476827592200573
5.3690063193361866 7.081292639249778 0.4639506032321545
5.3191977100836185 6.937662245691173 0.217988047200649
5.210187484862844 6.751817819048335 0.174149256615577
5.012729242291801 7.32497867641673 -0.2454831738611039
5.275686258096449 7.172540606326949 -0.2460028395207778
5.3225265900218615 6.958169718339899 -0.0816916684398057
5.069944862501843 7.3176175214696 -0.1126060462521973
5.2375932846899325 6.777913069260836 -0.1197258272015734
5.2399717107517 7.219514809919048 0.093456769125118
7.207070707070708 0.6919191919191919 -1.3491019980122205
6.984848484848484 0.9848484848484849 -0.3592637669630528
7.186868686868687 1.0454545454545454 2.712751909189385
7.186868686868687 0.9848484848484849 1.9763942448944094
7.085858585858586 1.0454545454545454 1.5449229032606526
6.984848484848484 1.0757575757575757 0.745272729479409
6.984848484848484 1.0454545454545454 0.3770938973319222
7.045454545454546 0.8838383838383839 -0.8858291372307712
6.782828282828283 1.0757575757575757 -1.590385282378052
6.914141414141414 0.8838383838383839 -2.404006844938121
6.792929292929293 0.9848484848484849 -2.5781388782276413
6.924242424242424 0.7929292929292929 -3.3917604407877104
6.702020202020202 0.9848484848484849 -3.6291849835634986
6.661616161616162 0.8838383838383839 -5.323579359759948
7.146464646464646 0.5 -4.381598671836879
7.165721629981064 1.0844641379767794 4.231154548275889
7.186868686868687 1.106060606060606 3.449109573484358
7.287878787878788 0.7424242424242424 0.198792593643242
7.2272727272727275 0.6919191919191919 -1.1155361968264754
7.065656565656566 0.7929292929292929 -1.7567998324874867
7.0353535353535355 0.7929292929292929 -2.107148534266107
6.974747474747475 0.7929292929292929 -2.8078459378233447
6.954545454545455 0.7929292929292929 -3.041411739009091
7.045454545454546 0.6919191919191919 -3.2176284074981902
6.984848484848484 0.6919191919191919 -3.9183258110554293
6.863636363636363 0.7929292929292929 -4.092457844344949
6.742424242424242 0.7929292929292929 -5.493852651459426
7.388888888888889 0.8333333333333334 2.4711580960144346
7.388888888888889 0.8131313131313131 2.225705541249443
7.186868686868687 0.9343434343434344 1.3627628579819309
7.186868686868687 0.9141414141414141 1.1173103032169398
7.287878787878788 0.9646464646464648 2.8987706960581487
7.287878787878788 0.7121212121212122 -0.169386238504245
7.277777777777778 0.6919191919191919 -0.5316216938621106
6.924242424242424 0.6919191919191919 -4.6190232146126675
7.388888888888889 0.8838383838383839 3.0847894829269134
7.48989898989899 0.9343434343434344 4.866249875768122
7.287878787878788 0.994949494949495 3.2669495282056356
7.186868686868687 0.9646464646464648 1.7309416901294186
6.893939393939394 0.6919191919191919 -4.969371916391287
6.974747474747475 0.601010101010101 -5.139645208090764
7.186868686868687 1.0858585858585859 3.2036570187193667
7.085858585858586 0.9040404040404041 -0.1732449800942879
7.48989898989899 0.5202020202020202 -0.1655274969142036
6.792869162101436 0.1226155140218912 -0.1790593524856664
6.823558241132713 0.7162518990794011 1.0087693875840191
7.48989898989899 0.6414141414141414 1.3071878316757453
7.186868686868687 1.0050505050505052 2.221846799659401
7.138936545200464 0.8875052315826499 2.4715632431428283
6.944444444444445 0.601010101010101 -5.4899939098693835
7.055555555555555 0.601010101010101 -4.20538200334778
7.468206174792999 0.3766816450648474 -3.821722473997191
6.58080808080808 1.0757575757575757 -3.9260432942355137
7.156565656565657 0.601010101010101 -3.0375529974190494
7.025252525252525 0.8838383838383839 -1.1193949384165174
7.085858585858586 0.9343434343434344 0.194933852053199
6.884894862608617 0.2063631700992141 0.1848379002605081
7.48989898989899 0.5505050505050505 0.2026513352332834
7.118084076446195 0.1691090080752095 0.2178492466768429
6.843434343434343 0.7929292929292929 -4.326023645530694
7.41144857007065 0.283456628100016 -4.325286087063651
6.9646464646464645 0.601010101010101 -5.256428108683637
6.904040404040404 0.7929292929292929 -3.6253262419734567
7.095959595959596 0.601010101010101 -3.738250400976287
7.237373737373737 0.5 -3.330552566501021
6.994949494949495 0.7929292929292929 -2.5742801366375994
7.055555555555555 0.7929292929292929 -1.8735827330803605
6.762626262626263 1.0757575757575757 -1.8239510835637984
7.186868686868687 0.6919191919191919 -1.582667799197967
7.287878787878788 0.7525252525252526 0.3215188710257378
7.48989898989899 0.5707070707070707 0.448103889998275
7.300250479290123 0.4732888440636885 0.2469284045043398
7.084387993718284 0.1276682297193064 0.3096665262455627
7.186868686868687 0.893939393939394 0.8718577484519483
7.287878787878788 0.8434343434343434 1.4260553674682
7.388888888888889 0.8434343434343434 2.593884373396931
7.186868686868687 0.803030303030303 -0.2326787479905139
7.48989898989899 0.5 -0.4109800516791953
7.193198806081944 0.0929389137654579 -0.2098489448069926
6.904040404040404 0.9848484848484849 -1.2935269717060371
7.409090909090909 0.5 -1.345243256422179
7.0353535353535355 0.9747474747474748 0.1019244586188172
7.48989898989899 0.5303030303030303 -0.0428012195317083
7.287878787878788 0.7222222222222222 -0.0466599611217497
6.883838383838384 1.106060606060606 -0.0543774443018346
7.156462261444171 0.2352645367432718 0.1008472037031756
6.660691122597134 1.5901323910950156 3.0853274804338096
6.883838383838384 1.1262626262626263 0.1910751104631573
7.0353535353535355 1.1262626262626263 1.9428186193562529
7.166666666666667 1.1262626262626263 3.4609963270636035
6.792929292929293 1.1262626262626263 -0.8599709948727007
6.8232323232323235 1.1262626262626263 -0.509622293094081
6.843434343434343 1.1262626262626263 -0.2760564919083346
6.914141414141414 1.1262626262626263 0.5414238122417769
6.934343434343434 1.1262626262626263 0.7749896134275225
6.954545454545455 1.1262626262626263 1.008555414613269
6.974747474747475 1.1262626262626263 1.2421212157990154
6.994949494949495 1.1262626262626263 1.475687016984761
7.015151515151516 1.1262626262626263 1.709252818170508
7.055555555555555 1.1262626262626263 2.1763844205419995
7.075757575757576 1.1262626262626263 2.4099502217277458
7.095959595959596 1.1262626262626263 2.6435160229134924
7.116161616161616 1.1262626262626263 2.8770818240992386
7.186868686868687 1.1262626262626263 3.6945621282493506
7.2272727272727275 1.1262626262626263 4.161693730620842
7.277777777777778 1.1262626262626263 4.745608233585206
7.297979797979798 1.1262626262626263 4.979174034770954
7.146464646464646 1.2272727272727273 4.454693299702815
6.883838383838384 1.3181818181818183 2.5228743807305762
6.742424242424242 1.4191919191919191 2.1151765462553107
6.540404040404041 1.4191919191919191 -0.2204814656021514
6.732323232323233 1.4191919191919191 1.9983936456624376
7.411036526133912 1.4058385451842699 0.2038708279534269
7.126262626262626 1.1262626262626263 2.9938647246921106
6.833333333333333 1.4191919191919191 3.1662226515911684
6.58080808080808 1.4090909090909092 0.1239238593868461
6.863636363636363 1.1262626262626263 -0.0424906907225889
8.12123035589168 0.2895716033800384 -4.1989761778362436
7.7347943288855205 0.8188439281092375 -0.23327636885701
8.28970609579148 0.8613567584213727 0.1566560438485182
7.5 0.7121212121212122 2.2830546739460886
7.5 0.5606060606060606 0.4421605132086526
7.5 0.9242424242424243 4.860306498978498
7.7269286214958015 0.2813410744102132 -3.9586280116438655
7.5 0.6313131313131313 1.3012444548861228
7.686074028711357 1.06783844724531 0.1975575242487638
8.05932495556815 0.3170247229972656 0.1817796954130522
7.690969432201944 0.9125261265257812 0.2214545064163151
8.231790781276574 0.1868727048988901 0.2290358970720572
8.30527531637403 1.099792542741976 0.2242940296728713
7.5 0.5 -0.2941971510863223
7.9438580618613255 0.6837727823918289 -0.1616000237818841
8.316127140283943 0.943297252711451 -0.2048205982796745
8.19674141015873 0.7461410078352021 -0.2136979447504809
7.634014461057859 0.1223032577575701 -4.1538365034998845
7.936302101668989 0.0318972044996918 -4.097911904703243
7.717551778190654 0.8471125499888533 -0.128350179578867
7.5 0.5202020202020202 -0.0487445963213306
8.154397271450568 0.7183742679675877 0.1015781671797971
8.315672982430911 0.9408211309896343 -0.1224448803596689
7.894279680173307 0.6967265518547427 0.0377676430280352
8.599360148874002 0.9741134836259226 -0.0068981860482467
7.739597382555401 1.1879948063170218 -0.1629836863091063
8.213648680310094 1.2398036942499586 0.2182872916110636
7.573575365426997 1.251041799363093 5.110628359949555
7.961543557408275 1.318861525426574 0.1691094414365214
7.547038441291425 1.3941555116524897 0.2575532346388947
7.718999500928683 1.1555322792729632 0.1990545777962032
8.401147075651547 1.471106899769588 0.1752091237675764
8.148647536048495 1.4189523108674258 0.1701578509374393
7.903830809368914 1.4280606636964792 -0.2935340340891699
8.24583926443488 1.2066751713106587 -0.1818598306587557
8.103749455187806 1.3039533203016636 0.1016355634722188
8.279557417020728 1.1581114194575166 -0.0871231542329537
8.961461853302787 0.7891782092370134 0.2732676495831772
8.856586963822167 1.2174273341390043 0.0960940152836578
