\relax 
\providecommand\hyper@newdestlabel[2]{}
\providecommand\HyField@AuxAddToFields[1]{}
\providecommand\HyField@AuxAddToCoFields[2]{}
\citation{JRParker}
\@writefile{toc}{\contentsline {section}{\numberline {1}Abstract}{3}{section.1}\protected@file@percent }
\@writefile{toc}{\contentsline {section}{\numberline {2}Introduction}{3}{section.2}\protected@file@percent }
\@writefile{toc}{\contentsline {subsection}{\numberline {2.1}Example of morphology on an Image}{3}{subsection.2.1}\protected@file@percent }
\@writefile{lof}{\contentsline {figure}{\numberline {1}{\ignorespaces Brick wall used to demonstrate morphology }}{4}{figure.1}\protected@file@percent }
\newlabel{fig:your_image_label}{{1}{4}{Brick wall used to demonstrate morphology}{figure.1}{}}
\@writefile{lof}{\contentsline {figure}{\numberline {2}{\ignorespaces Low threshold of brick wall, and a fixed version of it using morphological operators }}{4}{figure.2}\protected@file@percent }
\newlabel{fig:your_image_label}{{2}{4}{Low threshold of brick wall, and a fixed version of it using morphological operators}{figure.2}{}}
\citation{JRParker}
\@writefile{toc}{\contentsline {section}{\numberline {3}Method}{5}{section.3}\protected@file@percent }
\@writefile{toc}{\contentsline {subsection}{\numberline {3.1}Morphological Operations in 2 Dimension}{5}{subsection.3.1}\protected@file@percent }
\@writefile{toc}{\contentsline {subsubsection}{\numberline {3.1.1}Dilation}{5}{subsubsection.3.1.1}\protected@file@percent }
\citation{JRParker}
\citation{JRParker}
\@writefile{lof}{\contentsline {figure}{\numberline {3}{\ignorespaces  (a) The two sets. (b) The set obtained by adding (0,0) to all elements of A. (c) The set obtained by adding (0,1) to all elements of A. (d) The union of the two sets is the result of the dilation. Figure from \cite  {JRParker} }}{6}{figure.3}\protected@file@percent }
\newlabel{fig:your_image_label}{{3}{6}{(a) The two sets. (b) The set obtained by adding (0,0) to all elements of A. (c) The set obtained by adding (0,1) to all elements of A. (d) The union of the two sets is the result of the dilation. Figure from \cite {JRParker}}{figure.3}{}}
\@writefile{toc}{\contentsline {subsubsection}{\numberline {3.1.2}Erosion}{7}{subsubsection.3.1.2}\protected@file@percent }
\newlabel{fig:your_image_label}{{3.1.2}{7}{Erosion}{subsubsection.3.1.2}{}}
\@writefile{lof}{\contentsline {figure}{\numberline {4}{\ignorespaces  Visual representation of the example}}{7}{figure.4}\protected@file@percent }
\newlabel{fig:your_image_label}{{4}{7}{Visual representation of the example}{figure.4}{}}
\@writefile{toc}{\contentsline {subsection}{\numberline {3.2}Data Structure}{8}{subsection.3.2}\protected@file@percent }
\@writefile{toc}{\contentsline {subsubsection}{\numberline {3.2.1}Array of points}{8}{subsubsection.3.2.1}\protected@file@percent }
\@writefile{lof}{\contentsline {figure}{\numberline {5}{\ignorespaces Points stored in an array}}{8}{figure.5}\protected@file@percent }
\newlabel{fig:your_image_label}{{5}{8}{Points stored in an array}{figure.5}{}}
\@writefile{lof}{\contentsline {figure}{\numberline {6}{\ignorespaces Kernel and points to fit on the middle point}}{8}{figure.6}\protected@file@percent }
\newlabel{fig:your_image_label}{{6}{8}{Kernel and points to fit on the middle point}{figure.6}{}}
\@writefile{lof}{\contentsline {figure}{\numberline {7}{\ignorespaces Kernel fit within threshold (rectangular area) of points}}{9}{figure.7}\protected@file@percent }
\newlabel{fig:your_image_label}{{7}{9}{Kernel fit within threshold (rectangular area) of points}{figure.7}{}}
\@writefile{toc}{\contentsline {subsubsection}{\numberline {3.2.2}Tree of Z, X, Y axis}{9}{subsubsection.3.2.2}\protected@file@percent }
\@writefile{lof}{\contentsline {figure}{\numberline {8}{\ignorespaces Tree structure of 3D points branching first from z axis then x then y}}{9}{figure.8}\protected@file@percent }
\newlabel{fig:your_image_label}{{8}{9}{Tree structure of 3D points branching first from z axis then x then y}{figure.8}{}}
\@writefile{lof}{\contentsline {figure}{\numberline {9}{\ignorespaces Representation of point tree in 3D}}{10}{figure.9}\protected@file@percent }
\newlabel{fig:your_image_label}{{9}{10}{Representation of point tree in 3D}{figure.9}{}}
\@writefile{toc}{\contentsline {subsubsection}{\numberline {3.2.3}Matrix hashmap of Trees of Z, X, Y axis}{10}{subsubsection.3.2.3}\protected@file@percent }
\newlabel{sec:MatrixHashmapOfTrees}{{3.2.3}{10}{Matrix hashmap of Trees of Z, X, Y axis}{subsubsection.3.2.3}{}}
\@writefile{lof}{\contentsline {figure}{\numberline {10}{\ignorespaces Representation of a matrix, holding Trees of x,y,z located in each cell based on their x,y,z values.}}{11}{figure.10}\protected@file@percent }
\newlabel{fig:your_image_label}{{10}{11}{Representation of a matrix, holding Trees of x,y,z located in each cell based on their x,y,z values}{figure.10}{}}
\@writefile{toc}{\contentsline {subsection}{\numberline {3.3}Kernels}{11}{subsection.3.3}\protected@file@percent }
\@writefile{toc}{\contentsline {subsubsection}{\numberline {3.3.1}Planes}{11}{subsubsection.3.3.1}\protected@file@percent }
\newlabel{sec:Planes}{{3.3.1}{11}{Planes}{subsubsection.3.3.1}{}}
\@writefile{lof}{\contentsline {figure}{\numberline {11}{\ignorespaces A set of kernels containing seven points, spaced from each other along the X axis.}}{12}{figure.11}\protected@file@percent }
\newlabel{fig:your_image_label}{{11}{12}{A set of kernels containing seven points, spaced from each other along the X axis}{figure.11}{}}
\@writefile{lof}{\contentsline {figure}{\numberline {12}{\ignorespaces A representation of Lidar mapping out points and a 2D slice of points from a horizontal (Z) axis slice.}}{12}{figure.12}\protected@file@percent }
\newlabel{fig:your_image_label}{{12}{12}{A representation of Lidar mapping out points and a 2D slice of points from a horizontal (Z) axis slice}{figure.12}{}}
\@writefile{lof}{\contentsline {figure}{\numberline {13}{\ignorespaces Lidar emitting lasers on a plane with three points.}}{13}{figure.13}\protected@file@percent }
\newlabel{fig:your_image_label}{{13}{13}{Lidar emitting lasers on a plane with three points}{figure.13}{}}
\@writefile{lof}{\contentsline {figure}{\numberline {14}{\ignorespaces Lidar emitting lasers on a plane with five points.}}{14}{figure.14}\protected@file@percent }
\newlabel{fig:your_image_label}{{14}{14}{Lidar emitting lasers on a plane with five points}{figure.14}{}}
\@writefile{lof}{\contentsline {figure}{\numberline {15}{\ignorespaces A kernel set, including 84 kernels}}{14}{figure.15}\protected@file@percent }
\newlabel{fig:your_image_label}{{15}{14}{A kernel set, including 84 kernels}{figure.15}{}}
\@writefile{lof}{\contentsline {figure}{\numberline {16}{\ignorespaces A kernel set, including 84 kernels (yellow) shown with a point cloud (green)}}{15}{figure.16}\protected@file@percent }
\newlabel{fig:your_image_label}{{16}{15}{A kernel set, including 84 kernels (yellow) shown with a point cloud (green)}{figure.16}{}}
\@writefile{toc}{\contentsline {subsubsection}{\numberline {3.3.2}Cylinders}{15}{subsubsection.3.3.2}\protected@file@percent }
\@writefile{lof}{\contentsline {figure}{\numberline {17}{\ignorespaces $\sqrt  { 1-x^2}$ function that will be used to generate cylinder kernels }}{15}{figure.17}\protected@file@percent }
\newlabel{fig:your_image_label}{{17}{15}{$\sqrt { 1-x^2}$ function that will be used to generate cylinder kernels}{figure.17}{}}
\@writefile{lof}{\contentsline {figure}{\numberline {18}{\ignorespaces Example of scaling by parameter $C$\\ f: $\sqrt  { 1-x^2 + 1}$, g: $\sqrt  { 1-x^2}$, p: $\sqrt  { 1-x^2 - 0.5}$, p: $\sqrt  { 1-x^2 - 0.9}$ }}{16}{figure.18}\protected@file@percent }
\newlabel{fig:your_image_label}{{18}{16}{Example of scaling by parameter $C$\\ f: $\sqrt { 1-x^2 + 1}$, g: $\sqrt { 1-x^2}$, p: $\sqrt { 1-x^2 - 0.5}$, p: $\sqrt { 1-x^2 - 0.9}$}{figure.18}{}}
\@writefile{lof}{\contentsline {figure}{\numberline {19}{\ignorespaces  Discrretized model of function g: $\sqrt  { 1-x^2}$ that can be used as a kernel }}{16}{figure.19}\protected@file@percent }
\newlabel{fig:your_image_label}{{19}{16}{Discrretized model of function g: $\sqrt { 1-x^2}$ that can be used as a kernel}{figure.19}{}}
\@writefile{lof}{\contentsline {figure}{\numberline {20}{\ignorespaces  Discretized model of function g: $\sqrt  { 1-x^2}$ generated by code along the X axis }}{17}{figure.20}\protected@file@percent }
\newlabel{fig:your_image_label}{{20}{17}{Discretized model of function g: $\sqrt { 1-x^2}$ generated by code along the X axis}{figure.20}{}}
\@writefile{lof}{\contentsline {figure}{\numberline {21}{\ignorespaces  A kernel set with two levels to detect all cylinders}}{17}{figure.21}\protected@file@percent }
\newlabel{fig:cylinderKernel}{{21}{17}{A kernel set with two levels to detect all cylinders}{figure.21}{}}
\@writefile{lof}{\contentsline {figure}{\numberline {22}{\ignorespaces  The kernel set with two levels to detect all cylinders (yellow) compared to Point cloud (green)}}{18}{figure.22}\protected@file@percent }
\newlabel{fig:your_image_label}{{22}{18}{The kernel set with two levels to detect all cylinders (yellow) compared to Point cloud (green)}{figure.22}{}}
\@writefile{lof}{\contentsline {figure}{\numberline {23}{\ignorespaces  Kernel adjusted on the given [0, 0, 0] points}}{18}{figure.23}\protected@file@percent }
\newlabel{fig:your_image_label}{{23}{18}{Kernel adjusted on the given [0, 0, 0] points}{figure.23}{}}
\@writefile{lof}{\contentsline {figure}{\numberline {24}{\ignorespaces  Shifted cylinder equations to generate kernels}}{19}{figure.24}\protected@file@percent }
\newlabel{fig:your_image_label}{{24}{19}{Shifted cylinder equations to generate kernels}{figure.24}{}}
\@writefile{lof}{\contentsline {figure}{\numberline {25}{\ignorespaces  Shifted cylinder kernels on a given point}}{19}{figure.25}\protected@file@percent }
\newlabel{fig:your_image_label}{{25}{19}{Shifted cylinder kernels on a given point}{figure.25}{}}
\@writefile{toc}{\contentsline {subsubsection}{\numberline {3.3.3}Sphere}{19}{subsubsection.3.3.3}\protected@file@percent }
\@writefile{lof}{\contentsline {figure}{\numberline {26}{\ignorespaces  Single kernel from sphere kernel set}}{20}{figure.26}\protected@file@percent }
\newlabel{fig:your_image_label}{{26}{20}{Single kernel from sphere kernel set}{figure.26}{}}
\@writefile{lof}{\contentsline {figure}{\numberline {27}{\ignorespaces  Kernel set to detect spheres}}{20}{figure.27}\protected@file@percent }
\newlabel{fig:your_image_label}{{27}{20}{Kernel set to detect spheres}{figure.27}{}}
\@writefile{lof}{\contentsline {figure}{\numberline {28}{\ignorespaces  A sphere that can be detected by the kernel set}}{21}{figure.28}\protected@file@percent }
\newlabel{fig:your_image_label}{{28}{21}{A sphere that can be detected by the kernel set}{figure.28}{}}
\@writefile{lof}{\contentsline {figure}{\numberline {29}{\ignorespaces  A sphere that can be detected by the kernel set}}{22}{figure.29}\protected@file@percent }
\newlabel{fig:your_image_label}{{29}{22}{A sphere that can be detected by the kernel set}{figure.29}{}}
\@writefile{toc}{\contentsline {subsection}{\numberline {3.4}Algorithms}{22}{subsection.3.4}\protected@file@percent }
\@writefile{toc}{\contentsline {subsubsection}{\numberline {3.4.1}Dilation on Array of points}{23}{subsubsection.3.4.1}\protected@file@percent }
\@writefile{lof}{\contentsline {figure}{\numberline {30}{\ignorespaces  Stuctogram of dilation on array of points}}{23}{figure.30}\protected@file@percent }
\newlabel{fig:your_image_label}{{30}{23}{Stuctogram of dilation on array of points}{figure.30}{}}
\@writefile{toc}{\contentsline {subsubsection}{\numberline {3.4.2}Dilation on Tree of Z, X, Y}{24}{subsubsection.3.4.2}\protected@file@percent }
\@writefile{lof}{\contentsline {figure}{\numberline {31}{\ignorespaces  On top the original point cloud can be seen (green), bellow the down sampled version due to the threshold of the Tree structure}}{24}{figure.31}\protected@file@percent }
\newlabel{fig:your_image_label}{{31}{24}{On top the original point cloud can be seen (green), bellow the down sampled version due to the threshold of the Tree structure}{figure.31}{}}
\@writefile{lof}{\contentsline {figure}{\numberline {32}{\ignorespaces  Stuctogram of dilation on Tree of points}}{25}{figure.32}\protected@file@percent }
\newlabel{fig:your_image_label}{{32}{25}{Stuctogram of dilation on Tree of points}{figure.32}{}}
\@writefile{lof}{\contentsline {figure}{\numberline {33}{\ignorespaces  Stuctogram of dilation on Tree of points}}{25}{figure.33}\protected@file@percent }
\newlabel{fig:your_image_label}{{33}{25}{Stuctogram of dilation on Tree of points}{figure.33}{}}
\@writefile{toc}{\contentsline {subsubsection}{\numberline {3.4.3}Dilation on Matrix hashmap of Trees of Z, X, Y}{26}{subsubsection.3.4.3}\protected@file@percent }
\@writefile{lof}{\contentsline {figure}{\numberline {34}{\ignorespaces  Stuctogram of initial func for dilating a matrix hashmap tree}}{26}{figure.34}\protected@file@percent }
\newlabel{fig:your_image_label}{{34}{26}{Stuctogram of initial func for dilating a matrix hashmap tree}{figure.34}{}}
\@writefile{lof}{\contentsline {figure}{\numberline {35}{\ignorespaces  Stuctogram of dilation on Tree of points}}{27}{figure.35}\protected@file@percent }
\newlabel{fig:your_image_label}{{35}{27}{Stuctogram of dilation on Tree of points}{figure.35}{}}
\@writefile{toc}{\contentsline {subsubsection}{\numberline {3.4.4}Erosion on Array of points}{27}{subsubsection.3.4.4}\protected@file@percent }
\@writefile{lof}{\contentsline {figure}{\numberline {36}{\ignorespaces  Stuctogram of erosion on array of points}}{28}{figure.36}\protected@file@percent }
\newlabel{fig:your_image_label}{{36}{28}{Stuctogram of erosion on array of points}{figure.36}{}}
\@writefile{toc}{\contentsline {subsubsection}{\numberline {3.4.5}Erosion on Tree of Z, X, Y}{28}{subsubsection.3.4.5}\protected@file@percent }
\@writefile{lof}{\contentsline {figure}{\numberline {37}{\ignorespaces  Stuctogram of erosion on Tree}}{29}{figure.37}\protected@file@percent }
\newlabel{fig:your_image_label}{{37}{29}{Stuctogram of erosion on Tree}{figure.37}{}}
\@writefile{lof}{\contentsline {figure}{\numberline {38}{\ignorespaces  Stuctogram of erosion on Tree}}{29}{figure.38}\protected@file@percent }
\newlabel{fig:your_image_label}{{38}{29}{Stuctogram of erosion on Tree}{figure.38}{}}
\@writefile{toc}{\contentsline {subsubsection}{\numberline {3.4.6}Erosion on Matrix hashmap of Trees of Z, X, Y}{30}{subsubsection.3.4.6}\protected@file@percent }
\@writefile{lof}{\contentsline {figure}{\numberline {39}{\ignorespaces Stuctogram of initial func for erosion a matrix hashmap tree}}{30}{figure.39}\protected@file@percent }
\newlabel{fig:your_image_label}{{39}{30}{Stuctogram of initial func for erosion a matrix hashmap tree}{figure.39}{}}
\@writefile{lof}{\contentsline {figure}{\numberline {40}{\ignorespaces  Stuctogram of recursive func for eroding a matrix hashmap tree}}{31}{figure.40}\protected@file@percent }
\newlabel{fig:your_image_label}{{40}{31}{Stuctogram of recursive func for eroding a matrix hashmap tree}{figure.40}{}}
\@writefile{toc}{\contentsline {subsubsection}{\numberline {3.4.7}Searching for Point}{31}{subsubsection.3.4.7}\protected@file@percent }
\@writefile{lof}{\contentsline {figure}{\numberline {41}{\ignorespaces  Stuctogram of searching for a point, in a Tree}}{32}{figure.41}\protected@file@percent }
\newlabel{fig:your_image_label}{{41}{32}{Stuctogram of searching for a point, in a Tree}{figure.41}{}}
\@writefile{toc}{\contentsline {subsubsection}{\numberline {3.4.8}Inserting Point}{33}{subsubsection.3.4.8}\protected@file@percent }
\@writefile{lof}{\contentsline {figure}{\numberline {42}{\ignorespaces  Stuctogram of inserting a point, in a Tree}}{33}{figure.42}\protected@file@percent }
\newlabel{fig:your_image_label}{{42}{33}{Stuctogram of inserting a point, in a Tree}{figure.42}{}}
\citation{MeshLab}
\@writefile{toc}{\contentsline {section}{\numberline {4} Results and Discussion}{34}{section.4}\protected@file@percent }
\@writefile{toc}{\contentsline {subsection}{\numberline {4.1}Detecting planes using Array of points}{34}{subsection.4.1}\protected@file@percent }
\@writefile{lof}{\contentsline {figure}{\numberline {43}{\ignorespaces  floor1.xyz point cloud}}{35}{figure.43}\protected@file@percent }
\newlabel{fig:floor1}{{43}{35}{floor1.xyz point cloud}{figure.43}{}}
\@writefile{lof}{\contentsline {figure}{\numberline {44}{\ignorespaces  Floor1 point cloud (green) overlaped with detected planes (purple)}}{35}{figure.44}\protected@file@percent }
\newlabel{fig:your_image_label}{{44}{35}{Floor1 point cloud (green) overlaped with detected planes (purple)}{figure.44}{}}
\@writefile{lof}{\contentsline {figure}{\numberline {45}{\ignorespaces  Floor1.xyz point cloud}}{36}{figure.45}\protected@file@percent }
\newlabel{fig:your_image_label}{{45}{36}{Floor1.xyz point cloud}{figure.45}{}}
\@writefile{lof}{\contentsline {figure}{\numberline {46}{\ignorespaces  Floor1.xyz point cloud}}{36}{figure.46}\protected@file@percent }
\newlabel{fig:your_image_label}{{46}{36}{Floor1.xyz point cloud}{figure.46}{}}
\@writefile{lof}{\contentsline {figure}{\numberline {47}{\ignorespaces  Run time of detecting two planes $5705 ms$}}{36}{figure.47}\protected@file@percent }
\newlabel{fig:your_image_label}{{47}{36}{Run time of detecting two planes $5705 ms$}{figure.47}{}}
\@writefile{toc}{\contentsline {subsection}{\numberline {4.2}Detecting planes using Tree of Z, X, Y}{37}{subsection.4.2}\protected@file@percent }
\@writefile{lof}{\contentsline {figure}{\numberline {48}{\ignorespaces  Floor2 point cloud}}{37}{figure.48}\protected@file@percent }
\newlabel{fig:your_image_label}{{48}{37}{Floor2 point cloud}{figure.48}{}}
\@writefile{lof}{\contentsline {figure}{\numberline {49}{\ignorespaces  Down sampled point cloud }}{38}{figure.49}\protected@file@percent }
\newlabel{fig:your_image_label}{{49}{38}{Down sampled point cloud}{figure.49}{}}
\@writefile{lof}{\contentsline {figure}{\numberline {50}{\ignorespaces  Floor2 point cloud with detected planes}}{38}{figure.50}\protected@file@percent }
\newlabel{fig:your_image_label}{{50}{38}{Floor2 point cloud with detected planes}{figure.50}{}}
\@writefile{lof}{\contentsline {figure}{\numberline {51}{\ignorespaces  Detected all planes within $276ms$}}{39}{figure.51}\protected@file@percent }
\newlabel{fig:your_image_label}{{51}{39}{Detected all planes within $276ms$}{figure.51}{}}
\@writefile{lof}{\contentsline {figure}{\numberline {52}{\ignorespaces  Pointcloud of basement columns}}{39}{figure.52}\protected@file@percent }
\newlabel{fig:your_image_label}{{52}{39}{Pointcloud of basement columns}{figure.52}{}}
\@writefile{lof}{\contentsline {figure}{\numberline {53}{\ignorespaces  Detected all planes on basement columns}}{39}{figure.53}\protected@file@percent }
\newlabel{fig:basement_columns_detected_morphology}{{53}{39}{Detected all planes on basement columns}{figure.53}{}}
\@writefile{lof}{\contentsline {figure}{\numberline {54}{\ignorespaces  AllInOne point cloud containing $44292$ points.}}{40}{figure.54}\protected@file@percent }
\newlabel{fig:allInOne}{{54}{40}{AllInOne point cloud containing $44292$ points}{figure.54}{}}
\@writefile{lof}{\contentsline {figure}{\numberline {55}{\ignorespaces  AllInOne point cloud with detected planes, after zooming in}}{41}{figure.55}\protected@file@percent }
\newlabel{fig:your_image_label}{{55}{41}{AllInOne point cloud with detected planes, after zooming in}{figure.55}{}}
\@writefile{lof}{\contentsline {figure}{\numberline {56}{\ignorespaces  AllInOne point test results took $1675ms$}}{41}{figure.56}\protected@file@percent }
\newlabel{fig:allInOneTreeTest}{{56}{41}{AllInOne point test results took $1675ms$}{figure.56}{}}
\@writefile{toc}{\contentsline {subsection}{\numberline {4.3}Detecting planes using Matrix hashmap of Trees of Z, X, Y}{41}{subsection.4.3}\protected@file@percent }
\@writefile{lof}{\contentsline {figure}{\numberline {57}{\ignorespaces  Floor1 after detecting planes using erosion with matrix hashmap data structure.}}{42}{figure.57}\protected@file@percent }
\newlabel{fig:your_image_label}{{57}{42}{Floor1 after detecting planes using erosion with matrix hashmap data structure}{figure.57}{}}
\@writefile{lof}{\contentsline {figure}{\numberline {58}{\ignorespaces  Floor1 point test results took $104ms$}}{42}{figure.58}\protected@file@percent }
\newlabel{fig:your_image_label}{{58}{42}{Floor1 point test results took $104ms$}{figure.58}{}}
\@writefile{lof}{\contentsline {figure}{\numberline {59}{\ignorespaces  Printing out the size of each Tree per cell}}{43}{figure.59}\protected@file@percent }
\newlabel{fig:your_image_label}{{59}{43}{Printing out the size of each Tree per cell}{figure.59}{}}
\@writefile{lof}{\contentsline {figure}{\numberline {60}{\ignorespaces  Size of each Tree per cell in a more visible form}}{43}{figure.60}\protected@file@percent }
\newlabel{fig:your_image_label}{{60}{43}{Size of each Tree per cell in a more visible form}{figure.60}{}}
\@writefile{lof}{\contentsline {figure}{\numberline {61}{\ignorespaces  All the planes from point cloud: allInOne}}{44}{figure.61}\protected@file@percent }
\newlabel{fig:your_image_label}{{61}{44}{All the planes from point cloud: allInOne}{figure.61}{}}
\@writefile{lof}{\contentsline {figure}{\numberline {62}{\ignorespaces  Detecting all the planes with a run time $264ms$}}{44}{figure.62}\protected@file@percent }
\newlabel{fig:your_image_label}{{62}{44}{Detecting all the planes with a run time $264ms$}{figure.62}{}}
\@writefile{toc}{\contentsline {subsection}{\numberline {4.4}Detecting cylinders}{44}{subsection.4.4}\protected@file@percent }
\@writefile{lof}{\contentsline {figure}{\numberline {63}{\ignorespaces  Cylinder kernel with artifacts}}{45}{figure.63}\protected@file@percent }
\newlabel{fig:your_image_label}{{63}{45}{Cylinder kernel with artifacts}{figure.63}{}}
\@writefile{lof}{\contentsline {figure}{\numberline {64}{\ignorespaces  Cylinder kernel hand tailored for each ring}}{46}{figure.64}\protected@file@percent }
\newlabel{fig:your_image_label}{{64}{46}{Cylinder kernel hand tailored for each ring}{figure.64}{}}
\@writefile{lof}{\contentsline {figure}{\numberline {65}{\ignorespaces  Cylinder kernel hand tailored for each ring}}{47}{figure.65}\protected@file@percent }
\newlabel{fig:handTailored_cylinder_kernel}{{65}{47}{Cylinder kernel hand tailored for each ring}{figure.65}{}}
\@writefile{toc}{\contentsline {subsection}{\numberline {4.5}Detecting cylinders using Tree of Z, X, Y}{47}{subsection.4.5}\protected@file@percent }
\@writefile{lof}{\contentsline {figure}{\numberline {66}{\ignorespaces  Detected cylinders overlapping on original point cloud}}{48}{figure.66}\protected@file@percent }
\newlabel{fig:your_image_label}{{66}{48}{Detected cylinders overlapping on original point cloud}{figure.66}{}}
\@writefile{lof}{\contentsline {figure}{\numberline {67}{\ignorespaces  Detected cylinders.}}{48}{figure.67}\protected@file@percent }
\newlabel{fig:your_image_label}{{67}{48}{Detected cylinders}{figure.67}{}}
\@writefile{lof}{\contentsline {figure}{\numberline {68}{\ignorespaces  Detected fake cylinders.}}{49}{figure.68}\protected@file@percent }
\newlabel{fig:your_image_label}{{68}{49}{Detected fake cylinders}{figure.68}{}}
\@writefile{lof}{\contentsline {figure}{\numberline {69}{\ignorespaces  Detecting on floor2 where no cylinders are found.}}{49}{figure.69}\protected@file@percent }
\newlabel{fig:your_image_label}{{69}{49}{Detecting on floor2 where no cylinders are found}{figure.69}{}}
\@writefile{lof}{\contentsline {figure}{\numberline {70}{\ignorespaces  Detected cylinders with less noise overlapping the original point cloud.}}{50}{figure.70}\protected@file@percent }
\newlabel{fig:cylinderDetectedRightOverlap}{{70}{50}{Detected cylinders with less noise overlapping the original point cloud}{figure.70}{}}
\@writefile{lof}{\contentsline {figure}{\numberline {71}{\ignorespaces  Detected cylinders.}}{50}{figure.71}\protected@file@percent }
\newlabel{fig:cylinderDetectedRight}{{71}{50}{Detected cylinders}{figure.71}{}}
\@writefile{lof}{\contentsline {figure}{\numberline {72}{\ignorespaces  Detecting cylinders in $521ms$}}{50}{figure.72}\protected@file@percent }
\newlabel{fig:your_image_label}{{72}{50}{Detecting cylinders in $521ms$}{figure.72}{}}
\@writefile{toc}{\contentsline {subsection}{\numberline {4.6}Detecting cylinders using Matrix hashmap of Trees of Z, X, Y}{51}{subsection.4.6}\protected@file@percent }
\@writefile{lof}{\contentsline {figure}{\numberline {73}{\ignorespaces  Detecting cylinders in $570ms$ using \textit  {Matrix hashmap tree data structure on normal point cloud}}}{51}{figure.73}\protected@file@percent }
\newlabel{fig:your_image_label}{{73}{51}{Detecting cylinders in $570ms$ using \textit {Matrix hashmap tree data structure on normal point cloud}}{figure.73}{}}
\@writefile{lof}{\contentsline {figure}{\numberline {74}{\ignorespaces  Detecting cylinders in $650ms$ using \textit  {Tree data structure} enhanced point cloud}}{51}{figure.74}\protected@file@percent }
\newlabel{fig:your_image_label}{{74}{51}{Detecting cylinders in $650ms$ using \textit {Tree data structure} enhanced point cloud}{figure.74}{}}
\@writefile{toc}{\contentsline {subsection}{\numberline {4.7}Detecting Spheres}{51}{subsection.4.7}\protected@file@percent }
\@writefile{lof}{\contentsline {figure}{\numberline {75}{\ignorespaces  Sphere recorded at university with rigid rings}}{52}{figure.75}\protected@file@percent }
\newlabel{fig:your_image_label}{{75}{52}{Sphere recorded at university with rigid rings}{figure.75}{}}
\@writefile{lof}{\contentsline {figure}{\numberline {76}{\ignorespaces  Floor1.xyz merged with the generated sphere (green points)}}{53}{figure.76}\protected@file@percent }
\newlabel{fig:your_image_label}{{76}{53}{Floor1.xyz merged with the generated sphere (green points)}{figure.76}{}}
\@writefile{lof}{\contentsline {figure}{\numberline {77}{\ignorespaces  Simple kernel used for detecting spheres, the upper two smaller rings gives the curvature of the sphere}}{54}{figure.77}\protected@file@percent }
\newlabel{fig:your_image_label}{{77}{54}{Simple kernel used for detecting spheres, the upper two smaller rings gives the curvature of the sphere}{figure.77}{}}
\@writefile{toc}{\contentsline {subsection}{\numberline {4.8}Detecting Spheres using Tree of Z, X, Y}{54}{subsection.4.8}\protected@file@percent }
\@writefile{lof}{\contentsline {figure}{\numberline {78}{\ignorespaces  The detected sphere (green) overlapping the original point cloud (yellow)}}{54}{figure.78}\protected@file@percent }
\newlabel{fig:sphere_detected_on_floor_1}{{78}{54}{The detected sphere (green) overlapping the original point cloud (yellow)}{figure.78}{}}
\citation{Open3D pyLib}
\citation{Nikita Safronov Hough Transform}
\@writefile{lof}{\contentsline {figure}{\numberline {79}{\ignorespaces The detection took $1264$ ms}}{55}{figure.79}\protected@file@percent }
\newlabel{fig:your_image_label}{{79}{55}{The detection took $1264$ ms}{figure.79}{}}
\@writefile{toc}{\contentsline {subsection}{\numberline {4.9}Detecting Spheres using Matrix hashmap of Trees of Z, X, Y}{55}{subsection.4.9}\protected@file@percent }
\@writefile{lof}{\contentsline {figure}{\numberline {80}{\ignorespaces  The detected sphere (red) overlapping the original point cloud (yellow)}}{55}{figure.80}\protected@file@percent }
\newlabel{fig:your_image_label}{{80}{55}{The detected sphere (red) overlapping the original point cloud (yellow)}{figure.80}{}}
\@writefile{lof}{\contentsline {figure}{\numberline {81}{\ignorespaces The detection took $492$ ms}}{55}{figure.81}\protected@file@percent }
\newlabel{fig:your_image_label}{{81}{55}{The detection took $492$ ms}{figure.81}{}}
\citation{notebook}
\@writefile{toc}{\contentsline {subsection}{\numberline {4.10}Comparison with RANSAC and Hough Transform}{56}{subsection.4.10}\protected@file@percent }
\@writefile{toc}{\contentsline {subsubsection}{\numberline {4.10.1}RANSAC detect Planes}{56}{subsubsection.4.10.1}\protected@file@percent }
\@writefile{lof}{\contentsline {figure}{\numberline {82}{\ignorespaces Floor1 point cloud}}{58}{figure.82}\protected@file@percent }
\newlabel{fig:your_image_label}{{82}{58}{Floor1 point cloud}{figure.82}{}}
\@writefile{lof}{\contentsline {figure}{\numberline {83}{\ignorespaces Detected planes with a few false positive areas and missing three planes, the ramp going out of the garage and the side wall of it}}{58}{figure.83}\protected@file@percent }
\newlabel{fig:your_image_label}{{83}{58}{Detected planes with a few false positive areas and missing three planes, the ramp going out of the garage and the side wall of it}{figure.83}{}}
\@writefile{lof}{\contentsline {figure}{\numberline {84}{\ignorespaces Detected planes with a few false positive areas and missing three planes, the ramp going out of the garage and the side wall of it}}{59}{figure.84}\protected@file@percent }
\newlabel{fig:your_image_label}{{84}{59}{Detected planes with a few false positive areas and missing three planes, the ramp going out of the garage and the side wall of it}{figure.84}{}}
\@writefile{lof}{\contentsline {figure}{\numberline {85}{\ignorespaces Detected two planes with high number of points, the ground and ceiling and side wall with low amount of points but shown. The following hyper parameters were used $distance$ $threshold=0.0005$, $ransac$ $n=3$, $num$ $iterations=1000$}}{59}{figure.85}\protected@file@percent }
\newlabel{fig:your_image_label}{{85}{59}{Detected two planes with high number of points, the ground and ceiling and side wall with low amount of points but shown. The following hyper parameters were used $distance$ $threshold=0.0005$, $ransac$ $n=3$, $num$ $iterations=1000$}{figure.85}{}}
\@writefile{lof}{\contentsline {figure}{\numberline {86}{\ignorespaces Detected two planes but missing the ground and ceiling and one wall. The following hyper parameters were used $distance$ $threshold=0.0004$, $ransac$ $n=3$, $num$ $iterations=1000$}}{60}{figure.86}\protected@file@percent }
\newlabel{fig:your_image_label}{{86}{60}{Detected two planes but missing the ground and ceiling and one wall. The following hyper parameters were used $distance$ $threshold=0.0004$, $ransac$ $n=3$, $num$ $iterations=1000$}{figure.86}{}}
\@writefile{lof}{\contentsline {figure}{\numberline {87}{\ignorespaces Detected the ceiling plane with sparse points with the hyper parameters: $distance$ $threshold=0.0004$, $ransac$ $n=3$, $num_iterations=1000$}}{60}{figure.87}\protected@file@percent }
\newlabel{fig:your_image_label}{{87}{60}{Detected the ceiling plane with sparse points with the hyper parameters: $distance$ $threshold=0.0004$, $ransac$ $n=3$, $num_iterations=1000$}{figure.87}{}}
\@writefile{lof}{\contentsline {figure}{\numberline {88}{\ignorespaces Point cloud with cylinders and two planes in the basement}}{61}{figure.88}\protected@file@percent }
\newlabel{fig:your_image_label}{{88}{61}{Point cloud with cylinders and two planes in the basement}{figure.88}{}}
\@writefile{lof}{\contentsline {figure}{\numberline {89}{\ignorespaces Detected both planes, and some false positives that are cylinders, the run time is around $50$ $ms$.}}{61}{figure.89}\protected@file@percent }
\newlabel{fig:your_image_label}{{89}{61}{Detected both planes, and some false positives that are cylinders, the run time is around $50$ $ms$}{figure.89}{}}
\@writefile{lof}{\contentsline {figure}{\numberline {90}{\ignorespaces Detected both planes, and some false positives that are cylinders, the run time is around $82 ms$.}}{62}{figure.90}\protected@file@percent }
\newlabel{fig:your_image_label}{{90}{62}{Detected both planes, and some false positives that are cylinders, the run time is around $82 ms$}{figure.90}{}}
\@writefile{toc}{\contentsline {subsubsection}{\numberline {4.10.2}RANSAC detect Cylinders}{62}{subsubsection.4.10.2}\protected@file@percent }
\@writefile{lof}{\contentsline {figure}{\numberline {91}{\ignorespaces Basement with columns point cloud.}}{64}{figure.91}\protected@file@percent }
\newlabel{fig:your_image_label}{{91}{64}{Basement with columns point cloud}{figure.91}{}}
\@writefile{lof}{\contentsline {figure}{\numberline {92}{\ignorespaces The best fit for detecting cylinders marked as red}}{64}{figure.92}\protected@file@percent }
\newlabel{fig:your_image_label}{{92}{64}{The best fit for detecting cylinders marked as red}{figure.92}{}}
\citation{pyransac3d pyLib}
\@writefile{toc}{\contentsline {subsubsection}{\numberline {4.10.3}RANSAC detect Spheres}{65}{subsubsection.4.10.3}\protected@file@percent }
\citation{Nikita Safronov Hough Transform}
\@writefile{lof}{\contentsline {figure}{\numberline {93}{\ignorespaces Floor1 point cloud with a generated sphere}}{66}{figure.93}\protected@file@percent }
\newlabel{fig:your_image_label}{{93}{66}{Floor1 point cloud with a generated sphere}{figure.93}{}}
\@writefile{lof}{\contentsline {figure}{\numberline {94}{\ignorespaces Floor1 point cloud (green) with a detected sphere (red)}}{66}{figure.94}\protected@file@percent }
\newlabel{fig:your_image_label}{{94}{66}{Floor1 point cloud (green) with a detected sphere (red)}{figure.94}{}}
\@writefile{toc}{\contentsline {subsubsection}{\numberline {4.10.4}Hough Transform detect Planes}{66}{subsubsection.4.10.4}\protected@file@percent }
\@writefile{lof}{\contentsline {figure}{\numberline {95}{\ignorespaces Floor1 point cloud}}{67}{figure.95}\protected@file@percent }
\newlabel{fig:your_image_label}{{95}{67}{Floor1 point cloud}{figure.95}{}}
\@writefile{lof}{\contentsline {figure}{\numberline {96}{\ignorespaces Floor1 with the detected planes, the seemingly fake positive bellow all the points, is actually the ramp detected. There is a multiple detection on the wall, and a fake detection on the middle area.}}{68}{figure.96}\protected@file@percent }
\newlabel{fig:your_image_label}{{96}{68}{Floor1 with the detected planes, the seemingly fake positive bellow all the points, is actually the ramp detected. There is a multiple detection on the wall, and a fake detection on the middle area}{figure.96}{}}
\@writefile{lof}{\contentsline {figure}{\numberline {97}{\ignorespaces Floor1 with the detected planes except the ramp, There are a multiple fake detection in the middle area.}}{69}{figure.97}\protected@file@percent }
\newlabel{fig:your_image_label}{{97}{69}{Floor1 with the detected planes except the ramp, There are a multiple fake detection in the middle area}{figure.97}{}}
\@writefile{lof}{\contentsline {figure}{\numberline {98}{\ignorespaces Floor1 with one fake detected plane.}}{69}{figure.98}\protected@file@percent }
\newlabel{fig:your_image_label}{{98}{69}{Floor1 with one fake detected plane}{figure.98}{}}
\@writefile{lof}{\contentsline {figure}{\numberline {99}{\ignorespaces Floor1 with three planes detected, one missing.}}{70}{figure.99}\protected@file@percent }
\newlabel{fig:your_image_label}{{99}{70}{Floor1 with three planes detected, one missing}{figure.99}{}}
\@writefile{lof}{\contentsline {figure}{\numberline {100}{\ignorespaces Basement columns.xyz point cloud.}}{70}{figure.100}\protected@file@percent }
\newlabel{fig:your_image_label}{{100}{70}{Basement columns.xyz point cloud}{figure.100}{}}
\@writefile{lof}{\contentsline {figure}{\numberline {101}{\ignorespaces Basement columns.xyz with two (all) planes detected.}}{71}{figure.101}\protected@file@percent }
\newlabel{fig:your_image_label}{{101}{71}{Basement columns.xyz with two (all) planes detected}{figure.101}{}}
\@writefile{toc}{\contentsline {subsection}{\numberline {4.11}Synthetic test}{71}{subsection.4.11}\protected@file@percent }
\@writefile{toc}{\contentsline {subsubsection}{\numberline {4.11.1}Generating a test field for detection}{71}{subsubsection.4.11.1}\protected@file@percent }
\@writefile{lof}{\contentsline {figure}{\numberline {102}{\ignorespaces Field generated by the python code above}}{75}{figure.102}\protected@file@percent }
\newlabel{fig:your_image_label}{{102}{75}{Field generated by the python code above}{figure.102}{}}
\@writefile{lof}{\contentsline {figure}{\numberline {103}{\ignorespaces Field generated by the python code zoomed out sideways}}{75}{figure.103}\protected@file@percent }
\newlabel{fig:your_image_label}{{103}{75}{Field generated by the python code zoomed out sideways}{figure.103}{}}
\@writefile{lof}{\contentsline {figure}{\numberline {104}{\ignorespaces Down sampled version of the generated field}}{76}{figure.104}\protected@file@percent }
\newlabel{fig:original}{{104}{76}{Down sampled version of the generated field}{figure.104}{}}
\@writefile{toc}{\contentsline {subsubsection}{\numberline {4.11.2}Planes}{76}{subsubsection.4.11.2}\protected@file@percent }
\@writefile{lof}{\contentsline {figure}{\numberline {105}{\ignorespaces Detected planes}}{77}{figure.105}\protected@file@percent }
\newlabel{fig:original}{{105}{77}{Detected planes}{figure.105}{}}
\@writefile{lof}{\contentsline {figure}{\numberline {106}{\ignorespaces Detected planes after DBSCAN}}{77}{figure.106}\protected@file@percent }
\newlabel{fig:original}{{106}{77}{Detected planes after DBSCAN}{figure.106}{}}
\@writefile{toc}{\contentsline {subsubsection}{\numberline {4.11.3}Planes with extreme noise}{78}{subsubsection.4.11.3}\protected@file@percent }
\@writefile{lof}{\contentsline {figure}{\numberline {107}{\ignorespaces Detected planes}}{78}{figure.107}\protected@file@percent }
\newlabel{fig:original}{{107}{78}{Detected planes}{figure.107}{}}
\@writefile{lof}{\contentsline {figure}{\numberline {108}{\ignorespaces Detected planes after DBSCAN}}{79}{figure.108}\protected@file@percent }
\newlabel{fig:original}{{108}{79}{Detected planes after DBSCAN}{figure.108}{}}
\@writefile{toc}{\contentsline {subsubsection}{\numberline {4.11.4}Cylinders}{79}{subsubsection.4.11.4}\protected@file@percent }
\@writefile{lof}{\contentsline {figure}{\numberline {109}{\ignorespaces Detected cylinders}}{80}{figure.109}\protected@file@percent }
\newlabel{fig:original}{{109}{80}{Detected cylinders}{figure.109}{}}
\@writefile{lof}{\contentsline {figure}{\numberline {110}{\ignorespaces Detected cylinders after DBSCAN}}{80}{figure.110}\protected@file@percent }
\newlabel{fig:original}{{110}{80}{Detected cylinders after DBSCAN}{figure.110}{}}
\@writefile{toc}{\contentsline {subsubsection}{\numberline {4.11.5}Cylinders with extreme noise}{80}{subsubsection.4.11.5}\protected@file@percent }
\@writefile{lof}{\contentsline {figure}{\numberline {111}{\ignorespaces Detected cylinders}}{81}{figure.111}\protected@file@percent }
\newlabel{fig:original}{{111}{81}{Detected cylinders}{figure.111}{}}
\@writefile{lof}{\contentsline {figure}{\numberline {112}{\ignorespaces Detected cylinders after DBSCAN}}{82}{figure.112}\protected@file@percent }
\newlabel{fig:original}{{112}{82}{Detected cylinders after DBSCAN}{figure.112}{}}
\@writefile{toc}{\contentsline {subsubsection}{\numberline {4.11.6}Spheres}{82}{subsubsection.4.11.6}\protected@file@percent }
\@writefile{lof}{\contentsline {figure}{\numberline {113}{\ignorespaces Detected spheres}}{82}{figure.113}\protected@file@percent }
\newlabel{fig:original}{{113}{82}{Detected spheres}{figure.113}{}}
\@writefile{toc}{\contentsline {subsubsection}{\numberline {4.11.7}Spheres with extreme noise}{83}{subsubsection.4.11.7}\protected@file@percent }
\@writefile{lof}{\contentsline {figure}{\numberline {114}{\ignorespaces Detected spheres on the noisy point cloud shown sideways}}{83}{figure.114}\protected@file@percent }
\newlabel{fig:original}{{114}{83}{Detected spheres on the noisy point cloud shown sideways}{figure.114}{}}
\@writefile{lof}{\contentsline {figure}{\numberline {115}{\ignorespaces Detected spheres zooming inside the point cloud}}{84}{figure.115}\protected@file@percent }
\newlabel{fig:original}{{115}{84}{Detected spheres zooming inside the point cloud}{figure.115}{}}
\@writefile{toc}{\contentsline {subsubsection}{\numberline {4.11.8}DBSCAN reference code}{84}{subsubsection.4.11.8}\protected@file@percent }
\@writefile{toc}{\contentsline {subsection}{\numberline {4.12}Overall Results}{86}{subsection.4.12}\protected@file@percent }
\@writefile{toc}{\contentsline {subsubsection}{\numberline {4.12.1}Histograms}{86}{subsubsection.4.12.1}\protected@file@percent }
\@writefile{toc}{\contentsline {subsubsection}{\numberline {4.12.2}Confusion Matrix}{89}{subsubsection.4.12.2}\protected@file@percent }
\@writefile{lot}{\contentsline {table}{\numberline {1}{\ignorespaces \textbf  {Plane} detection using \textbf  {morphology} on floor1}}{89}{table.1}\protected@file@percent }
\@writefile{lot}{\contentsline {table}{\numberline {2}{\ignorespaces \textbf  {Plane} detection using \textbf  {RANSEC, SeqRANSEC, LO-RANSEC} on floor1}}{89}{table.2}\protected@file@percent }
\@writefile{lot}{\contentsline {table}{\numberline {3}{\ignorespaces \textbf  {Plane} detection using \textbf  {Hough Transform} basement columns}}{90}{table.3}\protected@file@percent }
\@writefile{lot}{\contentsline {table}{\numberline {4}{\ignorespaces \textbf  {Plane} detection using \textbf  {morphology} basement columns}}{90}{table.4}\protected@file@percent }
\@writefile{lot}{\contentsline {table}{\numberline {5}{\ignorespaces \textbf  {Plane} detection using \textbf  {RANSEC} basement columns}}{90}{table.5}\protected@file@percent }
\@writefile{lot}{\contentsline {table}{\numberline {6}{\ignorespaces \textbf  {Plane} detection using \textbf  {SeqRANSEC, LO-RANSEC} basement columns}}{90}{table.6}\protected@file@percent }
\@writefile{lot}{\contentsline {table}{\numberline {7}{\ignorespaces \textbf  {Plane} detection using \textbf  {Hough Transform} basement columns}}{90}{table.7}\protected@file@percent }
\@writefile{lot}{\contentsline {table}{\numberline {8}{\ignorespaces \textbf  {Cylinder} detection using \textbf  {morphology} basement columns}}{90}{table.8}\protected@file@percent }
\citation{matlab}
\citation{matlab morphological operators}
\citation{MeshLab}
\citation{Structorizer}
\citation{GCC}
\citation{C++}
\citation{python}
\citation{Open3D pyLib}
\citation{notebook}
\@writefile{lot}{\contentsline {table}{\numberline {9}{\ignorespaces \textbf  {Cylinder} detection using \textbf  {RANSEC} basement columns, not always guaranteed to find 3 or mark non cylinders as cylinders, but always finds one for high confidence.}}{91}{table.9}\protected@file@percent }
\@writefile{lot}{\contentsline {table}{\numberline {10}{\ignorespaces \textbf  {Sphere} detection using \textbf  {morphology} sphere artificial floor1}}{91}{table.10}\protected@file@percent }
\@writefile{lot}{\contentsline {table}{\numberline {11}{\ignorespaces \textbf  {Sphere} detection using \textbf  {RANSEC} sphere artificial floor1}}{91}{table.11}\protected@file@percent }
\@writefile{toc}{\contentsline {subsection}{\numberline {4.13}Testing Hardware and Software}{91}{subsection.4.13}\protected@file@percent }
\@writefile{toc}{\contentsline {subsubsection}{\numberline {4.13.1}Hardware}{91}{subsubsection.4.13.1}\protected@file@percent }
\@writefile{toc}{\contentsline {subsubsection}{\numberline {4.13.2}Software}{91}{subsubsection.4.13.2}\protected@file@percent }
\citation{PointNet}
\citation{DGCNN}
\@writefile{toc}{\contentsline {section}{\numberline {5}Conclusion}{92}{section.5}\protected@file@percent }
\@writefile{toc}{\contentsline {subsection}{\numberline {5.1}Other possible applications}{92}{subsection.5.1}\protected@file@percent }
\bibcite{JRParker}{1}
\bibcite{MeshLab}{2}
\bibcite{C++}{3}
\bibcite{python}{4}
\bibcite{notebook}{5}
\bibcite{GCC}{6}
\bibcite{Open3D pyLib}{7}
\bibcite{numpy pyLib}{8}
\bibcite{matlab}{9}
\bibcite{matlab morphological operators}{10}
\@writefile{toc}{\contentsline {subsection}{\numberline {5.2}Improvements}{93}{subsection.5.2}\protected@file@percent }
\bibcite{Structorizer}{11}
\bibcite{Nikita Safronov Hough Transform}{12}
\bibcite{pyransac3d pyLib}{13}
\bibcite{PointNet}{14}
\bibcite{DGCNN}{15}
\gdef \@abspage@last{94}
